Division,WeightClassKg,Place,Name,Team,BodyweightKg,Best3SquatKg,Best3BenchKg,Best3DeadliftKg,TotalKg,Equipment,Event,Sex
Girls,44.23,1,Audrey Smith,Hughes Springs,43.64,102.06,40.82,99.79,242.67,Single-ply,SBD,F
Girls,44.23,2,Cheyenne Jones,Cumby,44.13,99.79,47.63,95.25,242.67,Single-ply,SBD,F
Girls,44.23,3,Katlynn Clark,Celeste,44,95.25,34.02,102.06,231.33,Single-ply,SBD,F
Girls,44.23,4,Sophie Ethridge,Gilmer,43.36,63.5,31.75,63.5,158.76,Single-ply,SBD,F
Girls,47.85,1,Celeste Fortune,Queen City,47.76,95.25,40.82,99.79,235.87,Single-ply,SBD,F
Girls,47.85,2,Jessica Almazan,Mount Pleasant,47.81,61.23,34.02,79.38,174.63,Single-ply,SBD,F
Girls,47.85,3,Claudia Lopez,Daingerfield,44.81,65.77,34.02,72.57,172.37,Single-ply,SBD,F
Girls,51.94,1,Diana Aguilar,Queen City,51.26,102.06,47.63,111.13,260.82,Single-ply,SBD,F
Girls,51.94,2,Elaine Carr,Maud,51.85,99.79,38.56,102.06,240.4,Single-ply,SBD,F
Girls,51.94,3,Viola Simmons,New Boston,49.71,86.18,36.29,102.06,224.53,Single-ply,SBD,F
Girls,51.94,4,Kylee Fincher,Queen City,50.17,90.72,36.29,88.45,215.46,Single-ply,SBD,F
Girls,51.94,5,Mya Cheatham,Daingerfield,48.63,77.11,38.56,90.72,206.38,Single-ply,SBD,F
Girls,51.94,6,Jasmin Del Carmen,Mount Pleasant,48.99,70.31,34.02,74.84,179.17,Single-ply,SBD,F
Girls,51.94,DQ,Sugar Stone,Gilmer,51.71,,,,,Single-ply,SBD,F
Girls,56.02,1,Adrienne Branch,Gilmer,55.79,115.67,54.43,133.81,303.91,Single-ply,SBD,F
Girls,56.02,2,Lyndsey Anton,Hughes Springs,55.79,104.33,56.7,115.67,276.69,Single-ply,SBD,F
Girls,56.02,3,Kaylin Lansford,Queen City,55.79,111.13,47.63,115.67,274.42,Single-ply,SBD,F
Girls,56.02,4,Savannah Wright,Hughes Springs,55.79,97.52,52.16,113.4,263.08,Single-ply,SBD,F
Girls,56.02,5,Madison Minter,Celeste,53.34,99.79,45.36,77.11,222.26,Single-ply,SBD,F
Girls,56.02,6,Avery Daniels,Linden-Kildare,55.52,97.52,31.75,92.99,222.26,Single-ply,SBD,F
Girls,56.02,7,Aralet Diego,Mount Pleasant,53.71,74.84,34.02,95.25,204.12,Single-ply,SBD,F
Girls,56.02,8,Taylor Reed #4,De Kalb,55.61,68.04,38.56,97.52,204.12,Single-ply,SBD,F
Girls,56.02,9,Ashley Tuppen,De Kalb,55.61,79.38,38.56,79.38,197.31,Single-ply,SBD,F
Girls,56.02,10,Amber Tuft,Elysian Fields,55.79,72.57,31.75,72.57,176.9,Single-ply,SBD,F
Girls,56.02,DQ,Jakia Neal,Daingerfield,54.25,,,,,Single-ply,SBD,F
Girls,60.1,1,Chablis Barber,Daingerfield,58.88,145.15,61.23,149.69,356.07,Single-ply,SBD,F
Girls,60.1,2,Destiny Gonzalez,Hughes Springs,59.42,111.13,58.97,127.01,297.1,Single-ply,SBD,F
Girls,60.1,3,Anne Rouleau,Celeste,58.51,99.79,56.7,136.08,292.57,Single-ply,SBD,F
Girls,60.1,4,Madison Thomas,Cumby,59.87,120.2,54.43,115.67,290.3,Single-ply,SBD,F
Girls,60.1,5,Ashley Hagood,Cumby,59.51,120.2,49.9,117.93,288.03,Single-ply,SBD,F
Girls,60.1,6,Abigail Marquez,Mount Pleasant,56.7,104.33,49.9,113.4,267.62,Single-ply,SBD,F
Girls,60.1,7,Jaley Wallace,Hughes Springs,58.51,99.79,47.63,108.86,256.28,Single-ply,SBD,F
Girls,60.1,8,Makayla Daniels,Maud,59.33,102.06,38.56,102.06,242.67,Single-ply,SBD,F
Girls,60.1,9,Cassidy Olazabal,Diana New Diana,58.42,92.99,45.36,102.06,240.4,Single-ply,SBD,F
Girls,60.1,10,Erin Morgan,Diana New Diana,58.79,90.72,47.63,99.79,238.14,Single-ply,SBD,F
Girls,60.1,11,Starla Harrell,Celeste,57.88,65.77,38.56,86.18,190.51,Single-ply,SBD,F
Girls,60.1,DQ,Paxton Venable,Texarkana Texas,58.24,,,,,Single-ply,SBD,F
Girls,67.36,1,Dominic Noble,Gilmer,63.87,111.13,58.97,142.88,312.98,Single-ply,SBD,F
Girls,67.36,2,Charity Berger,Mount Vernon,65.5,117.93,54.43,136.08,308.44,Single-ply,SBD,F
Girls,67.36,3,Maggie Clark,Queen City,64.23,113.4,43.09,127.01,283.5,Single-ply,SBD,F
Girls,67.36,4,Ashlea Taylor,Hughes Springs,62.14,111.13,49.9,113.4,274.42,Single-ply,SBD,F
Girls,67.36,5,Angie Contreras,Mount Pleasant,61.69,102.06,49.9,115.67,267.62,Single-ply,SBD,F
Girls,67.36,6,Sarah Coleman #2,Daingerfield,62.14,117.93,45.36,104.33,267.62,Single-ply,SBD,F
Girls,67.36,7,Breanna Coats,Queen City,62.14,70.31,34.02,90.72,195.04,Single-ply,SBD,F
Girls,67.36,8,Mindy Moore,Jefferson,65.86,61.23,31.75,83.91,176.9,Single-ply,SBD,F
Girls,67.36,DQ,Sam Hagood,Cumby,66.32,122.47,40.82,,,Single-ply,SBD,F
Girls,67.36,DQ,Riley Walton,Diana New Diana,66.68,,,,,Single-ply,SBD,F
Girls,75.07,1,Brianna Garcia,Ore City,75.02,131.54,65.77,136.08,333.39,Single-ply,SBD,F
Girls,75.07,2,Cadi Cantrell,Gilmer,73.84,131.54,58.97,133.81,324.32,Single-ply,SBD,F
Girls,75.07,3,Jocalynn Fountain,Gilmer,71.4,117.93,52.16,122.47,292.57,Single-ply,SBD,F
Girls,75.07,4,Jalena Denmark,Hughes Springs,73.39,104.33,52.16,113.4,269.89,Single-ply,SBD,F
Girls,75.07,5,Erica Reynolds,Mount Pleasant,72.67,102.06,47.63,108.86,258.55,Single-ply,SBD,F
Girls,75.07,6,Marlee Drake,De Kalb,73.84,68.04,43.09,90.72,201.85,Single-ply,SBD,F
Girls,75.07,DQ,Dee Hall,Daingerfield,69.94,,,,,Single-ply,SBD,F
Girls,75.07,DQ,Bailey Paul,New Boston,74.84,,,,,Single-ply,SBD,F
Girls,75.07,DQ,Brianna Harrison,Redwater,69.58,142.88,,,,Single-ply,SBD,F
Girls,82.33,1,Samantha Clements,Queen City,77.11,149.69,58.97,138.35,347,Single-ply,SBD,F
Girls,82.33,2,Dmarkavia Palmer,Daingerfield,78.47,136.08,58.97,142.88,337.93,Single-ply,SBD,F
Girls,82.33,3,Kate Todd,Mount Vernon,80.01,120.2,47.63,117.93,285.76,Single-ply,SBD,F
Girls,82.33,4,Haley Fennewald,Mount Pleasant,77.2,113.4,36.29,108.86,258.55,Single-ply,SBD,F
Girls,82.33,5,Ashley Baker,Celeste,80.83,81.65,52.16,102.06,235.87,Single-ply,SBD,F
Girls,82.33,6,Brittany Runnels,De Kalb,75.3,79.38,56.7,90.72,226.8,Single-ply,SBD,F
Girls,82.33,7,Lirio Rodriguez,Diana New Diana,78.56,90.72,40.82,90.72,222.26,Single-ply,SBD,F
Girls,82.33,DQ,Brittany Webb,New Boston,82.1,,,,,Single-ply,SBD,F
Girls,82.33,DQ,Vaneta Mendez,New Boston,82.1,,,,,Single-ply,SBD,F
Girls,82.33,DQ,Meagan Langdon,Redwater,81.28,,,,,Single-ply,SBD,F
Girls,90.04,1,Erica Wesley,Gilmer,85.46,154.22,61.23,145.15,360.61,Single-ply,SBD,F
Girls,90.04,2,Hannah Lipsey,Celeste,88.18,140.61,88.45,129.27,358.34,Single-ply,SBD,F
Girls,90.04,DQ,Corey Brooks #2,Hooks,89.81,,,,,Single-ply,SBD,F
Girls,100.02,1,Rachel Latimer,Hooks,95.44,124.74,49.9,111.13,285.76,Single-ply,SBD,F
Girls,100.02,2,Leslie Lopez,De Kalb,98.79,106.59,52.16,111.13,269.89,Single-ply,SBD,F
Girls,100.02,DQ,Tyler Criddle,Gilmer,92.71,151.95,,,,Single-ply,SBD,F
Girls,100.02,DQ,Andrea Franklin,Hughes Springs,90.54,,,,,Single-ply,SBD,F
Girls,100.02,DQ,Teryn Saunders,Redwater,96.52,,,,,Single-ply,SBD,F
Girls,100.02+,1,Breanna Ellis,Elysian Fields,112.04,149.69,74.84,142.88,367.41,Single-ply,SBD,F
Girls,100.02+,2,Sabrina Chambliss,Celeste,106.14,140.61,83.91,133.81,358.34,Single-ply,SBD,F
Girls,100.02+,3,Cash Brown,Mount Pleasant,103.6,113.4,65.77,115.67,294.84,Single-ply,SBD,F
Girls,100.02+,4,Mialissa Peeples,Mount Pleasant,127.91,102.06,52.16,113.4,267.62,Single-ply,SBD,F
Girls,100.02+,DQ,Cydney Crawford,New Boston,111.22,,,,,Single-ply,SBD,F
Girls,100.02+,DQ,Taylor Criddle,Gilmer,111.95,,,,,Single-ply,SBD,F
