Division,WeightClassKg,Place,Name,Team,BodyweightKg,Best3SquatKg,Best3BenchKg,Best3DeadliftKg,TotalKg,Equipment,Event,Sex
Boys,51.71,1,Adrian Herrera #1,Yoakum,50.89,158.76,81.65,142.88,383.29,Single-ply,SBD,M
Boys,51.71,2,Elijah Hubbard,Elgin,48.08,92.99,40.82,83.91,217.72,Single-ply,SBD,M
Boys,51.71,DQ,Clayton Toms,Smithville,40.82,,,,,Single-ply,SBD,M
Boys,55.79,1,Isaiah Mesa,Taylor,55.34,136.08,97.52,147.42,381.02,Single-ply,SBD,M
Boys,55.79,2,Cody Faust,Yoakum,54.16,124.74,74.84,136.08,335.66,Single-ply,SBD,M
Boys,55.79,3,Enrique Vences,Bastrop Cedar Creek,55.79,117.93,65.77,113.4,297.1,Single-ply,SBD,M
Boys,55.79,4,Ariel Perez,Brookshire Royal,53.98,45.36,31.75,68.04,145.15,Single-ply,SBD,M
Boys,55.79,DQ,Zachary Baker,Hallettsville,54.16,,,,,Single-ply,SBD,M
Boys,59.87,1,Dominique Ubias,Elgin,58.88,151.95,95.25,170.1,417.3,Single-ply,SBD,M
Boys,59.87,2,Fernando Maldonado,Smithville,59.51,117.93,88.45,131.54,337.93,Single-ply,SBD,M
Boys,59.87,3,Gabriel García,Yoakum,57.42,122.47,79.38,122.47,324.32,Single-ply,SBD,M
Boys,59.87,4,Frank Cobio,Brookshire Royal,59.42,111.13,79.38,115.67,306.17,Single-ply,SBD,M
Boys,59.87,5,Thomas Motyka,Smithville,57.7,81.65,58.97,111.13,251.74,Single-ply,SBD,M
Boys,67.13,6,Drew Powell,Hallettsville,60.06,,79.38,111.13,190.51,Single-ply,BD,M
Boys,59.87,7,Alex Navas-Gonzales,Hallettsville,57.88,,97.52,,97.52,Single-ply,B,M
Boys,59.87,NS,Bo Zak,Hallettsville,,,,,,Single-ply,B,M
Boys,59.87,NS,Rey Hernandez,Bastrop Cedar Creek,,,,,,Single-ply,B,M
Boys,67.13,1,Lorenzo Sanchez,Taylor,63.96,195.04,113.4,206.38,514.83,Single-ply,SBD,M
Boys,67.13,2,Josh Bedolla,Elgin,60.33,183.7,115.67,204.12,503.49,Single-ply,SBD,M
Boys,67.13,3,Jt Marek,Bellville,66.22,172.37,106.59,154.22,433.18,Single-ply,SBD,M
Boys,67.13,4,Hunter Fronczak,Sealy,66.13,161.03,88.45,172.37,421.84,Single-ply,SBD,M
Boys,67.13,5,Michael Chomour,Yoakum,62.96,158.76,99.79,161.03,419.57,Single-ply,SBD,M
Boys,67.13,6,Isaac Johnson,Elgin,64.77,151.95,86.18,172.37,410.5,Single-ply,SBD,M
Boys,67.13,7,Andrew Wyatt,Smithville,66.81,124.74,92.99,149.69,367.41,Single-ply,SBD,M
Boys,67.13,8,Joseph Stewart,Brookshire Royal,67.13,147.42,83.91,136.08,367.41,Single-ply,SBD,M
Boys,67.13,9,Denver Evans,Yoakum,60.96,131.54,74.84,149.69,356.07,Single-ply,SBD,M
Boys,67.13,10,Jon Daigle,Marion,67.13,142.88,77.11,131.54,351.53,Single-ply,SBD,M
Boys,67.13,11,Dalton Dieringer,Hallettsville,65.23,131.54,81.65,136.08,349.27,Single-ply,SBD,M
Boys,67.13,12,Merville Johnson,La Grange,67.13,131.54,77.11,117.93,326.59,Single-ply,SBD,M
Boys,67.13,13,Sean Payne,Bastrop,66.68,108.86,88.45,124.74,322.05,Single-ply,SBD,M
Boys,67.13,14,Caleb Jonas,Smithville,61.51,113.4,72.57,129.27,315.25,Single-ply,SBD,M
Boys,67.13,15,Cameron Luensmann,Marion,62.6,92.99,79.38,131.54,303.91,Single-ply,SBD,M
Boys,67.13,16,Trevor Howard,Bellville,63.5,108.86,52.16,136.08,297.1,Single-ply,SBD,M
Boys,67.13,17,Jose Martinez,Brookshire Royal,61.69,115.67,70.31,108.86,294.84,Single-ply,SBD,M
Boys,67.13,18,Cody Hooper,Sealy,61.23,102.06,61.23,106.59,269.89,Single-ply,SBD,M
Boys,67.13,19,John Dees,Bastrop Cedar Creek,61.78,88.45,54.43,111.13,254.01,Single-ply,SBD,M
Boys,67.13,20,Clayton Stallones,Bellville,65.14,,81.65,145.15,226.8,Single-ply,BD,M
Boys,67.13,NS,Jaques Dixon,Austin Bowie,,,,,,Single-ply,BD,M
Boys,67.13,NS,Jovahn Jones,Bastrop,,,,,,Single-ply,BD,M
Boys,67.13,DQ,Wesley Stark,Smithville,66.68,,,,,Single-ply,BD,M
Boys,67.13,DQ,Gabriel Torres,Bastrop Cedar Creek,60.87,,,,,Single-ply,BD,M
Boys,67.13,NS,Steven Sangster,Yoakum,,,,,,Single-ply,BD,M
Boys,74.84,1,Daniel Hernandez,Taylor,73.26,226.8,115.67,224.53,566.99,Single-ply,SBD,M
Boys,74.84,2,Seth Grasshoff,Hallettsville,74.3,199.58,113.4,201.85,514.83,Single-ply,SBD,M
Boys,74.84,3,Chris Blaschke,Smithville,74.84,181.44,111.13,181.44,474,Single-ply,SBD,M
Boys,74.84,4,Joe Verdi,Bastrop,74.48,183.7,106.59,181.44,471.74,Single-ply,SBD,M
Boys,74.84,5,Dalton Thomas,Bastrop,74.84,192.78,97.52,172.37,462.66,Single-ply,SBD,M
Boys,74.84,6,Shane Freeland,Elgin,73.57,151.95,97.52,183.7,433.18,Single-ply,SBD,M
Boys,74.84,7,Logan Shows,Yoakum,74.66,163.29,95.25,151.95,410.5,Single-ply,SBD,M
Boys,74.84,8,Christian Lopez,Taylor,71.67,138.35,95.25,167.83,401.43,Single-ply,SBD,M
Boys,74.84,9,Nomar Rivera,Smithville,70.31,136.08,90.72,163.29,390.09,Single-ply,SBD,M
Boys,74.84,10,Angel Luna,Rockdale,73.12,138.35,104.33,147.42,390.09,Single-ply,SBD,M
Boys,74.84,11,Fred Henderson,Rockdale,71.3,151.95,81.65,154.22,387.82,Single-ply,SBD,M
Boys,74.84,12,Edher Nava,Marion,74.84,138.35,79.38,136.08,353.8,Single-ply,SBD,M
Boys,74.84,13,Reagan Kuck,La Grange,72.57,131.54,83.91,129.27,344.73,Single-ply,SBD,M
Boys,74.84,14,Jaxon Reeves,Hallettsville,73.03,127.01,83.91,129.27,340.19,Single-ply,SBD,M
Boys,74.84,15,Ivan Bustos,Brookshire Royal,70.31,120.2,74.84,124.74,319.78,Single-ply,SBD,M
Boys,74.84,16,Cameron Chorens,La Grange,67.59,120.2,90.72,102.06,312.98,Single-ply,SBD,M
Boys,74.84,17,Briley Yancey,Smithville,68.22,113.4,83.91,113.4,310.71,Single-ply,SBD,M
Boys,74.84,18,BJ Alvarado,Sealy,67.59,79.38,52.16,90.72,222.26,Single-ply,SBD,M
Boys,74.84,19,Caleb Parrish,Smithville,70.31,106.59,,113.4,219.99,Single-ply,SD,M
Boys,74.84,20,Quirin Laracuente,Austin Bowie,71.67,,92.99,,92.99,Single-ply,B,M
Boys,74.84,NS,Jovani Trejo,Bellville,,,,,,Single-ply,B,M
Boys,74.84,NS,Miles Moore,Hempstead,,,,,,Single-ply,B,M
Boys,74.84,NS,Dylan Tomek,Hallettsville,,,,,,Single-ply,B,M
Boys,74.84,NS,Nick Anderson,Brookshire Royal,,,,,,Single-ply,B,M
Boys,74.84,NS,Aaron Janda,La Grange,,,,,,Single-ply,B,M
Boys,74.84,NS,Abraham Moreno,Sealy,,,,,,Single-ply,B,M
Boys,82.1,1,Everado Araujo,Taylor,80.47,242.67,133.81,222.26,598.74,Single-ply,SBD,M
Boys,82.1,2,Orlando Perez,Elgin,81.47,213.19,131.54,233.6,578.33,Single-ply,SBD,M
Boys,82.1,3,Fabien Perez,Elgin,82.1,213.19,124.74,192.78,530.7,Single-ply,SBD,M
Boys,82.1,4,Cody Patterson,Bastrop Cedar Creek,75.75,170.1,115.67,190.51,476.27,Single-ply,SBD,M
Boys,82.1,5,Jaric Crider,Bellville,80.38,183.7,106.59,185.97,476.27,Single-ply,SBD,M
Boys,82.1,6,Caleb Stackhouse,La Grange,79.38,158.76,99.79,174.63,433.18,Single-ply,SBD,M
Boys,82.1,7,Alejandro Rangel,Taylor,80.01,165.56,111.13,154.22,430.91,Single-ply,SBD,M
Boys,82.1,8,Gabriel Felan,Bastrop Cedar Creek,75.3,154.22,92.99,170.1,417.3,Single-ply,SBD,M
Boys,82.1,9,Conner Ackley,Brookshire Royal,78.93,156.49,102.06,142.88,401.43,Single-ply,SBD,M
Boys,82.1,10,TJ McDonald,Bastrop Cedar Creek,76.57,138.35,79.38,151.95,369.68,Single-ply,SBD,M
Boys,82.1,11,Alvaro Meza,Austin Bowie,80.92,129.27,74.84,102.06,306.17,Single-ply,SBD,M
Boys,82.1,12,Clint Ables,Bellville,80.47,,92.99,158.76,251.74,Single-ply,BD,M
Boys,82.1,13,Caleb Bower,Smithville,82.01,,90.72,158.76,249.48,Single-ply,BD,M
Boys,82.1,14,Alex Guzman,Rockdale,76.02,,70.31,158.76,229.06,Single-ply,BD,M
Boys,82.1,15,Myles Riggs,Marion,76.66,88.45,,115.67,204.12,Single-ply,SD,M
Boys,82.1,NS,Anthony Cloud,La Grange,,,,,,Single-ply,SD,M
Boys,82.1,NS,Colton Janik,Yoakum,,,,,,Single-ply,SD,M
Boys,89.81,1,Chris Hatch,Taylor,88.54,208.65,149.69,204.12,562.45,Single-ply,SBD,M
Boys,89.81,2,Darian Thomas,Sealy,88.81,195.04,124.74,185.97,505.76,Single-ply,SBD,M
Boys,89.81,3,Daniel Anderson,Elgin,85.46,170.1,124.74,197.31,492.15,Single-ply,SBD,M
Boys,89.81,4,Hayden Henry,Hallettsville,89.18,197.31,113.4,181.44,492.15,Single-ply,SBD,M
Boys,89.81,5,Ben Carmean,Bellville,86,201.85,117.93,170.1,489.88,Single-ply,SBD,M
Boys,89.81,6,Russell Payne,Bastrop,85.73,183.7,124.74,179.17,487.61,Single-ply,SBD,M
Boys,89.81,7,Ryan Perry,Bastrop,88.9,183.7,108.86,181.44,474,Single-ply,SBD,M
Boys,89.81,8,Dylan Syms,Taylor,85.73,163.29,111.13,172.37,446.79,Single-ply,SBD,M
Boys,89.81,9,Jesus Oranday,Taylor,84.28,158.76,108.86,161.03,428.64,Single-ply,SBD,M
Boys,89.81,10,Zach Montelongo,Rockdale,89.81,167.83,104.33,145.15,417.3,Single-ply,SBD,M
Boys,89.81,11,Santiago Galvan,La Grange,88.45,154.22,88.45,147.42,390.09,Single-ply,SBD,M
Boys,89.81,12,Frank Trevino,Smithville,83.91,142.88,88.45,156.49,387.82,Single-ply,SBD,M
Boys,89.81,13,Cullen Schrader,Bellville,83.37,136.08,97.52,142.88,376.48,Single-ply,SBD,M
Boys,89.81,14,Cole Doerr,Marion,85.28,131.54,90.72,149.69,371.95,Single-ply,SBD,M
Boys,89.81,15,Jacob Doerr,Marion,89.36,127.01,92.99,149.69,369.68,Single-ply,SBD,M
Boys,89.81,16,Alex Reyes,Brookshire Royal,86.18,133.81,92.99,136.08,362.87,Single-ply,SBD,M
Boys,89.81,17,Aurelio Reyes,Brookshire Royal,86.64,142.88,77.11,136.08,356.07,Single-ply,SBD,M
Boys,89.81,18,Richard Camarillo,Yoakum,87.91,199.58,129.27,,328.85,Single-ply,SB,M
Boys,89.81,19,Randy Reyes,Bastrop Cedar Creek,88.36,97.52,70.31,151.95,319.78,Single-ply,SBD,M
Boys,89.81,20,Jesus Bernal,Brookshire Royal,84.82,111.13,83.91,113.4,308.44,Single-ply,SBD,M
Boys,89.81,21,Will Wallace,Austin Bowie,88.54,170.1,120.2,,290.3,Single-ply,SB,M
Boys,89.81,22,Martin Navarrete,Taylor,85.46,122.47,,,122.47,Single-ply,S,M
Boys,89.81,DQ,Isaac Villanueva,Taylor,85.28,,,,,Single-ply,S,M
Boys,89.81,NS,Julio Ramirez,La Grange,,,,,,Single-ply,S,M
Boys,89.81,NS,Christian Busby,Brookshire Royal,,,,,,Single-ply,S,M
Boys,89.81,NS,Anthony Campos,Brookshire Royal,,,,,,Single-ply,S,M
Boys,89.81,NS,Christian Trujillo,Hempstead,,,,,,Single-ply,S,M
Boys,99.79,1,Joseph Rodriguez,Bastrop Cedar Creek,93.89,226.8,136.08,226.8,589.67,Single-ply,SBD,M
Boys,99.79,2,Tristan Caballero,Yoakum,98.07,213.19,145.15,183.7,542.04,Single-ply,SBD,M
Boys,99.79,3,Kirkwade Polasek,La Grange,97.52,158.76,97.52,167.83,424.11,Single-ply,SBD,M
Boys,99.79,4,Josh Duran,Marion,96.16,129.27,106.59,185.97,421.84,Single-ply,SBD,M
Boys,99.79,5,Jaedon McGee,Bastrop,90.72,151.95,108.86,156.49,417.3,Single-ply,SBD,M
Boys,99.79,6,Ryan Bechtel,Marion,91.35,158.76,90.72,165.56,415.04,Single-ply,SBD,M
Boys,99.79,7,Cordale Ellison,La Grange,90.72,165.56,83.91,147.42,396.89,Single-ply,SBD,M
Boys,99.79,8,Xavian Ellison,Rockdale,91.44,147.42,92.99,156.49,396.89,Single-ply,SBD,M
Boys,99.79,9,Julian Garcia,Austin Bowie,93.71,170.1,106.59,,276.69,Single-ply,SB,M
Boys,99.79,10,Nicholas Whitley,Taylor,90.49,142.88,95.25,,238.14,Single-ply,SB,M
Boys,99.79,NS,Joshua Biggs,Taylor,,,,,,Single-ply,SB,M
Boys,99.79,NS,Tyler Allen,Sealy,,,,,,Single-ply,SB,M
Boys,99.79,NS,Michael Rodgers,Hempstead,,,,,,Single-ply,SB,M
Boys,99.79,NS,Jose Matias,Bastrop Cedar Creek,,,,,,Single-ply,SB,M
Boys,109.77,1,Lex Leibfried,Bellville,107.23,222.26,142.88,199.58,564.72,Single-ply,SBD,M
Boys,109.77,2,Will Dowell,Hallettsville,105.23,208.65,115.67,158.76,483.08,Single-ply,SBD,M
Boys,109.77,3,Josh Gordon,Elgin,105.96,158.76,117.93,183.7,460.4,Single-ply,SBD,M
Boys,109.77,4,John Navajas,Elgin,101.33,129.27,72.57,142.88,344.73,Single-ply,SBD,M
Boys,109.77,5,Chris Elmore,Bastrop Cedar Creek,104.33,115.67,83.91,142.88,342.46,Single-ply,SBD,M
Boys,109.77,6,Kaleb Barho,Smithville,101.6,124.74,88.45,124.74,337.93,Single-ply,SBD,M
Boys,109.77,7,De'Mondre Wade,Brookshire Royal,106.96,111.13,70.31,122.47,303.91,Single-ply,SBD,M
Boys,109.77,8,Colton Aleman,Luling,108.86,,,142.88,142.88,Single-ply,D,M
Boys,109.77,NS,Eddie Ordonez,Luling,,,,,,Single-ply,D,M
Boys,109.77,DQ,Chris Miranda,Bastrop Cedar Creek,104.87,,,,,Single-ply,D,M
Boys,109.77,DQ,Drake Broadwater,Bastrop Cedar Creek,100.33,,,,,Single-ply,D,M
Boys,124.74,1,Josh Ficklin,Elgin,118.3,219.99,156.49,238.14,614.62,Single-ply,SBD,M
Boys,124.74,2,Walker Ellison,La Grange,123.38,219.99,129.27,192.78,542.04,Single-ply,SBD,M
Boys,124.74,3,Mikey Trevino,Smithville,115.39,204.12,102.06,181.44,487.61,Single-ply,SBD,M
Boys,124.74,4,Cameron King #1,Bastrop,110.68,188.24,108.86,174.63,471.74,Single-ply,SBD,M
Boys,124.74,5,Brennan Schimcek,Hallettsville,112.85,183.7,124.74,158.76,467.2,Single-ply,SBD,M
Boys,124.74,6,Bailey Dees,Bastrop Cedar Creek,122.47,188.24,95.25,181.44,464.93,Single-ply,SBD,M
Boys,124.74,7,Hunter Breaux,Bellville,114.49,151.95,117.93,136.08,405.97,Single-ply,SBD,M
Boys,124.74,8,Anthony Hernandez,Sealy,112.49,102.06,106.59,140.61,349.27,Single-ply,SBD,M
Boys,124.74,9,Robert Hernandez,Austin Bowie,123.1,206.38,117.93,,324.32,Single-ply,SB,M
Boys,124.74,10,Justin Williams,Bellville,115.3,195.04,124.74,,319.78,Single-ply,SB,M
Boys,124.74,NS,Christian Corando,Austin Bowie,,,,,,Single-ply,SB,M
Boys,124.74,NS,Deonte Warren,Brookshire Royal,,,,,,Single-ply,SB,M
Boys,124.74,NS,Robert Gonyer,Marion,,,,,,Single-ply,SB,M
Boys,124.74+,1,Dustin Blankemeyer,Bellville,161.57,249.48,179.17,215.46,644.1,Single-ply,SBD,M
Boys,124.74+,2,Bryan Swift,Luling,141.52,226.8,151.95,213.19,591.94,Single-ply,SBD,M
Boys,124.74+,3,Francisco Infante,Brookshire Royal,136.53,192.78,113.4,147.42,453.59,Single-ply,SBD,M
Boys,124.74+,4,Abraham Torres,Austin Bowie,125.19,170.1,102.06,158.76,430.91,Single-ply,SBD,M
Boys,124.74+,5,Zach Sowa,Sealy,125.74,142.88,111.13,136.08,390.09,Single-ply,SBD,M
Boys,124.74+,6,Pedro Govea,Luling,126.1,172.37,92.99,,265.35,Single-ply,SB,M
Boys,124.74+,7,Joel Sanchez #1,Luling,161.48,226.8,,,226.8,Single-ply,S,M
Boys,124.74+,DQ,Andrew Diver,Rockdale,126.64,,,,,Single-ply,S,M
Boys,124.74+,NS,Sam Molina,Rockdale,,,,,,Single-ply,S,M
Boys,124.74+,DQ,Donall Watson,Hempstead,133.36,,,,,Single-ply,S,M
