Division,WeightClassKg,Place,Name,Team,BodyweightKg,Best3SquatKg,Best3BenchKg,Best3DeadliftKg,TotalKg,Equipment,Event,Sex
Boys,51.71,1,Steven Pham,Sunnyvale,51.62,129.27,68.04,151.95,349.27,Single-ply,SBD,M
Boys,51.71,2,Tyler Lacy,South Garland,49.44,102.06,47.63,113.4,263.08,Single-ply,SBD,M
Boys,51.71,DQ,Hunter Caves,Mabank,46.45,79.38,,,,Single-ply,SBD,M
Boys,55.79,1,Devon Harris,North Forney,55.07,165.56,108.86,195.04,469.47,Single-ply,SBD,M
Boys,55.79,2,Jesse Ortiz,Sulphur Springs,54.61,154.22,88.45,165.56,408.23,Single-ply,SBD,M
Boys,55.79,3,Jordan Estell,North Mesquite,54.79,122.47,72.57,170.1,365.14,Single-ply,SBD,M
Boys,55.79,4,Jose Guajardo,Greenville,55.25,140.61,83.91,138.35,362.87,Single-ply,SBD,M
Boys,55.79,5,Tylor Chandler,Scurry-Rosser,53.98,115.67,65.77,156.49,337.93,Single-ply,SBD,M
Boys,59.87,6,Kadarrin Glover,Cedar Hill,55.97,127.01,70.31,136.08,333.39,Single-ply,SBD,M
Boys,59.87,7,Isaiah Payne,Crandall,55.97,111.13,61.23,158.76,331.12,Single-ply,SBD,M
Boys,55.79,8,Dylan Izzi,Sulphur Springs,55.16,106.59,79.38,129.27,315.25,Single-ply,SBD,M
Boys,55.79,9,Freddy Reyes,Greenville,55.34,129.27,61.23,115.67,306.17,Single-ply,SBD,M
Boys,55.79,10,Shane Landis,Bishop Lynch,53.07,92.99,61.23,111.13,265.35,Single-ply,SBD,M
Boys,59.87,DQ,Cooper Gilliland,Royse City,55.97,,,,,Single-ply,SBD,M
Boys,59.87,1,Joseph Rico,Forney,56.61,149.69,97.52,163.29,410.5,Single-ply,SBD,M
Boys,59.87,2,Tyler Watson,Crandall,59.15,145.15,90.72,172.37,408.23,Single-ply,SBD,M
Boys,59.87,3,Victor Ejiasi,North Forney,58.06,124.74,70.31,158.76,353.8,Single-ply,SBD,M
Boys,59.87,4,Josh Sims,South Garland,58.51,136.08,86.18,129.27,351.53,Single-ply,SBD,M
Boys,59.87,5,Jose Belmares,South Garland,57.79,108.86,74.84,154.22,337.93,Single-ply,SBD,M
Boys,59.87,6,Matt Cochrane,Mabank,58.51,127.01,70.31,136.08,333.39,Single-ply,SBD,M
Boys,59.87,7,Manning Romandry,South Garland,56.43,124.74,70.31,129.27,324.32,Single-ply,SBD,M
Boys,59.87,8,Gilberto Torres,Forney,58.24,113.4,65.77,142.88,322.05,Single-ply,SBD,M
Boys,59.87,9,Luke Elkins,Corsicana,58.42,115.67,70.31,129.27,315.25,Single-ply,SBD,M
Boys,59.87,10,Woody Stain,Kaufman,59.24,106.59,70.31,127.01,303.91,Single-ply,SBD,M
Boys,59.87,11,Jagger Johnson,Forney,59.6,104.33,58.97,108.86,272.16,Single-ply,SBD,M
Boys,67.13,12,Trent Cantrell,Mabank,60.06,90.72,61.23,115.67,267.62,Single-ply,SBD,M
Boys,59.87,13,Dalton Newby,Forney,58.97,102.06,52.16,102.06,256.28,Single-ply,SBD,M
Boys,67.13,1,Luis Gamez,Sulphur Springs,64.23,167.83,111.13,176.9,455.86,Single-ply,SBD,M
Boys,67.13,2,Ta'Monte Mitchell,Greenville,63.96,188.24,99.79,165.56,453.59,Single-ply,SBD,M
Boys,74.84,3,Derrick Mosley,North Forney,67.31,170.1,102.06,174.63,446.79,Single-ply,SBD,M
Boys,67.13,4,Kyle Van Pelt,Mansfield Timberview,60.51,158.76,102.06,181.44,442.25,Single-ply,SBD,M
Boys,67.13,5,A'Daireon Madlock,North Mesquite,63.96,151.95,79.38,192.78,424.11,Single-ply,SBD,M
Boys,74.84,6,Jonathan Ennin,Sunnyvale,67.31,151.95,81.65,174.63,408.23,Single-ply,SBD,M
Boys,67.13,7,Reed Ralston,Forney,66.86,136.08,92.99,158.76,387.82,Single-ply,SBD,M
Boys,67.13,8,Jacob McLean,Scurry-Rosser,60.42,147.42,81.65,156.49,385.55,Single-ply,SBD,M
Boys,67.13,9,Nathan Coleman,North Garland,64.41,142.88,88.45,154.22,385.55,Single-ply,SBD,M
Boys,67.13,10,Brandon Ruiz,Forney,65.59,129.27,90.72,145.15,365.14,Single-ply,SBD,M
Boys,67.13,11,Christian Early,Mabank,65.14,127.01,88.45,142.88,358.34,Single-ply,SBD,M
Boys,67.13,12,Darius Campbell,Red Oak,66.68,120.2,86.18,149.69,356.07,Single-ply,SBD,M
Boys,67.13,13,Demointa Hicks,Cedar Hill,67.13,136.08,77.11,142.88,356.07,Single-ply,SBD,M
Boys,67.13,14,Luis Colorado,Sulphur Springs,67.04,133.81,90.72,129.27,353.8,Single-ply,SBD,M
Boys,67.13,15,Gabriel Palacio,Mansfield Timberview,61.78,108.86,90.72,142.88,342.46,Single-ply,SBD,M
Boys,67.13,16,Amario Zamora,Sulphur Springs,62.69,111.13,65.77,133.81,310.71,Single-ply,SBD,M
Boys,67.13,17,Connor Petsch,Kaufman,64.86,111.13,77.11,113.4,301.64,Single-ply,SBD,M
Boys,67.13,18,Brian Griffin,Scurry-Rosser,63.32,111.13,54.43,117.93,283.5,Single-ply,SBD,M
Boys,67.13,19,Mason Cleveland,Sulphur Springs,63.96,90.72,61.23,127.01,278.96,Single-ply,SBD,M
Boys,74.84,DQ,Brayden Holley,Greenville,67.31,,,,,Single-ply,SBD,M
Boys,74.84,DQ,Jacob Mitchell,Greenville,67.31,170.1,,,,Single-ply,SBD,M
Boys,67.13,DQ,Hector Crow,Palmer,64.14,,,,,Single-ply,SBD,M
Boys,67.13,DQ,Taylor Gonzalez,Crandall,65.86,,,,,Single-ply,SBD,M
Boys,67.13,DQ,Zac Guidaz,Forney,66.86,,,,,Single-ply,SBD,M
Boys,74.84,DQ,Jermaine Mask,Bishop Lynch,67.31,,,,,Single-ply,SBD,M
Boys,67.13,DQ,Alex Ramsey,Royse City,66.95,206.38,,,,Single-ply,SBD,M
Boys,82.1,1,Dylon Bonesteel,North Mesquite,75.02,199.58,133.81,217.72,551.11,Single-ply,SBD,M
Boys,74.84,2,Trevor Bell,Sunnyvale,74.3,219.99,99.79,192.78,512.56,Single-ply,SBD,M
Boys,74.84,3,LaXavier Battee,Kaufman,73.94,190.51,120.2,195.04,505.76,Single-ply,SBD,M
Boys,74.84,4,Jacob Deaguero,White Oak,74.48,172.37,124.74,208.65,505.76,Single-ply,SBD,M
Boys,74.84,5,Garrett Ferguson,Sunnyvale,73.3,181.44,108.86,192.78,483.08,Single-ply,SBD,M
Boys,74.84,6,Brandon Jackson,Cedar Hill,69.22,172.37,113.4,185.97,471.74,Single-ply,SBD,M
Boys,74.84,7,Colt Conway,Mabank,70.13,192.78,104.33,172.37,469.47,Single-ply,SBD,M
Boys,74.84,8,DeAndre Jackson,North Mesquite,73.03,165.56,102.06,199.58,467.2,Single-ply,SBD,M
Boys,74.84,9,Cody Coldwell,Sunnyvale,72.48,192.78,97.52,174.63,464.93,Single-ply,SBD,M
Boys,74.84,10,Ben Walzel,Dallas Highland Park,74.12,170.1,108.86,172.37,451.32,Single-ply,SBD,M
Boys,74.84,11,Dalton Hoelscher,Bishop Lynch,73.12,172.37,92.99,176.9,442.25,Single-ply,SBD,M
Boys,74.84,12,Armani Lars,Cedar Hill,70.76,170.1,102.06,161.03,433.18,Single-ply,SBD,M
Boys,74.84,13,Jesse Landess,Scurry-Rosser,73.84,158.76,99.79,170.1,428.64,Single-ply,SBD,M
Boys,74.84,14,Jason Aguilar,North Garland,74.57,170.1,90.72,163.29,424.11,Single-ply,SBD,M
Boys,74.84,15,Ty Bielss,Canton,73.94,147.42,92.99,179.17,419.57,Single-ply,SBD,M
Boys,74.84,16,Hayden O'Pry,Forney,74.21,136.08,99.79,154.22,390.09,Single-ply,SBD,M
Boys,74.84,17,Julius Sedberry,South Garland,69.67,136.08,102.06,145.15,383.29,Single-ply,SBD,M
Boys,74.84,18,Deondre Gray,Red Oak,71.49,142.88,86.18,147.42,376.48,Single-ply,SBD,M
Boys,74.84,19,Donovan Roper,Mansfield Timberview,72.94,145.15,102.06,129.27,376.48,Single-ply,SBD,M
Boys,74.84,20,Tommy Norman,Mabank,68.04,124.74,95.25,151.95,371.95,Single-ply,SBD,M
Boys,74.84,21,Frankie Mowete,South Garland,70.76,142.88,86.18,142.88,371.95,Single-ply,SBD,M
Boys,74.84,22,Lane Croft,White Oak,71.12,142.88,79.38,142.88,365.14,Single-ply,SBD,M
Boys,74.84,23,Jared Leal,Palmer,68.86,120.2,77.11,158.76,356.07,Single-ply,SBD,M
Boys,74.84,24,Dustin Harrison,White Oak,73.03,136.08,79.38,140.61,356.07,Single-ply,SBD,M
Boys,74.84,25,James Flowers,South Garland,71.58,111.13,102.06,136.08,349.27,Single-ply,SBD,M
Boys,74.84,26,Keaton Treadway,Canton,72.39,113.4,61.23,117.93,292.57,Single-ply,SBD,M
Boys,74.84,27,Clayton Arnold,Canton,72.57,97.52,52.16,136.08,285.76,Single-ply,SBD,M
Boys,74.84,28,Gabriel Suniga,Forney,70.03,83.91,54.43,111.13,249.48,Single-ply,SBD,M
Boys,74.84,DQ,Ivan Vazquez,Red Oak,69.31,136.08,,,,Single-ply,SBD,M
Boys,74.84,DQ,Tanner Little,Red Oak,68.95,165.56,,,,Single-ply,SBD,M
Boys,82.1,1,Bacardi Clark,Mesquite Horn,77.02,272.16,138.35,258.55,669.05,Single-ply,SBD,M
Boys,82.1,2,Abdul Khalaf,Sunnyvale,79.65,219.99,131.54,206.38,557.92,Single-ply,SBD,M
Boys,82.1,3,Sedrick Antwine,Cedar Hill,80.56,210.92,133.81,192.78,537.51,Single-ply,SBD,M
Boys,82.1,4,Andre Davis,North Forney,82.1,215.46,115.67,199.58,530.7,Single-ply,SBD,M
Boys,82.1,5,Zach Spigner,Sulphur Springs,79.2,188.24,113.4,201.85,503.49,Single-ply,SBD,M
Boys,82.1,6,Zane Koskelin,Mabank,80.56,181.44,115.67,197.31,494.42,Single-ply,SBD,M
Boys,82.1,7,Tyrone Johnson,North Garland,80.83,172.37,115.67,199.58,487.61,Single-ply,SBD,M
Boys,89.81,8,Logan Thompson,Canton,82.29,176.9,124.74,176.9,478.54,Single-ply,SBD,M
Boys,82.1,9,Elijah Moore,Cedar Hill,80.38,179.17,117.93,179.17,476.27,Single-ply,SBD,M
Boys,82.1,10,Brett Mallon,Crandall,78.29,172.37,106.59,195.04,474,Single-ply,SBD,M
Boys,82.1,11,Brenden Blunt,Crandall,82.01,167.83,113.4,174.63,455.86,Single-ply,SBD,M
Boys,89.81,12,Sergio Rios,South Garland,82.19,142.88,131.54,181.44,455.86,Single-ply,SBD,M
Boys,82.1,13,Robert Jones,Red Oak,77.47,170.1,102.06,170.1,442.25,Single-ply,SBD,M
Boys,82.1,14,Nate Collins,Mansfield Timberview,77.29,165.56,95.25,174.63,435.45,Single-ply,SBD,M
Boys,82.1,15,Tyler Rosamond,Sulphur Springs,81.56,167.83,106.59,156.49,430.91,Single-ply,SBD,M
Boys,82.1,16,Peanut White,Corsicana,76.48,142.88,108.86,172.37,424.11,Single-ply,SBD,M
Boys,82.1,17,Drew Coleman,Forney,82.1,161.03,92.99,170.1,424.11,Single-ply,SBD,M
Boys,82.1,18,Hayden Burnett,Mabank,80.29,149.69,95.25,174.63,419.57,Single-ply,SBD,M
Boys,82.1,19,Daniel Salguero,Red Oak,75.57,158.76,97.52,158.76,415.04,Single-ply,SBD,M
Boys,82.1,20,Caleb Beard,Sunnyvale,81.01,165.56,102.06,147.42,415.04,Single-ply,SBD,M
Boys,82.1,21,Alfred Villalobos,North Garland,80.47,149.69,95.25,167.83,412.77,Single-ply,SBD,M
Boys,82.1,22,Hank Weighter,Bishop Lynch,76.66,147.42,97.52,161.03,405.97,Single-ply,SBD,M
Boys,82.1,23,Chris Thomas,North Garland,79.83,149.69,92.99,158.76,401.43,Single-ply,SBD,M
Boys,82.1,24,Harley Royal,Mabank,79.38,142.88,97.52,154.22,394.63,Single-ply,SBD,M
Boys,82.1,25,Jared Link,Dallas Highland Park,80.74,158.76,90.72,142.88,392.36,Single-ply,SBD,M
Boys,82.1,26,Riley Burrus,Canton,80.38,154.22,74.84,149.69,378.75,Single-ply,SBD,M
Boys,82.1,27,Cody Presson,White Oak,77.56,124.74,72.57,165.56,362.87,Single-ply,SBD,M
Boys,82.1,28,Vincente Labarba,Bishop Lynch,78.47,83.91,58.97,99.79,242.67,Single-ply,SBD,M
Boys,82.1,DQ,Denarcie Perry,Cedar Hill,81.37,197.31,,,,Single-ply,SBD,M
Boys,99.79,1,Hayden Schnieder,Dallas Highland Park,89.9,213.19,124.74,213.19,551.11,Single-ply,SBD,M
Boys,89.81,2,Daelyn Young,North Mesquite,88.81,185.97,106.59,242.67,535.24,Single-ply,SBD,M
Boys,89.81,3,Ken Louden,North Mesquite,88.72,167.83,124.74,240.4,532.97,Single-ply,SBD,M
Boys,89.81,4,Erick Torres,Palmer,88.45,185.97,133.81,201.85,521.63,Single-ply,SBD,M
Boys,89.81,5,Jonathan Dunson,Kaufman,87.09,204.12,127.01,188.24,519.36,Single-ply,SBD,M
Boys,89.81,6,Bryton Wood,Sulphur Springs,83.55,210.92,113.4,188.24,512.56,Single-ply,SBD,M
Boys,99.79,7,Michael Coleman #6,Mansfield Timberview,89.9,181.44,120.2,154.22,455.86,Single-ply,SBD,M
Boys,89.81,8,Alex Gamez,Sulphur Springs,85.73,185.97,92.99,174.63,453.59,Single-ply,SBD,M
Boys,89.81,9,Lloyd Reid,Red Oak,84.19,163.29,106.59,181.44,451.32,Single-ply,SBD,M
Boys,89.81,10,Ryan Mujina,Corsicana,84.82,181.44,106.59,158.76,446.79,Single-ply,SBD,M
Boys,89.81,11,Dalton Bramhall,Crandall,84.19,167.83,92.99,174.63,435.45,Single-ply,SBD,M
Boys,89.81,12,Floyd Smith,Cedar Hill,86.55,170.1,106.59,167.83,444.52,Single-ply,SBD,M
Boys,89.81,13,Kendell Mays,Mansfield Timberview,83.91,163.29,104.33,174.63,442.25,Single-ply,SBD,M
Boys,89.81,14,Sam Ejiasi,North Forney,87.27,181.44,104.33,156.49,442.25,Single-ply,SBD,M
Boys,89.81,15,Oscar Camacho,Kaufman,84.91,170.1,95.25,165.56,430.91,Single-ply,SBD,M
Boys,89.81,16,Mark Callaway,Royse City,86.09,158.76,88.45,183.7,430.91,Single-ply,SBD,M
Boys,89.81,17,Jackson Fritz,Kaufman,88,165.56,99.79,165.56,430.91,Single-ply,SBD,M
Boys,89.81,18,Ryan Jackson,Crandall,88.09,167.83,95.25,167.83,430.91,Single-ply,SBD,M
Boys,89.81,19,Clay Carson,Mabank,86.82,142.88,92.99,183.7,419.57,Single-ply,SBD,M
Boys,89.81,20,Elliseo Ortiz,Red Oak,83.73,138.35,92.99,183.7,415.04,Single-ply,SBD,M
Boys,89.81,21,Cody Tomlin,Corsicana,82.83,163.29,90.72,142.88,396.89,Single-ply,SBD,M
Boys,89.81,22,Dennis Pierre,Forney,83.37,113.4,83.91,,197.31,Single-ply,SB,M
Boys,99.79,1,Alejandro Anzaldua,Mansfield Timberview,99.61,260.82,165.56,210.92,637.3,Single-ply,SBD,M
Boys,99.79,2,Jared Loftis,Royse City,90.63,242.67,113.4,242.67,598.74,Single-ply,SBD,M
Boys,99.79,3,Braylon Champion,Greenville,99.25,219.99,131.54,247.21,598.74,Single-ply,SBD,M
Boys,99.79,4,Daniel Ramos III,Mansfield Timberview,92.08,215.46,127.01,226.8,569.26,Single-ply,SBD,M
Boys,99.79,5,Jason Day,Scurry-Rosser,97.61,224.53,127.01,185.97,537.51,Single-ply,SBD,M
Boys,99.79,6,Alex Zepeda,Crandall,98.97,204.12,124.74,195.04,523.9,Single-ply,SBD,M
Boys,99.79,7,Valentine Odidi,Mansfield Timberview,99.79,181.44,111.13,226.8,519.36,Single-ply,SBD,M
Boys,99.79,8,Xavier Robertson,Kaufman,95.25,181.44,131.54,195.04,508.02,Single-ply,SBD,M
Boys,99.79,9,Elier Avila,Kaufman,97.61,204.12,113.4,188.24,505.76,Single-ply,SBD,M
Boys,99.79,10,Thomas Pitts Jr,Greenville,92.71,201.85,124.74,174.63,501.22,Single-ply,SBD,M
Boys,99.79,11,Kevin Morrow,Kaufman,96.43,192.78,108.86,197.31,498.95,Single-ply,SBD,M
Boys,99.79,12,Will Baines,North Forney,98.34,217.72,108.86,172.37,498.95,Single-ply,SBD,M
Boys,99.79,13,Kellin Munoz,White Oak,96.34,199.58,106.59,190.51,496.68,Single-ply,SBD,M
Boys,99.79,14,Michael McKinney,Royse City,91.81,210.92,111.13,158.76,480.81,Single-ply,SBD,M
Boys,99.79,15,Dacion Harris,Mansfield Timberview,99.25,179.17,115.67,174.63,469.47,Single-ply,SBD,M
Boys,99.79,16,Micah Mckaly,Sunnyvale,96.43,183.7,92.99,190.51,467.2,Single-ply,SBD,M
Boys,99.79,17,Dylan Byington,Crandall,98.07,179.17,99.79,188.24,467.2,Single-ply,SBD,M
Boys,99.79,18,David Brown,Crandall,98.7,181.44,104.33,181.44,467.2,Single-ply,SBD,M
Boys,99.79,19,Michael Sheveland,Sunnyvale,96.98,167.83,106.59,181.44,455.86,Single-ply,SBD,M
Boys,99.79,20,Michael Kelly,Cedar Hill,95.25,181.44,90.72,170.1,442.25,Single-ply,SBD,M
Boys,99.79,21,Isaac Adewale,North Garland,99.34,147.42,111.13,183.7,442.25,Single-ply,SBD,M
Boys,99.79,22,Jimmy Landess,Scurry-Rosser,91.63,165.56,86.18,179.17,430.91,Single-ply,SBD,M
Boys,99.79,23,Austin Overton,Dallas Highland Park,93.53,165.56,99.79,163.29,428.64,Single-ply,SBD,M
Boys,99.79,24,Carson Yeager,Dallas Highland Park,97.79,163.29,99.79,165.56,428.64,Single-ply,SBD,M
Boys,99.79,25,Johathan Acheampong,Mansfield Timberview,94.89,176.9,90.72,158.76,426.38,Single-ply,SBD,M
Boys,99.79,26,William Neely,Dallas Highland Park,97.25,161.03,106.59,147.42,415.04,Single-ply,SBD,M
Boys,99.79,27,Salvador Romero,North Garland,93.89,147.42,86.18,172.37,405.97,Single-ply,SBD,M
Boys,99.79,28,Julio Cuerra,Corsicana,99.52,145.15,104.33,145.15,394.63,Single-ply,SBD,M
Boys,99.79,29,Robert Riley,Canton,95.62,154.22,77.11,138.35,369.68,Single-ply,SBD,M
Boys,99.79,30,Kyle Adams,Canton,94.17,120.2,86.18,136.08,342.46,Single-ply,SBD,M
Boys,99.79,DQ,James Medley,Canton,98.88,,,,,Single-ply,SBD,M
Boys,99.79,DQ,Tyrik Anderson,Greenville,96.89,,,,,Single-ply,SBD,M
Boys,99.79,DQ,Brett DeBaca,White Oak,94.44,,,,,Single-ply,SBD,M
Boys,109.77,1,Jalon Scott,North Mesquite,103.24,249.48,149.69,242.67,641.83,Single-ply,SBD,M
Boys,109.77,2,Ciprano Gonzales,Greenville,105.23,240.4,163.29,195.04,598.74,Single-ply,SBD,M
Boys,109.77,3,Cody Ray,Forney,103.42,242.67,127.01,217.72,587.4,Single-ply,SBD,M
Boys,109.77,4,Leal Sample,Scurry-Rosser,108.41,222.26,140.61,213.19,576.06,Single-ply,SBD,M
Boys,109.77,5,Quionte Jones,Cedar Hill,104.42,244.94,122.47,206.38,573.79,Single-ply,SBD,M
Boys,109.77,6,Justin Jackson #3,Crandall,101.33,210.92,115.67,213.19,539.77,Single-ply,SBD,M
Boys,109.77,7,Desmond Duncan,Cedar Hill,103.42,204.12,124.74,204.12,532.97,Single-ply,SBD,M
Boys,109.77,8,Mohammad Al-Rousan,Sunnyvale,109.23,204.12,129.27,199.58,532.97,Single-ply,SBD,M
Boys,109.77,9,Hunter Smith #1,Greenville,105.87,195.04,108.86,199.58,503.49,Single-ply,SBD,M
Boys,109.77,10,Jack Sides,Dallas Highland Park,108.86,181.44,129.27,181.44,492.15,Single-ply,SBD,M
Boys,109.77,11,Anthony Urieta,Bishop Lynch,101.33,183.7,106.59,172.37,462.66,Single-ply,SBD,M
Boys,109.77,12,Ceasal Campuzano,Corsicana,108.95,147.42,111.13,158.76,417.3,Single-ply,SBD,M
Boys,109.77,13,Domingo Luchis,North Garland,103.42,142.88,88.45,163.29,394.63,Single-ply,SBD,M
Boys,109.77,14,Logan O'Niel,Dallas Highland Park,108.05,136.08,83.91,149.69,369.68,Single-ply,SBD,M
Boys,124.74,15,Trevor Dobbs,Red Oak,109.86,120.2,77.11,142.88,340.19,Single-ply,SBD,M
Boys,124.74,1,Jonathan Smith,North Garland,120.84,217.72,142.88,226.8,587.4,Single-ply,SBD,M
Boys,124.74,2,Dillon Stevens,Greenville,110.86,233.6,131.54,217.72,582.87,Single-ply,SBD,M
Boys,124.74,3,John Molina,Bishop Lynch,111.22,235.87,140.61,197.31,573.79,Single-ply,SBD,M
Boys,124.74,4,Brandon Wiggleton,North Mesquite,117.57,204.12,142.88,213.19,560.19,Single-ply,SBD,M
Boys,124.74,5,Kris Layman,White Oak,114.67,226.8,115.67,192.78,535.24,Single-ply,SBD,M
Boys,124.74,6,Nick Rodriguez,Kaufman,121.65,206.38,120.2,204.12,530.7,Single-ply,SBD,M
Boys,124.74,7,Marquise Engraum,South Garland,115.94,215.46,99.79,201.85,517.1,Single-ply,SBD,M
Boys,124.74,8,Quavon Freeman,North Forney,120.2,217.72,111.13,167.83,496.68,Single-ply,SBD,M
Boys,124.74,9,Jeremy Hodowanic,North Forney,118.48,161.03,142.88,174.63,478.54,Single-ply,SBD,M
Boys,124.74,10,Clayton Woods,Dallas Highland Park,122.29,192.78,120.2,165.56,478.54,Single-ply,SBD,M
Boys,124.74,11,Rod Smith,Bishop Lynch,118.12,172.37,106.59,188.24,467.2,Single-ply,SBD,M
Boys,124.74,12,Lyle Owens,White Oak,123.56,181.44,127.01,158.76,467.2,Single-ply,SBD,M
Boys,124.74,13,Clayton Amendson,Forney,120.66,190.51,108.86,154.22,453.59,Single-ply,SBD,M
Boys,124.74,14,Jonathon Estrada,Corsicana,112.4,161.03,113.4,170.1,444.52,Single-ply,SBD,M
Boys,124.74,15,Jonathon Seaton,Corsicana,111.13,154.22,90.72,197.31,442.25,Single-ply,SBD,M
Boys,124.74,16,Noah Elders,Forney,123.1,181.44,83.91,174.63,439.98,Single-ply,SBD,M
Boys,124.74,17,Uzoma Okere,Mansfield Timberview,113.76,158.76,97.52,181.44,437.72,Single-ply,SBD,M
Boys,124.74,18,Branson Manuere,Corsicana,120.75,142.88,111.13,161.03,415.04,Single-ply,SBD,M
Boys,124.74,19,Cody Lambert,Forney,114.31,145.15,81.65,145.15,371.95,Single-ply,SBD,M
Boys,124.74,DQ,Armando Martinez,Red Oak,113.58,158.76,,,,Single-ply,SBD,M
Boys,124.74+,1,Daniel Ruiz,Corsicana,164.84,247.21,181.44,240.4,669.05,Single-ply,SBD,M
Boys,124.74+,2,Jermaine Williams,North Forney,139.71,256.28,147.42,244.94,648.64,Single-ply,SBD,M
Boys,124.74+,3,Aldren Kamara,North Mesquite,147.87,240.4,124.74,226.8,591.94,Single-ply,SBD,M
Boys,124.74+,4,Cameron Cunady,Greenville,142.16,201.85,133.81,231.33,566.99,Single-ply,SBD,M
Boys,124.74+,5,Jacob Reichenau,Crandall,136.71,217.72,120.2,226.8,564.72,Single-ply,SBD,M
Boys,124.74+,6,Brice Chambers,North Mesquite,131.45,219.99,122.47,215.46,557.92,Single-ply,SBD,M
Boys,124.74+,7,Dezmand Candelarie,North Mesquite,138.16,197.31,145.15,208.65,551.11,Single-ply,SBD,M
Boys,124.74+,8,Jess Jenkins,Sulphur Springs,128.82,195.04,133.81,217.72,546.58,Single-ply,SBD,M
Boys,124.74+,9,Mitchell Wheat,Greenville,125.46,231.33,120.2,192.78,544.31,Single-ply,SBD,M
Boys,124.74+,10,Ryan Peschka,Mansfield Timberview,138.44,201.85,136.08,204.12,542.04,Single-ply,SBD,M
Boys,124.74+,11,Keanan Ivory,Canton,147.96,244.94,92.99,199.58,537.51,Single-ply,SBD,M
Boys,124.74+,12,Wade Cookston,Sunnyvale,131.18,188.24,149.69,195.04,532.97,Single-ply,SBD,M
Boys,124.74+,13,Cody Taylor,Royse City,126.19,206.38,102.06,217.72,526.17,Single-ply,SBD,M
Boys,124.74+,14,Montana Bottom,Greenville,139.07,213.19,120.2,188.24,521.63,Single-ply,SBD,M
Boys,124.74+,15,Austin Webb,Dallas Highland Park,135.44,199.58,108.86,181.44,489.88,Single-ply,SBD,M
Boys,124.74+,16,Austin Frye,Royse City,133.08,190.51,113.4,170.1,474,Single-ply,SBD,M
Boys,124.74+,17,Orlando Martinez,Red Oak,129.18,151.95,92.99,195.04,439.98,Single-ply,SBD,M
Boys,124.74+,18,Edgar SanJuan,Kaufman,135.44,192.78,104.33,136.08,433.18,Single-ply,SBD,M
Boys,124.74+,19,Dalton Hatcher,Scurry-Rosser,155.85,145.15,104.33,163.29,412.77,Single-ply,SBD,M
Boys,124.74+,20,Kelan Haden,White Oak,127.46,149.69,81.65,158.76,390.09,Single-ply,SBD,M
