Place,Sex,Name,CyrillicName,BodyweightKg,Squat1Kg,Squat2Kg,Squat3Kg,Best3SquatKg,Squat4Kg,Bench1Kg,Bench2Kg,Bench3Kg,Best3BenchKg,Bench4Kg,Deadlift1Kg,Deadlift2Kg,Deadlift3Kg,Best3DeadliftKg,Deadlift4Kg,TotalKg,WeightClassKg,Event,Equipment,Tested,Division,Age,BirthDate
1,F,Yuliya Vorobyova,Юлия Воробьёва,44,70,-75,-75,70,,47.5,-50,-50,47.5,,95,-100,-100,95,,212.5,44,SBD,Raw,Yes,Amateur Juniors 20-23,22,1997-12-18
2,F,Alyona Nelogova,Алёна Нелогова,36.6,45,50,52.5,52.5,,22.5,25,27.5,27.5,,50,55,60,60,,140,44,SBD,Raw,Yes,Amateur Juniors 20-23,22,1997-09-01
1,F,Irina Aleksandrova,Ирина Александрова,47.5,70,75,80,80,,35,37.5,-40,37.5,,75,77.5,-80,77.5,,195,48,SBD,Raw,Yes,Amateur Sub-Juniors 17-19,19,2000-05-26
1,F,Anastasiya Rokina,Анастасия Рокина,49.75,87.5,92.5,-95,92.5,,37.5,40,-42.5,40,,-85,90,95,95,,227.5,52,SBD,Raw,Yes,Amateur Sub-Juniors 17-19,19,2000-07-03
1,F,Renata Korkina,Рената Коркина,49.3,85,-95,95,95,,55,60,-62.5,60,,95,107.5,115,115,,270,52,SBD,Raw,Yes,Amateur Open,33,1986-06-24
2,F,Anna Mamont,Анна Мамонт,51.1,80,-85,85,85,,-52.5,52.5,57.5,57.5,,-105,105,115,115,,257.5,52,SBD,Raw,Yes,Amateur Open,26,1993-06-11
1,F,Darya Shtanko,Дарья Штанько,54.6,100,-110,112.5,112.5,,50,-55,-55,50,,100,107.5,-112.5,107.5,,270,56,SBD,Raw,Yes,Amateur Juniors 20-23,22,1998-01-25
1,F,Oksana Shakirova,Оксана Шакирова,55.2,80,85,90,90,,45,50,52.5,52.5,,100,110,115,115,,257.5,56,SBD,Raw,Yes,Amateur Open,39,1980-08-05
2,F,Lyudmila Savina,Людмила Савина,55.7,100,-105,-105,100,,-50,50,-52.5,50,,105,-110,-110,105,,255,56,SBD,Raw,Yes,Amateur Open,34,1985-10-11
1,F,Nadezhda Kiyashko,Надежда Кияшко,59.9,95,105,115,115,,75,82.5,-85,82.5,,130,142.5,150,150,,347.5,60,SBD,Raw,Yes,Amateur Open,25,1994-05-19
1,F,Olesya Nikolaeva,Олеся Николаева,65,105,110,-115,110,,62.5,65,-67.5,65,,145,150,-152.5,150,,325,67.5,SBD,Raw,Yes,Amateur Masters 40-49,42,1978-01-31
1,M,Mikhail Kuzmin,Михаил Кузьмин,73.2,180,190,200,200,,110,115,-120,115,,210,-230,-230,210,,525,75,SBD,Raw,Yes,Amateur Open,28,1991-10-31
2,M,Aleksandr Sevastov,Александр Севастов,72.2,130,140,150,150,,-110,110,-117.5,110,,150,-170,170,170,,430,75,SBD,Raw,Yes,Amateur Open,30,1989-06-28
1,M,Vitaliy Vlasov,Виталий Власов,82,190,200,205,205,,120,-125,-125,120,,230,240,250,250,,575,82.5,SBD,Raw,Yes,Amateur Juniors 20-23,23,1996-12-18
2,M,Daniil Barsukov,Даниил Барсуков,80.1,162.5,-170,170,170,,115,117.5,-120,117.5,,190,-200,-200,190,,477.5,82.5,SBD,Raw,Yes,Amateur Juniors 20-23,20,1999-07-08
3,M,Aleksandr Mukhin,Александр Мухин,75.3,120,-130,-130,120,,95,-100,100,100,,130,140,-145,140,,360,82.5,SBD,Raw,Yes,Amateur Juniors 20-23,20,1999-08-10
1,M,Eslam Soliman,Еслам Солиман,80.4,170,-177.5,177.5,177.5,,132.5,-140,-140,132.5,,235,-250,,235,,545,82.5,SBD,Raw,Yes,Amateur Open,24,1996-02-11
2,M,Nikita Klevin,Никита Клевин,82.1,155,165,170,170,,125,130,132.5,132.5,,190,205,210,210,,512.5,82.5,SBD,Raw,Yes,Amateur Open,24,1995-11-27
3,M,Aleksandr Usov,Александр Усов,81.9,155,165,170,170,,95,-102.5,-102.5,95,,175,-185,185,185,,450,82.5,SBD,Raw,Yes,Amateur Open,31,1988-04-19
4,M,Artyom Parykin,Артём Парыкин,81.9,-150,150,-160,150,,90,-95,-95,90,,155,165,170,170,,410,82.5,SBD,Raw,Yes,Amateur Open,40,1979-11-11
5,M,Evgeniy Shapkin,Евгений Шапкин,79.8,130,137.5,145,145,,85,90,-95,90,,155,165,-172.5,165,,400,82.5,SBD,Raw,Yes,Amateur Open,27,1992-07-04
DQ,M,Andrey Budyanenko,Андрей Будяненко,82.2,-165,-165,-165,,,,,,,,,,,,,,82.5,SBD,Raw,Yes,Amateur Open,37,1983-02-06
1,M,Dmitriy Biryukov,Дмитрий Бирюков,88.7,160,170,180,180,,100,110,115,115,,165,180,190,190,,485,90,SBD,Raw,Yes,Amateur Juniors 20-23,23,1996-09-04
1,M,Tazhit Kazakbiev,Тажит Казакбиев,89.8,200,207.5,-212.5,207.5,,155,165,-170,165,,237.5,245,255,255,,627.5,90,SBD,Raw,Yes,Amateur Open,27,1992-08-28
2,M,Aleksandr Ligay,Александр Лигай,88.5,202.5,212.5,217.5,217.5,,150,155,-157.5,155,,232.5,-237.5,237.5,237.5,,610,90,SBD,Raw,Yes,Amateur Open,32,1987-03-21
3,M,Dmitriy Kolpashchikov,Дмитрий Колпащиков,89.1,135,145,155,155,,127.5,-132.5,-135,127.5,,155,165,172.5,172.5,,455,90,SBD,Raw,Yes,Amateur Open,33,1986-10-29
DQ,M,Aleksandr Belenkiy,Александр Беленький,89.1,-165,165,-180,165,,-110,-120,-120,,,,,,,,,90,SBD,Raw,Yes,Amateur Open,24,1995-08-21
1,M,Klim Zakharov,Клим Захаров,87.7,140,150,160,160,,100,110,-120,110,,170,190,210,210,,480,90,SBD,Raw,Yes,Amateur Masters 40-49,45,1974-05-01
2,M,Anatoliy Savchenko,Анатолий Савченко,84.5,125,130,135,135,,95,100,-105,100,,160,170,180,180,,415,90,SBD,Raw,Yes,Amateur Masters 40-49,41,1978-11-04
DQ,M,Aleksandr Lysenko,Александр Лысенко,98.6,-180,-180,-180,,,,,,,,,,,,,,100,SBD,Raw,Yes,Amateur Juniors 20-23,20,1999-03-05
1,M,Aleksey Kholunin,Алексей Холунин,93,195,202.5,205,205,,155,-162.5,162.5,162.5,,205,215,225,225,,592.5,100,SBD,Raw,Yes,Amateur Open,37,1982-04-15
2,M,Andrey Ilin,Андрей Ильин,99.4,190,200,210,210,,130,135,-140,135,,210,225,-232.5,225,,570,100,SBD,Raw,Yes,Amateur Open,31,1988-03-13
3,M,Vasiliy Belov,Василий Белов,99.6,160,167.5,172.5,172.5,,115,120,122.5,122.5,,200,210,-215,210,,505,100,SBD,Raw,Yes,Amateur Open,32,1987-05-05
1,M,Timofey Ivanov,Тимофей Иванов,105.4,205,215,-220,215,,150,155,-160,155,,220,230,240,240,,610,110,SBD,Raw,Yes,Amateur Open,34,1985-09-20
2,M,Mikhail Khazov,Михаил Хазов,107.5,200,205,210,210,,160,170,-175,170,,210,-220,220,220,,600,110,SBD,Raw,Yes,Amateur Open,31,1988-11-24
3,M,Anton Sofronov,Антон Софронов,109.4,-160,160,170,170,,95,100,105,105,,170,180,185,185,,460,110,SBD,Raw,Yes,Amateur Open,31,1988-07-05
1,M,Anton Bondarchuk,Антон Бондарчук,115.1,230,240,250,250,,140,150,-160,150,,230,240,252.5,252.5,,652.5,125,SBD,Raw,Yes,Amateur Masters 40-49,44,1975-03-03
1,M,Lev Samarin,Лев Самарин,138.6,245,252.5,265,265,,-140,-145,145,145,,280,-302.5,-302.5,280,,690,140,SBD,Raw,Yes,Amateur Open,36,1983-05-28
2,M,Pavel Evstafev,Павел Евстафьев,129.2,160,170,177.5,177.5,,125,-130,130,130,,200,217.5,227.5,227.5,,535,140,SBD,Raw,Yes,Amateur Open,32,1987-12-09
1,F,Yuliya Zhuk,Юлия Жук,47.8,80,85,90,90,,40,42.5,-45,42.5,,102.5,112.5,-117.5,112.5,,245,48,SBD,Raw,No,Pro Open,33,1986-04-01
1,F,Yuliya Abramova,Юлия Абрамова,55,120,130,-135,130,,65,70,72.5,72.5,,157.5,170,172.5,172.5,,375,56,SBD,Raw,No,Pro Open,37,1982-06-29
1,F,Elena Bondarchuk,Елена Бондарчук,59,125,135,-142.5,135,,85,-90,-90,85,,147.5,157.5,-162.5,157.5,,377.5,60,SBD,Raw,No,Pro Open,39,1980-06-18
1,F,Viktoriya Doga,Виктория Дога,81,147.5,157.5,165,165,,105,112.5,117.5,117.5,,-180,187.5,-195,187.5,,470,82.5,SBD,Raw,No,Pro Open,37,1982-09-04
1,M,Denis Feshchenko,Денис Фещенко,67.7,-90,92.5,97.5,97.5,,47.5,52.5,55,55,,90,100,-110,100,,252.5,75,SBD,Raw,No,Youth,10,2009-03-30
1,M,Denis Koltsov,Денис Кольцов,74.1,180,190,-200,190,,100,110,115,115,,160,175,-185,175,,480,75,SBD,Raw,No,Pro Sub-Juniors 17-19,18,2002-02-23
2,M,Ivan Medkov,Иван Медков,72.1,100,120,125,125,,80,87.5,90,90,,140,147.5,152.5,152.5,,367.5,75,SBD,Raw,No,Pro Sub-Juniors 17-19,18,2001-09-09
1,M,Zaur Matiev,Заур Матиев,99.9,255,265,270,270,,195,200,-202.5,200,,305,-315,-315,305,,775,100,SBD,Raw,No,Pro Open,33,1986-11-26
2,M,Sergey Borovkov,Сергей Боровков,97.2,215,225,235,235,,-177.5,177.5,-182.5,177.5,,280,295,-300,295,,707.5,100,SBD,Raw,No,Pro Open,28,1991-03-05
3,M,Dmitriy Mukhin,Дмитрий Мухин,96.2,230,240,245,245,,160,165,,165,,-260,260,265,265,,675,100,SBD,Raw,No,Pro Open,36,1983-05-15
4,M,Vasiliy Gerbik,Василий Гербик,93.6,-140,140,150,150,,100,105,-110,105,,165,180,195,195,,450,100,SBD,Raw,No,Pro Open,29,1990-06-22
DQ,M,Evgeniy Gontsov,Евгений Гонцов,94,200,-210,,200,,-180,-190,-190,,,,,,,,,100,SBD,Raw,No,Pro Open,30,1989-06-23
1,M,Roman Shcherbakov,Роман Щербаков,98.1,210,220,225,225,,142.5,147.5,150,150,,230,240,-245,240,,615,100,SBD,Raw,No,Pro Masters 40-49,49,1970-12-19
1,M,Denis Deryagin,Денис Дерягин,109,222.5,237.5,247.5,247.5,,187.5,197.5,202.5,202.5,,240,255,265,265,,715,110,SBD,Raw,No,Pro Open,40,1980-02-28
2,M,Ivan Baklanov,Иван Бакланов,104.3,225,240,247.5,247.5,,170,180,185,185,,260,270,277.5,277.5,,710,110,SBD,Raw,No,Pro Open,36,1983-04-16
1,M,Maksim Bezinskikh,Максим Безинских,135.5,245,260,267.5,267.5,,185,195,202.5,202.5,,245,260,270,270,,740,140,SBD,Raw,No,Pro Open,33,1986-05-18
1,F,Anna Kizilova,Анна Кизилова,53.6,72.5,-80,-85,72.5,,35,40,-42.5,40,,80,85,92.5,92.5,,205,56,SBD,Wraps,Yes,Amateur Open,28,1991-03-14
1,M,Konstantin Sviridov,Константин Свиридов,67.3,105,-110,,105,,80,85,-90,85,,145,-155,-165,145,,335,67.5,SBD,Wraps,Yes,Amateur Open,34,1985-04-13
1,M,Sergey Serba,Сергей Серба,73.8,170,-175,,170,,105,110,-115,110,,150,170,180,180,,460,75,SBD,Wraps,Yes,Amateur Juniors 20-23,22,1997-05-31
1,M,Ivan Krasnikov,Иван Красников,88.9,170,185,-195,185,,-140,140,-150,140,,200,-230,-230,200,,525,90,SBD,Wraps,Yes,Amateur Open,29,1990-07-03
1,M,Maksim Vorobev,Максим Воробьев,99.7,210,-220,220,220,,155,160,167.5,167.5,,225,230,240,240,,627.5,100,SBD,Wraps,Yes,Amateur Juniors 20-23,23,1996-04-19
1,M,Ilya Melnichenko,Илья Мельниченко,99.6,210,220,-230,220,,-165,172.5,-180,172.5,,215,225,-230,225,,617.5,100,SBD,Wraps,Yes,Amateur Open,29,1990-09-12
1,M,Valeriy Veselov,Валерий Веселов,107.9,220,230,240,240,,145,150,-155,150,,230,250,260,260,,650,110,SBD,Wraps,Yes,Amateur Open,36,1983-06-15
1,M,Evgeniy Dmitriev,Евгений Дмитриев,72,115,-125,130,130,,70,77.5,82.5,82.5,,120,135,142.5,142.5,,355,75,SBD,Wraps,No,Pro Open,24,1995-11-02
DQ,M,Dmitriy Mikhaylov,Дмитрий Михайлов,99.8,300,-310,,300,,,,,,,,,,,,,100,SBD,Wraps,No,Pro Open,35,1984-05-23
1,F,Anna Pushkareva,Анна Пушкарева,59,,,,,,55,57.5,-60,57.5,,,,,,,57.5,60,B,Raw,Yes,Amateur Open,32,1988-01-22
1,F,Darya Semykina,Дарья Семыкина,66.9,,,,,,60,65,-67.5,65,,,,,,,65,67.5,B,Raw,Yes,Amateur Sub-Juniors 17-19,18,2001-03-03
1,F,Mariya Subratova,Мария Субратова,64.3,,,,,,47.5,52.5,-55,52.5,,,,,,,52.5,67.5,B,Raw,Yes,Amateur Juniors 20-23,22,1997-12-07
1,F,Svetlana Kruchina,Светлана Кручина,66.5,,,,,,57.5,60,62.5,62.5,,,,,,,62.5,67.5,B,Raw,Yes,Amateur Open,35,1985-02-19
2,F,Irina Veselova,Ирина Веселова,65.6,,,,,,47.5,50,52.5,52.5,,,,,,,52.5,67.5,B,Raw,Yes,Amateur Open,28,1991-09-21
3,F,Irina Korableva,Ирина Кораблева,61.9,,,,,,45,-47.5,-47.5,45,,,,,,,45,67.5,B,Raw,Yes,Amateur Open,38,1981-09-05
4,F,Kseniya Solkina,Ксения Солкина,61.2,,,,,,40,-45,-47.5,40,,,,,,,40,67.5,B,Raw,Yes,Amateur Open,31,1988-11-10
1,F,Elena Dmitrieva,Елена Дмитриева,68.9,,,,,,60,62.5,65,65,,,,,,,65,75,B,Raw,Yes,Amateur Open,45,1974-11-03
1,F,Elena Malinina,Елена Малинина,70.6,,,,,,-47.5,47.5,50,50,,,,,,,50,75,B,Raw,Yes,Amateur Masters 40-49,43,1976-07-19
1,F,Irina Pavzovskaya,Ирина Павзовская,94.4,,,,,,-40,-40,40,40,,,,,,,40,90+,B,Raw,Yes,Amateur Masters 50-59,55,1964-07-27
1,M,Boris Belov,Борис Белов,44.4,,,,,,47.5,52.5,57.5,57.5,,,,,,,57.5,52,B,Raw,Yes,Amateur Teen 14-16,16,2003-06-04
1,M,Nikita Savelev,Никита Савельев,64,,,,,,97.5,107.5,-110,107.5,,,,,,,107.5,67.5,B,Raw,Yes,Amateur Sub-Juniors 17-19,18,2001-11-30
2,M,Anton Kritskiy,Антон Крицкий,67.4,,,,,,105,-107.5,107.5,107.5,,,,,,,107.5,67.5,B,Raw,Yes,Amateur Sub-Juniors 17-19,19,2000-12-18
1,M,Andrey Gultsev,Андрей Гульцев,66.4,,,,,,125,-135,-142.5,125,,,,,,,125,67.5,B,Raw,Yes,Amateur Open,28,1991-12-07
2,M,Aleksey Filipskiy,Алексей Филипский,66.7,,,,,,117.5,-125,-125,117.5,,,,,,,117.5,67.5,B,Raw,Yes,Amateur Open,35,1984-11-04
3,M,Vsevolod Tikhonov,Всеволод Тихонов,67,,,,,,90,100,102.5,102.5,,,,,,,102.5,67.5,B,Raw,Yes,Amateur Open,27,1992-11-04
1,M,Vladislav Yadryshnikov,Владислав Ядрышников,73,,,,,,90,-100,-100,90,,,,,,,90,75,B,Raw,Yes,Amateur Juniors 20-23,20,2000-01-21
1,M,Denis Ivanchishin,Денис Иванчишин,73,,,,,,140,145,-147.5,145,,,,,,,145,75,B,Raw,Yes,Amateur Open,36,1984-01-11
2,M,Aleksey Kupriyanovskiy,Алексей Куприяновский,73.8,,,,,,135,-145,-145,135,,,,,,,135,75,B,Raw,Yes,Amateur Open,30,1990-01-31
3,M,Dmitriy Kiselyov,Дмитрий Киселёв,74,,,,,,127.5,-135,-135,127.5,,,,,,,127.5,75,B,Raw,Yes,Amateur Open,29,1990-11-16
4,M,Artem Bornyakov,Артем Борняков,74.8,,,,,,120,125,127.5,127.5,,,,,,,127.5,75,B,Raw,Yes,Amateur Open,30,1989-10-18
5,M,Oleg Afanasev,Олег Афанасьев,73.6,,,,,,110,-117.5,117.5,117.5,,,,,,,117.5,75,B,Raw,Yes,Amateur Open,36,1983-11-05
6,M,Dmitriy Belyakov,Дмитрий Беляков,74.4,,,,,,105,110,117.5,117.5,,,,,,,117.5,75,B,Raw,Yes,Amateur Open,34,1985-10-11
7,M,Kirill Pogosyan,Кирилл Погосян,74.2,,,,,,115,-117.5,-117.5,115,,,,,,,115,75,B,Raw,Yes,Amateur Open,29,1991-02-08
8,M,Artem Mukharyamov,Артем Мухарьямов,74.7,,,,,,115,-120,-120,115,,,,,,,115,75,B,Raw,Yes,Amateur Open,30,1989-08-03
1,M,Sergey Toming,Сергей Томинг,73.3,,,,,,115,120,-125,120,,,,,,,120,75,B,Raw,Yes,Amateur Masters 50-59,51,1968-12-09
1,M,Evgeniy Tseyklin,Евгений Цейклин,79.3,,,,,,122.5,127.5,132.5,132.5,,,,,,,132.5,82.5,B,Raw,Yes,Amateur Sub-Juniors 17-19,19,2000-09-17
1,M,Aleksandr Korolev,Александр Королев,78.5,,,,,,122.5,127.5,-135,127.5,,,,,,,127.5,82.5,B,Raw,Yes,Amateur Juniors 20-23,21,1998-04-03
2,M,Konstantin Mushnov,Константин Мушнов,79.7,,,,,,120,125,,125,,,,,,,125,82.5,B,Raw,Yes,Amateur Juniors 20-23,21,1998-04-07
3,M,Roman Brovko,Роман Бровко,81.8,,,,,,110,-115,-115,110,,,,,,,110,82.5,B,Raw,Yes,Amateur Juniors 20-23,22,1997-04-23
1,M,Pavel Serebryakov,Павел Серебряков,78.7,,,,,,140,145,-147.5,145,,,,,,,145,82.5,B,Raw,Yes,Amateur Open,35,1985-02-24
2,M,Bekzod Beknazarov,Бекзод Бекназаров,81.8,,,,,,135,-140,145,145,,,,,,,145,82.5,B,Raw,Yes,Amateur Open,25,1995-01-12
3,M,Andrey Andreev,Андрей Андреев,81.6,,,,,,125,132.5,-137.5,132.5,,,,,,,132.5,82.5,B,Raw,Yes,Amateur Open,34,1985-09-04
4,M,Vladimir Ustinov,Владимир Устинов,82,,,,,,120,127.5,130,130,,,,,,,130,82.5,B,Raw,Yes,Amateur Open,35,1984-08-01
5,M,Aleksey Maslenkov,Алексей Масленков,80.7,,,,,,125,-130,-130,125,,,,,,,125,82.5,B,Raw,Yes,Amateur Open,32,1987-05-12
6,M,Dmitriy Yanushkevich,Дмитрий Янушкевич,78.8,,,,,,100,115,-127.5,115,,,,,,,115,82.5,B,Raw,Yes,Amateur Open,32,1987-12-16
DQ,M,Igor Alekseev,Игорь Алексеев,81.2,,,,,,-135,-145,-145,,,,,,,,,82.5,B,Raw,Yes,Amateur Open,34,1985-06-12
1,M,Vitaliy Galashkin,Виталий Галашкин,89.6,,,,,,165,170,175,175,,,,,,,175,90,B,Raw,Yes,Amateur Open,29,1990-05-20
2,M,Dmitriy Akselrod,Дмитрий Аксельрод,89.6,,,,,,145,152.5,-155,152.5,,,,,,,152.5,90,B,Raw,Yes,Amateur Open,36,1983-10-21
3,M,Anton Antonov,Антон Антонов,87.6,,,,,,145,-160,-165,145,,,,,,,145,90,B,Raw,Yes,Amateur Open,30,1989-03-07
4,M,Pavel Mishchenko,Павел Мищенко,89.3,,,,,,145,-152.5,-152.5,145,,,,,,,145,90,B,Raw,Yes,Amateur Open,24,1995-04-05
5,M,Andrey Ivanov,Андрей Иванов,89.1,,,,,,132.5,140,-142.5,140,,,,,,,140,90,B,Raw,Yes,Amateur Open,37,1982-10-06
6,M,Dmitriy Kolpashchikov,Дмитрий Колпащиков,89.1,,,,,,127.5,-132.5,-135,127.5,,,,,,,127.5,90,B,Raw,Yes,Amateur Open,33,1986-10-29
7,M,Aleksandr Paramonov,Александр Парамонов,87.3,,,,,,-120,-125,125,125,,,,,,,125,90,B,Raw,Yes,Amateur Open,36,1983-07-22
DQ,M,Sergey Smirnov,Сергей Смирнов,88.2,,,,,,-125,-125,-132.5,,,,,,,,,90,B,Raw,Yes,Amateur Open,32,1987-08-11
DQ,M,Denis Gulitskiy,Денис Гулицкий,89.7,,,,,,-152.5,-152.5,-152.5,,,,,,,,,90,B,Raw,Yes,Amateur Open,27,1992-06-14
1,M,Dzhalil Akhunzhanov,Джалиль Ахунжанов,88.7,,,,,,150,155,160,160,,,,,,,160,90,B,Raw,Yes,Amateur Masters 40-49,43,1976-03-20
2,M,Aleksey Chirkov,Алексей Чирков,87.6,,,,,,120,125,130,130,,,,,,,130,90,B,Raw,Yes,Amateur Masters 40-49,41,1978-08-13
1,M,Sergey Rumyantsev,Сергей Румянцев,88.6,,,,,,160,170,-175,170,,,,,,,170,90,B,Raw,Yes,Amateur Masters 50-59,54,1965-08-28
1,M,Konstantin Panshin,Константин Паншин,88,,,,,,150,155,160,160,,,,,,,160,90,B,Raw,Yes,Amateur Masters 60-69,60,1960-01-22
1,M,Ruslan Zhelkobaev,Руслан Желкобаев,99.6,,,,,,-127.5,130,135,135,,,,,,,135,100,B,Raw,Yes,Amateur Sub-Juniors 17-19,19,2000-08-30
1,M,Viktor Shlenchak,Виктор Шленчак,93.5,,,,,,160,165,170,170,,,,,,,170,100,B,Raw,Yes,Amateur Open,35,1984-04-22
2,M,Mikhail Mosyakov,Михаил Мосяков,99.8,,,,,,157.5,162.5,-165,162.5,,,,,,,162.5,100,B,Raw,Yes,Amateur Open,31,1988-05-31
3,M,Vyacheslav Arkhipov,В'ячеслав Архіпов,99.5,,,,,,135,140,-145,140,,,,,,,140,100,B,Raw,Yes,Amateur Open,25,1995-02-08
4,M,Artyom Bobrov,Артём Бобров,96.1,,,,,,130,-142.5,-142.5,130,,,,,,,130,100,B,Raw,Yes,Amateur Open,31,1988-05-20
5,M,Ilya Kabyshev,Илья Кабышев,99.9,,,,,,120,130,-140,130,,,,,,,130,100,B,Raw,Yes,Amateur Open,28,1991-06-19
1,M,Viktor Markov,Виктор Марков,98.9,,,,,,157.5,162.5,167.5,167.5,,,,,,,167.5,100,B,Raw,Yes,Amateur Masters 40-49,45,1974-03-05
2,M,Georgiy Egorov,Георгий Егоров,99.4,,,,,,-150,150,-155,150,,,,,,,150,100,B,Raw,Yes,Amateur Masters 40-49,47,1972-03-17
1,M,Aleksey Granov,Алексей Гранов,109.6,,,,,,160,170,-175,170,,,,,,,170,110,B,Raw,Yes,Amateur Open,47,1972-06-24
2,M,Vasiliy Khomyakov,Василий Хомяков,108,,,,,,140,145,147.5,147.5,,,,,,,147.5,110,B,Raw,Yes,Amateur Open,36,1984-02-22
3,M,Mikhail Ivanov,Михаил Иванов,108.8,,,,,,130,140,147.5,147.5,,,,,,,147.5,110,B,Raw,Yes,Amateur Open,29,1990-09-14
DQ,M,Anatoliy Kroshko,Анатолий Крошко,107.8,,,,,,-170,-170,-170,,,,,,,,,110,B,Raw,Yes,Amateur Open,32,1987-07-31
DQ,M,Nikita Filippov,Никита Филиппов,109.5,,,,,,-167.5,-167.5,-167.5,,,,,,,,,110,B,Raw,Yes,Amateur Open,27,1992-11-27
1,M,Aleksey Granov,Алексей Гранов,109.6,,,,,,160,170,-175,170,,,,,,,170,110,B,Raw,Yes,Amateur Masters 40-49,47,1972-06-24
1,M,Andrey Fedorov,Андрей Федоров,105,,,,,,135,-140,142.5,142.5,,,,,,,142.5,110,B,Raw,Yes,Amateur Masters 50-59,54,1965-10-16
1,M,Vasiliy Franchuk,Василий Франчук,108.8,,,,,,135,145,150,150,,,,,,,150,110,B,Raw,Yes,Amateur Masters 60-69,64,1955-08-27
1,M,Leonid Bantov,Леонид Бантов,100.6,,,,,,120,125,-130,125,,,,,,,125,110,B,Raw,Yes,Amateur Masters 70-79,77,1942-08-27
1,M,Artem Ivanov,Артем Иванов,123.6,,,,,,160,-170,-177.5,160,,,,,,,160,125,B,Raw,Yes,Amateur Sub-Juniors 17-19,19,2000-03-06
1,M,Anatoliy Zolotov,Анатолий Золотов,119,,,,,,190,-200,-200,190,,,,,,,190,125,B,Raw,Yes,Amateur Open,47,1972-04-13
2,M,Sergey Matveev,Сергей Матвеев,125,,,,,,180,190,-202.5,190,,,,,,,190,125,B,Raw,Yes,Amateur Open,28,1991-10-28
1,M,Nikolay Demennik,Николай Деменник,138.5,,,,,,190,-200,200,200,,,,,,,200,140,B,Raw,Yes,Amateur Open,36,1983-11-04
1,F,Vera Perekhodchenko,Вера Переходченко,53.9,,,,,,40,45,-47.5,45,,,,,,,45,56,B,Raw,No,Pro Open,28,1991-09-30
1,M,Ilya Mitin,Илья Митин,61.5,,,,,,105,112.5,,112.5,,,,,,,112.5,67.5,B,Raw,No,Pro Sub-Juniors 17-19,17,2002-07-16
1,M,Dmitriy Sidorkin,Дмитрий Сидоркин,74.1,,,,,,170,177.5,-180,177.5,,,,,,,177.5,75,B,Raw,No,Pro Open,27,1993-02-04
1,M,Aleksandr Antropov,Александр Антропов,74.1,,,,,,175,177.5,180,180,-182.5,,,,,,180,75,B,Raw,No,Pro Masters 50-59,50,1969-03-14
DQ,M,Stanislav Pavlov,Станислав Павлов,80.5,,,,,,-150,-150,-150,,,,,,,,,82.5,B,Raw,No,Pro Juniors 20-23,23,1996-11-08
1,M,Artem Rogozhin,Артем Рогожин,82.1,,,,,,175,180,-185,180,,,,,,,180,82.5,B,Raw,No,Pro Open,30,1989-05-05
2,M,Evgeniy Erofeev,Евгений Ерофеев,81.4,,,,,,140,147.5,152.5,152.5,,,,,,,152.5,82.5,B,Raw,No,Pro Open,24,1995-11-17
3,M,Aleksey Grobovoy,Алексей Гробовой,79.8,,,,,,135,140,145,145,,,,,,,145,82.5,B,Raw,No,Pro Open,32,1987-05-02
4,M,Mikhail Merkulov,Михаил Меркулов,81.4,,,,,,135,142.5,-145,142.5,,,,,,,142.5,82.5,B,Raw,No,Pro Open,32,1987-11-03
1,M,Igor Popov,Игорь Попов,82.2,,,,,,127.5,135,137.5,137.5,,,,,,,137.5,82.5,B,Raw,No,Pro Masters 60-69,62,1957-04-11
1,M,Vjačeslavs Letlans,,89.9,,,,,,225,232.5,240,240,,,,,,,240,90,B,Raw,No,Pro Open,33,1987-02-28
2,M,Sergey Kiselyov,Сергей Киселёв,89.2,,,,,,165,-175,,165,,,,,,,165,90,B,Raw,No,Pro Open,34,1985-05-27
DQ,M,Denis Lysenko,Денис Лысенко,99.4,,,,,,-185,-185,-185,,,,,,,,,100,B,Raw,No,Pro Juniors 20-23,23,1996-08-15
1,M,Ilya Korobov,Илья Коробов,95.9,,,,,,195,202.5,-205,202.5,,,,,,,202.5,100,B,Raw,No,Pro Open,39,1980-04-17
2,M,Stanislav Kandaurov,Станислав Кандауров,93.8,,,,,,195,-202.5,-202.5,195,,,,,,,195,100,B,Raw,No,Pro Open,29,1990-05-26
3,M,Rustam Mukhametshin,Рустам Мухаметшин,93.7,,,,,,175,-185,-185,175,,,,,,,175,100,B,Raw,No,Pro Open,31,1989-02-18
4,M,Vyacheslav Kutasov,Вячеслав Кутасов,91.6,,,,,,150,-160,160,160,,,,,,,160,100,B,Raw,No,Pro Open,28,1991-08-21
DQ,M,Artur Beltsov,Артур Бельцов,92.4,,,,,,-180,,,,,,,,,,,100,B,Raw,No,Pro Open,37,1982-03-04
1,M,Oleg Nikolaev,Олег Николаев,98.2,,,,,,-165,-165,165,165,,,,,,,165,100,B,Raw,No,Pro Masters 40-49,41,1978-12-10
2,M,Sergey Kulpin,Сергей Кульпин,95.3,,,,,,120,130,135,135,,,,,,,135,100,B,Raw,No,Pro Masters 40-49,47,1973-01-11
1,M,Vasiliy Markitantov,Василий Маркитантов,107.2,,,,,,210,215,-220,215,,,,,,,215,110,B,Raw,No,Pro Open,40,1980-02-21
2,M,Evgeniy Kozhemyakin,Евгений Кожемякин,105.3,,,,,,175,-180,-180,175,,,,,,,175,110,B,Raw,No,Pro Open,37,1982-09-30
3,M,Oleg Gunchenkov,Олег Гунченков,104.2,,,,,,155,162.5,-170,162.5,,,,,,,162.5,110,B,Raw,No,Pro Open,28,1991-09-19
1,M,Vasiliy Markitantov,Василий Маркитантов,107.2,,,,,,210,215,-220,215,,,,,,,215,110,B,Raw,No,Pro Masters 40-49,40,1980-02-21
1,M,Vladimir Shevnin,Владимир Шевнин,106.3,,,,,,125,130,-135,130,,,,,,,130,110,B,Raw,No,Pro Masters 60-69,66,1953-08-06
1,M,Ilya Kalininskiy,Илья Калининский,112.7,,,,,,215,225,232.5,232.5,,,,,,,232.5,125,B,Raw,No,Pro Open,30,1989-04-11
2,M,Aleksey Mikhaylov,Алексей Михайлов,118.7,,,,,,210,220,230,230,,,,,,,230,125,B,Raw,No,Pro Open,33,1986-07-23
3,M,Pavel Pavlov,Павел Павлов,118.4,,,,,,195,-202.5,202.5,202.5,,,,,,,202.5,125,B,Raw,No,Pro Open,24,1996-02-10
1,M,Andrey Kapustin,Андрей Капустин,119.9,,,,,,200,-210,-210,200,,,,,,,200,125,B,Raw,No,Pro Masters 40-49,43,1977-02-18
1,M,Dmitriy Grigoryev #1,Дмитрий Григорьев,127,,,,,,222.5,232.5,242.5,242.5,,,,,,,242.5,140,B,Raw,No,Pro Open,40,1979-04-29
1,M,Dmitriy Grigoryev #1,Дмитрий Григорьев,127,,,,,,222.5,232.5,242.5,242.5,,,,,,,242.5,140,B,Raw,No,Pro Masters 40-49,40,1979-04-29
2,M,Oleg Krylov,Олег Крылов,129.9,,,,,,-210,-210,210,210,,,,,,,210,140,B,Raw,No,Pro Masters 40-49,46,1973-11-04
1,M,Andrey Zubarev,Андрей Зубарев,140.1,,,,,,195,200,205,205,,,,,,,205,140+,B,Raw,No,Pro Open,39,1981-02-01
1,M,Roman Mikhaylov,Роман Михайлов,141.1,,,,,,-150,150,155,155,,,,,,,155,140+,B,Raw,No,Pro Masters 40-49,43,1976-03-16
DQ,M,Aleksandr Shishlenin,Александр Шишленин,86.7,,,,,,-195,-195,-195,,,,,,,,,90,B,Single-ply,Yes,Amateur Open,42,1977-03-12
1,F,Anastasiya Dmitrieva,Анастасия Дмитриева,55.6,,,,,,72.5,77.5,-85,77.5,,,,,,,77.5,56,B,Single-ply,Yes,Amateur Open,34,1985-04-08
1,F,Ekaterina Morozova,Екатерина Морозова,66.7,,,,,,92.5,97.5,-102.5,97.5,,,,,,,97.5,67.5,B,Single-ply,Yes,Amateur Open,41,1978-07-23
1,M,Vladimir Kurbatov,Владимир Курбатов,82,,,,,,165,175,-185,175,,,,,,,175,82.5,B,Single-ply,Yes,Amateur Open,39,1980-08-01
1,M,Andrey Babenkov,Андрей Бабенков,90.9,,,,,,180,190,195,195,,,,,,,195,100,B,Single-ply,Yes,Amateur Open,28,1991-07-16
1,M,Nikita Gribanov,Никита Грибанов,102.1,,,,,,190,200,-215,200,,,,,,,200,110,B,Single-ply,Yes,Amateur Sub-Juniors 17-19,19,2000-12-26
1,M,Nikita Gribanov,Никита Грибанов,102.1,,,,,,190,200,-215,200,,,,,,,200,110,B,Single-ply,Yes,Amateur Open,19,2000-12-26
1,M,Anton Tukaev,Антон Тукаев,81,,,,,,180,-207.5,-207.5,180,,,,,,,180,82.5,B,Single-ply,No,Pro Open,29,1990-07-03
1,M,Aleksey Zavadskiy,Алексей Завадский,90.9,,,,,,220,230,240,240,,,,,,,240,100,B,Single-ply,No,Pro Open,29,1990-08-30
1,M,Vitaliy Orekhov,Виталий Орехов,118.6,,,,,,230,240,-250,240,,,,,,,240,125,B,Single-ply,No,Pro Open,42,1977-05-02
1,M,Vitaliy Orekhov,Виталий Орехов,118.6,,,,,,230,240,-250,240,,,,,,,240,125,B,Single-ply,No,Pro Masters 40-49,42,1977-05-02
1,M,Vladimir Orlov,Владимир Орлов,71.9,,,,,,75,80,,80,,,,,,,80,75,B,Raw,No,Pro Masters 60-69,61,1959-01-18
1,F,Olga Uglova,Ольга Углова,50.9,,,,,,,,,,,-110,110,117.5,117.5,,117.5,52,D,Raw,Yes,Amateur Open,20,1999-12-17
1,F,Natalya Pilipyuk,Наталья Пилипюк,54.9,,,,,,,,,,,130,137.5,140,140,,140,56,D,Raw,Yes,Amateur Open,36,1983-12-21
2,F,Lyudmila Savina,Людмила Савина,55.7,,,,,,,,,,,105,-110,-110,105,,105,56,D,Raw,Yes,Amateur Open,34,1985-10-11
DQ,F,Kristina Zatsepina,Кристина Зацепина,54.2,,,,,,,,,,,-100,-105,-105,,,,56,D,Raw,Yes,Amateur Open,27,1992-08-13
1,F,Irina Kuznetsova,Ирина Кузнецова,53,,,,,,,,,,,80,85,90,90,,90,56,D,Raw,Yes,Amateur Masters 40-49,42,1977-12-15
1,F,Zinaida Rudenko,Зинаида Руденко,59.2,,,,,,,,,,,115,125,132.5,132.5,,132.5,60,D,Raw,Yes,Amateur Open,44,1975-09-07
1,F,Zinaida Rudenko,Зинаида Руденко,59.2,,,,,,,,,,,115,125,132.5,132.5,,132.5,60,D,Raw,Yes,Amateur Masters 40-49,44,1975-09-07
1,F,Yana Zenkova,Яна Зенькова,107.3,,,,,,,,,,,142.5,152.5,-162.5,152.5,,152.5,90+,D,Raw,Yes,Amateur Juniors 20-23,21,1998-10-09
1,F,Irina Darsaliya,Ирина Дарсалия,121.1,,,,,,,,,,,70,97.5,112.5,112.5,,112.5,90+,D,Raw,Yes,Amateur Masters 50-59,53,1966-09-05
1,M,Viktor Korunov,Виктор Корунов,66.2,,,,,,,,,,,165,170,175,175,,175,67.5,D,Raw,Yes,Amateur Masters 60-69,60,1959-05-01
1,M,Aleksandr Sevastov,Александр Севастов,74.3,,,,,,,,,,,170,182.5,-190,182.5,,182.5,75,D,Raw,Yes,Amateur Open,30,1989-06-28
2,M,Timur Valiulin,Тимур Валиулин,73.7,,,,,,,,,,,140,150,160,160,,160,75,D,Raw,Yes,Amateur Open,29,1991-01-06
1,M,Evgeniy Lukashevich,Евгений Лукашевич,81.4,,,,,,,,,,,-275,302.5,,302.5,,302.5,82.5,D,Raw,Yes,Amateur Open,26,1994-01-03
2,M,Kirill Ostanin,Кирилл Останин,80.2,,,,,,,,,,,230,250,-255,250,,250,82.5,D,Raw,Yes,Amateur Open,31,1988-06-21
3,M,Eslam Soliman,Еслам Солиман,80.4,,,,,,,,,,,235,250,-255,250,,250,82.5,D,Raw,Yes,Amateur Open,24,1996-02-11
4,M,Nikita Dolinin,Никита Долинин,78.5,,,,,,,,,,,200,220,230,230,,230,82.5,D,Raw,Yes,Amateur Open,30,1989-06-12
5,M,Roman Pavlov,Роман Павлов,79.8,,,,,,,,,,,210,220,230,230,,230,82.5,D,Raw,Yes,Amateur Open,33,1986-12-12
6,M,Andrey Budyanenko,Андрей Будяненко,82.5,,,,,,,,,,,-200,200,-210,200,,200,82.5,D,Raw,Yes,Amateur Open,37,1983-02-06
DQ,M,Andrey Budyanenko,Андрей Будяненко,82.2,,,,,,,,,,,-200,,,,,,82.5,D,Raw,Yes,Amateur Open,37,1983-02-06
1,M,Andrey Kazakov,Андрей Казаков,80.8,,,,,,,,,,,190,210,-220,210,,210,82.5,D,Raw,Yes,Amateur Masters 40-49,43,1976-03-17
1,M,Maksim Sokolenko,Максим Соколенко,88,,,,,,,,,,,200,230,-240,230,,230,90,D,Raw,Yes,Amateur Open,30,1989-08-19
2,M,Ivan Krasnikov,Иван Красников,88.9,,,,,,,,,,,200,-230,-230,200,,200,90,D,Raw,Yes,Amateur Open,29,1990-07-03
1,M,Vyacheslav Varlamov,Вячеслав Варламов,88.6,,,,,,,,,,,232.5,242.5,247.5,247.5,,247.5,90,D,Raw,Yes,Amateur Masters 40-49,44,1975-04-30
2,M,Klim Zakharov,Клим Захаров,87.7,,,,,,,,,,,190,-210,-210,190,,190,90,D,Raw,Yes,Amateur Masters 40-49,45,1974-05-01
3,M,Aleksey Chirkov,Алексей Чирков,87.6,,,,,,,,,,,170,180,-190,180,,180,90,D,Raw,Yes,Amateur Masters 40-49,41,1978-08-13
1,M,Vasiliy Belov,Василий Белов,99.6,,,,,,,,,,,200,210,-215,210,,210,100,D,Raw,Yes,Amateur Open,32,1987-05-05
1,M,Evgeniy Myagkov,Евгений Мягков,98.9,,,,,,,,,,,200,220,-240,220,,220,100,D,Raw,Yes,Amateur Masters 40-49,42,1978-02-04
1,M,Nikita Romov,,110,,,,,,,,,,,275,285,-300,285,,285,110,D,Raw,Yes,Amateur Sub-Juniors 17-19,19,2000-12-25
1,M,Nikita Romov,,110,,,,,,,,,,,275,285,-300,285,,285,110,D,Raw,Yes,Amateur Open,19,2000-12-25
2,M,Vasiliy Khomyakov,Василий Хомяков,108,,,,,,,,,,,195,210,220,220,,220,110,D,Raw,Yes,Amateur Open,36,1984-02-22
1,M,Lev Samarin,Лев Самарин,138.6,,,,,,,,,,,280,-302.5,-302.5,280,,280,140,D,Raw,Yes,Amateur Open,36,1983-05-28
1,M,Vladislav Smirnov,Владислав Смирнов,178,,,,,,,,,,,320,350,360,360,,360,140+,D,Raw,Yes,Amateur Open,29,1990-11-08
1,F,Mariya Gavrilova,Мария Гаврилова,51.7,,,,,,,,,,,65,70,75,75,,75,52,D,Raw,No,Pro Open,29,1990-09-20
1,F,Irina Kuchmareva,Ирина Кучмарева,53.8,,,,,,,,,,,80,90,100,100,,100,56,D,Raw,No,Pro Sub-Juniors 17-19,17,2002-05-11
1,F,Yuliya Abramova,Юлия Абрамова,55,,,,,,,,,,,157.5,170,172.5,172.5,,172.5,56,D,Raw,No,Pro Open,37,1982-06-29
1,F,Elena Bondarchuk,Елена Бондарчук,59,,,,,,,,,,,147.5,157.5,-162.5,157.5,,157.5,60,D,Raw,No,Pro Open,39,1980-06-18
1,F,Aleksandra Seleznyova,Александра Селезнёва,67.1,,,,,,,,,,,85,95,105,105,,105,67.5,D,Raw,No,Pro Juniors 20-23,20,1999-05-26
1,F,Antonina Sboynova,Антонина Сбойнова,65.9,,,,,,,,,,,145,155,-161,155,,155,67.5,D,Raw,No,Pro Masters 40-49,45,1974-08-01
1,F,Margarita Onishchuk,Маргарита Онищук,72.5,,,,,,,,,,,85,90,95,95,,95,75,D,Raw,No,Pro Juniors 20-23,23,1996-06-14
1,F,Anastasiya Kuznetsova,Анастасия Кузнецова,69.4,,,,,,,,,,,125,135,145,145,,145,75,D,Raw,No,Pro Open,32,1988-02-08
1,F,Viktoriya Doga,Виктория Дога,81,,,,,,,,,,,-180,187.5,-195,187.5,,187.5,82.5,D,Raw,No,Pro Open,37,1982-09-04
1,M,Dmitriy Tsvetkov,Дмитрий Цветков,66.9,,,,,,,,,,,135,140,145,145,,145,67.5,D,Raw,No,Pro Open,35,1984-07-28
1,M,Saveliy Gayduk,Савелий Гайдук,70,,,,,,,,,,,100,110,115,115,,115,75,D,Raw,No,Pro Masters 60-69,64,1956-01-19
1,M,Egor Marfichev,Егор Марфичев,76.7,,,,,,,,,,,120,135,140,140,,140,82.5,D,Raw,No,Pro Juniors 20-23,21,1998-07-11
1,M,Andrey Kochemasov,Андрей Кочемасов,78.2,,,,,,,,,,,220,235,-250,235,,235,82.5,D,Raw,No,Pro Open,27,1992-12-12
1,M,Sergey Koryakin,Сергей Корякин,82.2,,,,,,,,,,,250,260,270,270,,270,82.5,D,Raw,No,Pro Masters 40-49,43,1976-07-01
1,M,Aleksandr Mikhaylov,Александр Михайлов,89.5,,,,,,,,,,,140,145,,145,,145,90,D,Raw,No,Pro Masters 60-69,61,1958-12-09
1,M,Zaur Matiev,Заур Матиев,99.9,,,,,,,,,,,305,-315,-315,305,,305,100,D,Raw,No,Pro Open,33,1986-11-26
DQ,M,Denis Kudinov,Денис Кудинов,95.9,,,,,,,,,,,-130,,,,,,100,D,Raw,No,Pro Open,24,1995-06-30
1,M,Andrey Dondukov,Андрей Дондуков,107.5,,,,,,,,,,,300,322.5,-331,322.5,,322.5,110,D,Raw,No,Pro Open,33,1986-11-05
1,M,Lev Shprints,Лев Шпринц,119.1,,,,,,,,,,,177.5,182.5,-187.5,182.5,,182.5,125,D,Raw,No,Pro Masters 60-69,67,1952-06-12
