Tested,Equipment,Place,Name,Division,BirthYear,Country,BodyweightKg,Squat1Kg,Squat2Kg,Squat3Kg,Best3SquatKg,Bench1Kg,Bench2Kg,Bench3Kg,Best3BenchKg,Deadlift1Kg,Deadlift2Kg,Deadlift3Kg,Best3DeadliftKg,TotalKg,WeightClassKg,Sex,CyrillicName,Event
Yes,Raw,1,Olga Dubok,Amateur Open,1988,Russia,48.00,55.0,62.5,70.0,70.0,45.0,-50.0,-50.0,45.0,60.0,-67.5,67.5,67.5,182.5,48,F,Ольга Дубок,SBD
Yes,Raw,1,Anna Fedorova,Amateur Juniors 20-23,1991,Russia,51.00,50.0,60.0,-67.5,60.0,37.5,42.5,-45.0,42.5,-65.0,-65.0,65.0,65.0,167.5,52,F,Анна Федорова,SBD
Yes,Raw,1,Anna Vishnyak,Amateur Open,1984,Russia,51.70,85.0,92.5,100.0,100.0,45.0,52.5,57.5,57.5,100.0,117.5,127.5,127.5,285.0,52,F,Анна Вишняк,SBD
Yes,Raw,2,Tamara Rybachenko,Amateur Open,1985,Russia,49.60,85.0,90.0,-95.0,90.0,47.5,50.0,52.5,52.5,100.0,110.0,-115.0,110.0,252.5,52,F,Тамара Рыбаченко,SBD
Yes,Raw,3,Anzhelika Volf,Amateur Open,1989,Russia,51.40,80.0,85.0,-87.5,85.0,50.0,52.5,-55.0,52.5,-90.0,90.0,92.5,92.5,230.0,52,F,Анжелика Вольф,SBD
Yes,Raw,4,Marina Yarovaya,Amateur Open,1989,Russia,51.50,70.0,75.0,-80.0,75.0,37.5,40.0,-42.5,40.0,90.0,95.0,102.5,102.5,217.5,52,F,Марина Яровая,SBD
Yes,Raw,5,Maryana Shatokhina,Amateur Open,1987,Russia,51.90,60.0,70.0,-77.5,70.0,40.0,45.0,47.5,47.5,82.5,92.5,100.0,100.0,217.5,52,F,Марьяна Шатохина,SBD
Yes,Raw,6,Natalya Klimenko,Amateur Open,1985,Russia,49.90,50.0,55.0,60.0,60.0,30.0,35.0,37.5,37.5,60.0,70.0,80.0,80.0,177.5,52,F,Наталья Клименко,SBD
Yes,Raw,1,Natalya Yarotskaya,Amateur Masters 50-54,1963,Russia,52.00,50.0,-55.0,60.0,60.0,30.0,35.0,37.5,37.5,50.0,-60.0,-65.0,50.0,147.5,52,F,Наталья Яроцкая,SBD
Yes,Raw,1,Anastasiya Saydentsal,Amateur Teen 13-15,1998,Russia,55.00,70.0,77.5,-85.0,77.5,50.0,55.0,57.5,57.5,70.0,77.5,80.0,80.0,215.0,56,F,Анастасия Сайденцаль,SBD
Yes,Raw,1,Anna Ivannikova,Amateur Juniors 20-23,1991,Russia,56.00,75.0,-82.5,82.5,82.5,45.0,47.5,-50.0,47.5,80.0,90.0,97.5,97.5,227.5,56,F,Анна Иванникова,SBD
Yes,Raw,2,Liliya Dragunova,Amateur Juniors 20-23,1994,Russia,53.50,55.0,60.0,62.5,62.5,30.0,35.0,-37.5,35.0,65.0,72.5,77.5,77.5,175.0,56,F,Лилия Драгунова,SBD
Yes,Raw,1,Oksana Maslennikova,Amateur Open,1981,Russia,55.00,-85.0,90.0,-95.0,90.0,55.0,60.0,-62.5,60.0,90.0,100.0,110.0,110.0,260.0,56,F,Оксана Масленникова,SBD
Yes,Raw,2,Anastasiya Saydentsal,Amateur Open,1998,Russia,55.00,70.0,77.5,-85.0,77.5,50.0,55.0,57.5,57.5,70.0,77.5,80.0,80.0,215.0,56,F,Анастасия Сайденцаль,SBD
Yes,Raw,3,Kseniya Merkulova,Amateur Open,1988,Russia,55.60,70.0,-77.5,-77.5,70.0,37.5,42.5,45.0,45.0,85.0,92.5,100.0,100.0,215.0,56,F,Ксения Меркулова,SBD
Yes,Raw,1,Mariya Eliseeva,Amateur Teen 18-19,1994,Russia,58.40,-70.0,80.0,85.0,85.0,-35.0,40.0,-42.5,40.0,80.0,90.0,95.0,95.0,220.0,60,F,Мария Елисеева,SBD
Yes,Raw,1,Irina Zentsova,Amateur Juniors 20-23,1993,Russia,58.90,95.0,100.0,-105.0,100.0,50.0,52.5,-55.0,52.5,110.0,120.0,130.0,130.0,282.5,60,F,Ирина Зенцова,SBD
Yes,Raw,2,Alina Kufeld,Amateur Juniors 20-23,1991,Russia,59.80,85.0,-95.0,95.0,95.0,52.5,-55.0,55.0,55.0,95.0,-100.0,100.0,100.0,250.0,60,F,Алина Куфельд,SBD
Yes,Raw,1,Irina Zentsova,Amateur Open,1993,Russia,58.90,95.0,100.0,-105.0,100.0,50.0,52.5,-55.0,52.5,110.0,120.0,130.0,130.0,282.5,60,F,Ирина Зенцова,SBD
Yes,Raw,2,Evgeniya Fedchenko,Amateur Open,1988,Russia,60.00,70.0,75.0,82.5,82.5,45.0,47.5,-50.0,47.5,80.0,90.0,95.0,95.0,225.0,60,F,Евгения Федченко,SBD
Yes,Raw,DQ,Liliya Medvedeva,Amateur Open,1989,Russia,57.40,85.0,90.0,-95.0,90.0,-42.5,-42.5,-42.5,,,,,,,60,F,Лилия Медведева,SBD
Yes,Raw,1,Anastasiya Ilinykh,Amateur Teen 16-17,1996,Russia,67.50,75.0,85.0,90.0,90.0,50.0,55.0,57.5,57.5,80.0,90.0,100.0,100.0,247.5,67.5,F,Анастасия Ильиных,SBD
Yes,Raw,1,Kristina Kurbanova,Amateur Teen 18-19,1995,Russia,67.50,70.0,80.0,-90.0,80.0,35.0,40.0,-42.5,40.0,80.0,90.0,-100.0,90.0,210.0,67.5,F,Кристина Курбанова,SBD
Yes,Raw,1,Larisa Krikun,Amateur Open,1974,Russia,64.90,70.0,75.0,80.0,80.0,52.5,57.5,-60.0,57.5,100.0,110.0,120.0,120.0,257.5,67.5,F,Лариса Крикун,SBD
Yes,Raw,2,Aleksandra Pak,Amateur Open,1987,Russia,64.40,50.0,55.0,-65.0,55.0,40.0,-45.0,-45.0,40.0,100.0,-105.0,105.0,105.0,200.0,67.5,F,Александра Пак,SBD
Yes,Raw,1,Olga Pyzhyanova,Amateur Open,1989,Russia,75.00,90.0,100.0,-110.0,100.0,62.5,67.5,-70.0,67.5,95.0,-105.0,105.0,105.0,272.5,75,F,Ольга Пыжьянова,SBD
Yes,Raw,2,Evgeniya Kazantseva,Amateur Open,1988,Russia,72.60,70.0,-80.0,85.0,85.0,45.0,-50.0,-50.0,45.0,87.5,100.0,110.0,110.0,240.0,75,F,Евгения Казанцева,SBD
Yes,Raw,1,Oksana Andreeva,Amateur Open,1976,Russia,82.00,100.0,110.0,120.0,120.0,70.0,-75.0,-75.0,70.0,110.0,130.0,-150.0,130.0,320.0,82.5,F,Оксана Андреева,SBD
Yes,Raw,1,Olesya Lunegova,Amateur Open,1989,Russia,85.70,65.0,70.0,-80.0,70.0,45.0,50.0,-52.5,50.0,80.0,90.0,-95.0,90.0,210.0,90,F,Олеся Лунегова,SBD
Yes,Raw,1,Daniil Goltyapov,Amateur Teen 16-17,1996,Russia,61.00,105.0,120.0,135.0,135.0,85.0,-95.0,-95.0,85.0,110.0,135.0,155.0,155.0,375.0,67.5,M,Даниил Гольтяпов,SBD
Yes,Raw,2,Ivan Osipov,Amateur Teen 16-17,1996,Russia,67.00,110.0,115.0,120.0,120.0,90.0,95.0,-100.0,95.0,130.0,140.0,-147.5,140.0,355.0,67.5,M,Иван Осипов,SBD
Yes,Raw,3,Vladislav Demchenko,Amateur Teen 16-17,1996,Russia,67.40,100.0,-105.0,-105.0,100.0,-80.0,85.0,87.5,87.5,140.0,145.0,-155.0,145.0,332.5,67.5,M,Владислав Демченко,SBD
Yes,Raw,1,Andrey Palchikov,Amateur Teen 18-19,1995,Russia,66.60,130.0,140.0,150.0,150.0,105.0,115.0,120.0,120.0,170.0,180.0,190.0,190.0,460.0,67.5,M,Андрей Пальчиков,SBD
Yes,Raw,2,Roman Rogozhkin,Amateur Teen 16-17,1997,Russia,66.00,-125.0,125.0,140.0,140.0,80.0,90.0,-100.0,90.0,120.0,140.0,-160.0,140.0,370.0,67.5,M,Роман Рогожкин,SBD
Yes,Raw,1,Aleksandr Ivanov,Amateur Open,1983,Russia,67.30,150.0,-160.0,160.0,160.0,100.0,105.0,-110.0,105.0,190.0,200.0,-205.0,200.0,465.0,67.5,M,Александр Иванов,SBD
Yes,Raw,2,Yaroslav Tindetnikov,Amateur Open,1986,Russia,67.50,120.0,130.0,-135.0,130.0,90.0,-95.0,-100.0,90.0,150.0,170.0,180.0,180.0,400.0,67.5,M,Ярослав Тиндетников,SBD
Yes,Raw,3,Mikhail Sinitsyn,Amateur Open,1987,Russia,67.50,105.0,115.0,120.0,120.0,95.0,100.0,,100.0,140.0,150.0,160.0,160.0,380.0,67.5,M,Михаил Синицын,SBD
Yes,Raw,1,Artem Somov,Amateur Teen 16-17,1996,Russia,69.90,140.0,147.5,155.0,155.0,100.0,-105.0,105.0,105.0,-150.0,-155.0,160.0,160.0,420.0,75,M,Артем Сомов,SBD
Yes,Raw,1,Artur Aloyan,Amateur Teen 18-19,1995,Kazakhstan,75.00,120.0,130.0,140.0,140.0,100.0,110.0,-120.0,110.0,150.0,165.0,-180.0,165.0,415.0,75,M,,SBD
Yes,Raw,1,Dmitriy Kolikov,Amateur Juniors 20-23,1993,Russia,74.60,160.0,170.0,175.0,175.0,110.0,117.5,122.5,122.5,185.0,200.0,-207.5,200.0,497.5,75,M,Дмитрий Коликов,SBD
Yes,Raw,2,Denis Chernyshov,Amateur Juniors 20-23,1990,Russia,74.70,150.0,160.0,170.0,170.0,115.0,122.5,-125.0,122.5,170.0,-180.0,-180.0,170.0,462.5,75,M,Денис Чернышов,SBD
Yes,Raw,1,Dmitriy Danilin,Amateur Open,1989,Russia,69.00,140.0,150.0,152.5,152.5,85.0,97.5,100.0,100.0,150.0,157.5,165.0,165.0,417.5,75,M,Дмитрий Данилин,SBD
Yes,Raw,2,Maksim Petrov,Amateur Open,1981,Russia,75.00,100.0,-115.0,125.0,125.0,100.0,-105.0,105.0,105.0,-120.0,130.0,150.0,150.0,380.0,75,M,Максим Петров,SBD
Yes,Raw,3,Aleksey Yarotskiy,Amateur Open,1987,Russia,69.00,100.0,-110.0,115.0,115.0,65.0,70.0,77.5,77.5,120.0,130.0,140.0,140.0,332.5,75,M,Алексей Яроцкий,SBD
Yes,Raw,1,Gennadiy Chuldenko,Amateur Masters 65-69,1948,Russia,74.80,160.0,,,160.0,45.0,50.0,-55.0,50.0,190.0,200.0,210.0,210.0,420.0,75,M,Геннадий Чулденко,SBD
Yes,Raw,1,Aleksey Nikitenko,Amateur Teen 16-17,1996,Russia,81.30,185.0,195.0,205.0,205.0,-120.0,120.0,127.5,127.5,210.0,-225.0,-225.0,210.0,542.5,82.5,M,Алексей Никитенко,SBD
Yes,Raw,2,Ivan Tanskikh,Amateur Teen 16-17,1996,Russia,78.80,120.0,130.0,-135.0,130.0,85.0,90.0,95.0,95.0,160.0,170.0,175.0,175.0,400.0,82.5,M,Иван Танских,SBD
Yes,Raw,1,Akmal Matkarimov,Amateur Open,1987,Kazakhstan,82.50,180.0,190.0,-200.0,190.0,120.0,127.5,-132.5,127.5,215.0,222.5,230.0,230.0,547.5,82.5,M,,SBD
Yes,Raw,2,Aleksey Vinyukov,Amateur Open,1973,Russia,80.00,170.0,180.0,190.0,190.0,125.0,130.0,-135.0,130.0,-210.0,215.0,225.0,225.0,545.0,82.5,M,Алексей Винюков,SBD
Yes,Raw,1,Aleksey Vinyukov,Amateur Masters 40-44,1973,Russia,80.00,170.0,180.0,190.0,190.0,125.0,130.0,-135.0,130.0,-210.0,215.0,225.0,225.0,545.0,82.5,M,Алексей Винюков,SBD
Yes,Raw,1,Denis Dementyev,Amateur Teen 16-17,1996,Russia,87.40,140.0,150.0,165.0,165.0,95.0,100.0,-105.0,100.0,165.0,180.0,190.0,190.0,455.0,90,M,Денис Дементьев,SBD
Yes,Raw,1,Vladislav Tsyganok,Amateur Juniors 20-23,1993,Russia,88.90,190.0,-200.0,-200.0,190.0,120.0,-127.5,-127.5,120.0,195.0,202.5,205.0,205.0,515.0,90,M,Владислав Цыганок,SBD
Yes,Raw,2,Dmitriy Bashkirov,Amateur Juniors 20-23,1991,Russia,85.80,150.0,160.0,-165.0,160.0,-110.0,110.0,-112.5,110.0,190.0,200.0,207.5,207.5,477.5,90,M,Дмитрий Башкиров,SBD
Yes,Raw,3,Aleksey Ermachenkov,Amateur Juniors 20-23,1993,Russia,85.20,140.0,-150.0,155.0,155.0,-120.0,125.0,-130.0,125.0,150.0,160.0,-165.0,160.0,440.0,90,M,Алексей Ермаченков,SBD
Yes,Raw,1,Igor Koscheev,Amateur Open,1979,Russia,88.20,200.0,210.0,-212.5,210.0,120.0,132.5,135.0,135.0,210.0,230.0,-252.5,230.0,575.0,90,M,Игорь Кощеев,SBD
Yes,Raw,2,Grigoriy Kostenko,Amateur Open,1986,Russia,90.00,170.0,182.5,200.0,200.0,120.0,130.0,140.0,140.0,200.0,215.0,230.0,230.0,570.0,90,M,Григорий Костенко,SBD
Yes,Raw,3,Roman Sharabarin,Amateur Open,1986,Russia,89.10,170.0,190.0,202.5,202.5,95.0,110.0,-120.0,110.0,175.0,200.0,215.0,215.0,527.5,90,M,Роман Шарабарин,SBD
Yes,Raw,4,Nikita Korablev,Amateur Open,1983,Russia,89.90,-160.0,170.0,180.0,180.0,125.0,135.0,140.0,140.0,170.0,200.0,-217.5,200.0,520.0,90,M,Никита Кораблев,SBD
Yes,Raw,5,Rinat Mamyshev,Amateur Open,1988,Russia,89.20,130.0,140.0,150.0,150.0,100.0,110.0,-117.5,110.0,160.0,175.0,180.0,180.0,440.0,90,M,Ринат Мамышев,SBD
Yes,Raw,6,Konstantin Anikin,Amateur Open,1987,Russia,88.20,125.0,130.0,-140.0,130.0,105.0,110.0,115.0,115.0,-140.0,-150.0,150.0,150.0,395.0,90,M,Константин Аникин,SBD
Yes,Raw,7,Maksim Nefedov,Amateur Open,1980,Russia,88.70,-100.0,100.0,-110.0,100.0,85.0,-90.0,-90.0,85.0,135.0,150.0,172.5,172.5,357.5,90,M,Максим Нефедов,SBD
Yes,Raw,1,Aleksey Kovalenko,Amateur Teen 18-19,1996,Russia,94.50,160.0,165.0,-170.0,165.0,120.0,125.0,-130.0,125.0,190.0,200.0,207.5,207.5,497.5,100,M,Алексей Коваленко,SBD
Yes,Raw,1,Kirill Ivanov,Amateur Juniors 20-23,1992,Russia,98.10,150.0,160.0,-170.0,160.0,110.0,120.0,-125.0,120.0,180.0,200.0,-220.0,200.0,480.0,100,M,Кирилл Иванов,SBD
Yes,Raw,1,Maksim Shakiev,Amateur Open,1983,Russia,100.00,210.0,220.0,235.0,235.0,172.5,180.0,185.0,185.0,220.0,235.0,-245.0,235.0,655.0,100,M,Максим Шакиев,SBD
Yes,Raw,2,Konstantin Panchenko,Amateur Open,1980,Russia,100.00,180.0,200.0,210.0,210.0,140.0,147.5,-152.5,147.5,200.0,220.0,240.0,240.0,597.5,100,M,Константин Панченко,SBD
Yes,Raw,3,Andrey Soshenko,Amateur Open,1988,Russia,100.00,180.0,200.0,-205.0,200.0,150.0,-155.0,,150.0,230.0,-260.0,-280.0,230.0,580.0,100,M,Андрей Сошенко,SBD
Yes,Raw,4,Artem Furdyga,Amateur Open,1989,Kazakhstan,97.20,-170.0,-175.0,180.0,180.0,120.0,-130.0,,120.0,200.0,,,200.0,500.0,100,M,,SBD
Yes,Raw,1,Oleg Smolin,Amateur Masters 50-54,1963,Russia,99.60,180.0,200.0,-205.0,200.0,140.0,150.0,-152.5,150.0,190.0,217.5,,217.5,567.5,100,M,Олег Смолин,SBD
Yes,Raw,1,Ivan Shekhovtsev,Amateur Teen 18-19,1995,Russia,103.20,125.0,130.0,135.0,135.0,87.5,92.5,-95.0,92.5,150.0,155.0,-160.0,155.0,382.5,110,M,Иван Шеховцев,SBD
Yes,Raw,1,Vladimir Kovalenko,Amateur Open,1987,Russia,104.80,160.0,170.0,-180.0,170.0,-140.0,140.0,150.0,150.0,130.0,150.0,170.0,170.0,490.0,110,M,Владимир Коваленко,SBD
Yes,Raw,1,Sergey Karelin,Amateur Masters 50-54,1959,Russia,107.00,-150.0,160.0,180.0,180.0,100.0,110.0,120.0,120.0,180.0,200.0,225.0,225.0,525.0,110,M,Сергей Карелин,SBD
Yes,Raw,1,Mikhail Kagala,Amateur Masters 40-44,1973,Russia,135.30,-210.0,210.0,220.0,220.0,140.0,150.0,-155.0,150.0,210.0,230.0,-250.0,230.0,600.0,140,M,Михаил Кагала,SBD
Yes,Single-ply,1,Sergey Danilin,Amateur Open,1988,Russia,56.00,160.0,180.0,190.0,190.0,90.0,100.0,110.0,110.0,140.0,-180.0,-180.0,140.0,440.0,56,M,Сергей Данилин,SBD
Yes,Single-ply,1,Maxim Kandakov,Amateur Teen 18-19,1994,Russia,75.00,200.0,210.0,230.0,230.0,110.0,120.0,125.0,125.0,170.0,180.0,195.0,195.0,550.0,75,M,Максим Кандаков,SBD
Yes,Single-ply,1,Pavel Kashkalda,Amateur Juniors 20-23,1993,Russia,74.30,-220.0,220.0,-240.0,220.0,110.0,120.0,127.5,127.5,192.5,-225.0,,192.5,540.0,75,M,Павел Кашкалда,SBD
Yes,Single-ply,1,Igor Leonidov,Amateur Juniors 20-23,1993,Russia,82.30,-190.0,190.0,210.0,210.0,120.0,127.5,135.0,135.0,170.0,190.0,205.0,205.0,550.0,82.5,M,Игорь Леонидов,SBD
Yes,Single-ply,2,Valeriy Sadreev,Amateur Juniors 20-23,1990,Russia,80.00,200.0,220.0,-240.0,220.0,-110.0,110.0,-120.0,110.0,160.0,180.0,190.0,190.0,520.0,82.5,M,Валерий Садреев,SBD
Yes,Single-ply,1,Andrey Tomasik,Amateur Open,1987,Russia,80.80,260.0,-270.0,,260.0,160.0,170.0,-175.0,170.0,230.0,240.0,,240.0,670.0,82.5,M,Андрей Томасик,SBD
Yes,Single-ply,2,Konstantin Kramarenko,Amateur Open,1983,Russia,82.50,200.0,-210.0,-210.0,200.0,100.0,-145.0,-145.0,100.0,190.0,200.0,215.0,215.0,515.0,82.5,M,Константин Крамаренко,SBD
Yes,Single-ply,1,Sergey Glushkov,Amateur Masters 40-44,1969,Russia,81.50,-230.0,230.0,240.0,240.0,145.0,150.0,-152.5,150.0,210.0,-220.0,,210.0,600.0,82.5,M,Сергей Глушков,SBD
Yes,Single-ply,1,Roman Raspopin,Amateur Teen 16-17,1996,Russia,90.00,270.0,290.0,300.0,300.0,150.0,160.0,165.0,165.0,240.0,260.0,-290.0,260.0,725.0,90,M,Роман Распопин,SBD
Yes,Single-ply,1,Roman Skvortsov,Amateur Juniors 20-23,1992,Russia,89.10,-210.0,225.0,240.0,240.0,150.0,-160.0,165.0,165.0,200.0,220.0,-237.5,220.0,625.0,90,M,Роман Скворцов,SBD
Yes,Single-ply,1,Sergey Naglovskiy,Amateur Open,1986,Russia,86.30,200.0,-215.0,215.0,215.0,135.0,145.0,150.0,150.0,170.0,185.0,190.0,190.0,555.0,90,M,Сергей Нагловский,SBD
Yes,Single-ply,1,Ivan Dolchanin,Amateur Teen 18-19,1995,Russia,92.80,225.0,235.0,-250.0,235.0,140.0,147.5,-155.0,147.5,225.0,235.0,-245.0,235.0,617.5,100,M,Иван Дольчанин,SBD
Yes,Single-ply,1,Daniil Fomenko,Amateur Juniors 20-23,1992,Russia,100.00,290.0,310.0,-320.0,310.0,190.0,200.0,,200.0,250.0,270.0,-290.0,270.0,780.0,100,M,Даниил Фоменко,SBD
Yes,Single-ply,1,Daniil Fomenko,Amateur Open,1992,Russia,100.00,290.0,310.0,-320.0,310.0,190.0,200.0,,200.0,250.0,270.0,-290.0,270.0,780.0,100,M,Даниил Фоменко,SBD
No,Raw,1,Evgeniya Zheravina,Pro Juniors 20-23,1993,Russia,55.90,-95.0,-95.0,95.0,95.0,47.5,52.5,-57.5,52.5,95.0,105.0,115.0,115.0,262.5,56,F,Евгения Жеравина,SBD
No,Raw,1,Mariya Ryzhova,Pro Open,1988,Russia,52.00,90.0,100.0,105.0,105.0,45.0,50.0,52.5,52.5,100.0,110.0,-125.0,110.0,267.5,52,F,Мария Рыжова,SBD
No,Raw,1,Evgeniya Zheravina,Pro Open,1993,Russia,55.90,-95.0,-95.0,95.0,95.0,47.5,52.5,-57.5,52.5,95.0,105.0,115.0,115.0,262.5,56,F,Евгения Жеравина,SBD
No,Raw,1,Nadezhda Ponomareva,Pro Open,1987,Russia,59.00,-80.0,80.0,90.0,90.0,50.0,55.0,-57.5,55.0,105.0,115.0,-120.0,115.0,260.0,60,F,Надежда Пономарева,SBD
No,Raw,1,Aleksandr Bender,Pro Teen 13-15,1998,Russia,63.90,100.0,105.0,110.0,110.0,65.0,67.5,70.0,70.0,100.0,107.5,-112.5,107.5,287.5,67.5,M,Александр Бендер,SBD
No,Raw,1,Vyacheslav Stukalin,Pro Teen 18-19,1995,Russia,74.80,115.0,120.0,122.5,122.5,85.0,-87.5,87.5,87.5,140.0,150.0,155.0,155.0,365.0,75,M,Вячеслав Стукалин,SBD
No,Raw,1,Mikhail Bykov,Pro Open,1989,Russia,72.70,-125.0,-125.0,125.0,125.0,80.0,90.0,-100.0,90.0,170.0,185.0,-190.0,185.0,400.0,75,M,Михаил Быков,SBD
No,Raw,1,Aleksandr Plutakhin,Pro Teen 16-17,1996,Russia,80.40,130.0,135.0,140.0,140.0,110.0,115.0,-117.5,115.0,160.0,170.0,-175.0,170.0,425.0,82.5,M,Александр Плутахин,SBD
No,Raw,DQ,Mikhail Prikhodko,Pro Teen 16-17,1997,Russia,80.70,-100.0,,,,,,,,,,,,,82.5,M,Михаил Приходько,SBD
No,Raw,1,Sergey Marchenko,Pro Juniors 20-23,1994,Russia,80.10,170.0,185.0,195.0,195.0,115.0,122.5,-127.5,122.5,210.0,225.0,235.0,235.0,552.5,82.5,M,Сергей Марченко,SBD
No,Raw,1,Yaroslav Bondar,Pro Juniors 20-23,1990,Russia,86.10,-190.0,190.0,200.0,200.0,120.0,-125.0,-130.0,120.0,220.0,230.0,240.0,240.0,560.0,90,M,Ярослав Бондарь,SBD
No,Raw,1,Aleksandr Zinets,Pro Juniors 20-23,1992,Russia,98.10,220.0,-230.0,,220.0,-150.0,150.0,-155.0,150.0,235.0,245.0,-267.5,245.0,615.0,100,M,Александр Зинец,SBD
No,Raw,1,Anatoliy Turtsin,Pro Open,1982,Russia,97.10,220.0,235.0,245.0,245.0,155.0,165.0,170.0,170.0,250.0,-270.0,270.0,270.0,685.0,100,M,Анатолий Турцин,SBD
No,Raw,1,Aleksandr Medvedev,Pro Masters 45-49,1967,Russia,97.90,210.0,220.0,235.0,235.0,130.0,140.0,145.0,145.0,230.0,250.0,260.0,260.0,640.0,100,M,Александр Медведев,SBD
No,Raw,2,Oleg Lagunov,Pro Masters 50-54,1960,Russia,97.70,180.0,200.0,215.0,215.0,120.0,130.0,140.0,140.0,220.0,235.0,250.0,250.0,605.0,100,M,Олег Лагунов,SBD
No,Raw,1,Stanislav Rekichinskiy,Pro Juniors 20-23,1990,Russia,106.70,-160.0,160.0,180.0,180.0,120.0,130.0,-140.0,130.0,-200.0,200.0,222.5,222.5,532.5,110,M,Станислав Рекичинский,SBD
No,Raw,1,Oleg Zherdev,Pro Masters 40-44,1970,Russia,109.00,200.0,210.0,220.0,220.0,160.0,170.0,180.0,180.0,200.0,220.0,235.0,235.0,635.0,110,M,Олег Жердев,SBD
No,Multi-ply,1,Mark Spitsin,Pro Open,1989,Russia,75.00,200.0,-220.0,230.0,230.0,-160.0,160.0,170.0,170.0,190.0,-210.0,-210.0,190.0,590.0,75,M,Марк Спицин,SBD
No,Multi-ply,1,Stepan Pakhomov,Pro Juniors 20-23,1991,Russia,81.50,270.0,290.0,300.0,300.0,150.0,155.0,-160.0,155.0,220.0,250.0,270.0,270.0,725.0,82.5,M,Степан Пахомов,SBD
No,Multi-ply,1,Dmitriy Yakovlev,Pro Juniors 20-23,1992,Russia,88.40,320.0,350.0,,350.0,140.0,,,140.0,260.0,280.0,-300.0,280.0,770.0,90,M,Дмитрий Яковлев,SBD
No,Multi-ply,1,Dmitriy Yakovlev,Pro Open,1992,Russia,88.40,320.0,350.0,,350.0,140.0,,,140.0,260.0,280.0,-300.0,280.0,770.0,90,M,Дмитрий Яковлев,SBD
No,Multi-ply,2,Dima Yuskov,Pro Open,1989,Russia,89.10,280.0,300.0,-310.0,300.0,160.0,175.0,-185.0,175.0,220.0,250.0,265.0,265.0,740.0,90,M,Дима Юськов,SBD
No,Multi-ply,1,Evgeniy Utkin,Pro Open,1988,Russia,99.80,260.0,280.0,-290.0,280.0,-140.0,140.0,160.0,160.0,220.0,250.0,-295.0,250.0,690.0,100,M,Евгений Уткин,SBD
No,Multi-ply,DQ,Pavel Efremov,Pro Open,1988,Russia,100.00,-300.0,,,,,,,,,,,,,100,M,Павел Ефремов,SBD
No,Multi-ply,1,Yuriy Dmitrenko,Pro Open,1983,Russia,121.80,320.0,340.0,360.0,360.0,170.0,185.0,200.0,200.0,240.0,-277.5,277.5,277.5,837.5,125,M,Юрий Дмитренко,SBD
Yes,Raw,1,Viktoriya Sharovatova,Amateur Teen 13-15,2000,Russia,41.70,,,,,35.0,40.0,-42.5,40.0,,,,,40.0,44,F,Виктория Шароватова,B
Yes,Raw,1,Olga Dubok,Amateur Open,1988,Russia,48.00,,,,,45.0,-47.5,47.5,47.5,,,,,47.5,48,F,Ольга Дубок,B
Yes,Raw,1,Aleksandra Bekk,Amateur Teen 13-15,1998,Russia,52.00,,,,,35.0,37.5,-40.0,37.5,,,,,37.5,52,F,Александра Бекк,B
Yes,Raw,1,Alina Vishnyakova,Amateur Teen 16-17,1998,Russia,51.20,,,,,40.0,-45.0,-45.0,40.0,,,,,40.0,52,F,Алина Вишнякова,B
Yes,Raw,1,Veronika Brodyagina,Amateur Teen 18-19,1994,Russia,51.70,,,,,45.0,47.5,-50.0,47.5,,,,,47.5,52,F,Вероника Бродягина,B
Yes,Raw,1,Anastasiya Pestova,Amateur Juniors 20-23,1992,Russia,52.00,,,,,32.5,37.5,-40.0,37.5,,,,,37.5,52,F,Анастасия Пестова,B
Yes,Raw,1,Anastasiya Saydentsal,Amateur Teen 13-15,1998,Russia,55.00,,,,,50.0,55.0,-57.5,55.0,,,,,55.0,56,F,Анастасия Сайденцаль,B
Yes,Raw,1,Anastasiya Saydentsal,Amateur Teen 13-15,1998,Russia,55.00,,,,,50.0,55.0,-57.5,55.0,,,,,55.0,56,F,Анастасия Сайденцаль,B
Yes,Raw,1,Elizaveta Shinkareva,Amateur Teen 13-15,1998,Russia,59.10,,,,,62.5,-67.5,-67.5,62.5,,,,,62.5,60,F,Елизавета Шинкарева,B
Yes,Raw,1,Anastasiya Borodina,Amateur Juniors 20-23,1990,Russia,60.00,,,,,45.0,50.0,-52.5,50.0,,,,,50.0,60,F,Анастасия Бородина,B
Yes,Raw,1,Elizaveta Shinkareva,Amateur Open,1998,Russia,59.10,,,,,62.5,-67.5,-67.5,62.5,,,,,62.5,60,F,Елизавета Шинкарева,B
Yes,Raw,1,Alina Sik,Amateur Teen 16-17,1997,Russia,62.60,,,,,32.5,35.0,-37.5,35.0,,,,,35.0,67.5,F,Алина Сик,B
Yes,Raw,1,Oksana Chudnaya,Amateur Open,1977,Russia,65.50,,,,,60.0,65.0,-67.5,65.0,,,,,65.0,67.5,F,Оксана Чудная,B
Yes,Raw,1,Irina Nikulina,Amateur Open,1988,Russia,80.10,,,,,100.0,110.0,-115.0,110.0,,,,,110.0,82.5,F,Ирина Никулина,B
Yes,Raw,1,Sergey Mangazeev,Amateur Teen 13-15,1999,Russia,49.50,,,,,50.0,52.5,55.0,55.0,,,,,55.0,52,M,Сергей Мангазеев,B
Yes,Raw,1,Dmitriy Boldin,Amateur Teen 13-15,1998,Russia,56.00,,,,,75.0,-80.0,80.0,80.0,,,,,80.0,56,M,Дмитрий Болдин,B
Yes,Raw,1,Nikita Shibkov,Amateur Teen 18-19,1995,Russia,60.00,,,,,80.0,85.0,-90.0,85.0,,,,,85.0,60,M,Никита Шибков,B
Yes,Raw,1,Ilya Bautin,Amateur Teen 13-15,1998,Russia,67.50,,,,,65.0,72.5,80.0,80.0,,,,,80.0,67.5,M,Илья Баутин,B
Yes,Raw,1,Artem Bulygin,Amateur Teen 16-17,1997,Russia,65.90,,,,,95.0,100.0,-107.5,100.0,,,,,100.0,67.5,M,Артем Булыгин,B
Yes,Raw,2,Erik Emiryan,Amateur Teen 16-17,1997,Russia,66.00,,,,,82.5,-90.0,90.0,90.0,,,,,90.0,67.5,M,Эрик Эмирян,B
Yes,Raw,3,Egor Seryukov,Amateur Teen 16-17,1996,Russia,66.60,,,,,90.0,-95.0,-95.0,90.0,,,,,90.0,67.5,M,Егор Серюков,B
Yes,Raw,1,Sergey Shpilev,Amateur Teen 18-19,1995,Russia,66.50,,,,,-100.0,100.0,-107.5,100.0,,,,,100.0,67.5,M,Сергей Шпилев,B
Yes,Raw,2,Aleksandr Anufriev,Amateur Teen 18-19,1995,Russia,67.50,,,,,-95.0,-95.0,95.0,95.0,,,,,95.0,67.5,M,Александр Ануфриев,B
Yes,Raw,1,Vyacheslav Ekimukov,Amateur Open,1985,Russia,67.40,,,,,110.0,-115.0,-115.0,110.0,,,,,110.0,67.5,M,Вячеслав Екимуков,B
Yes,Raw,1,Vyacheslav Kravtsov,Amateur Masters 45-49,1967,Russia,62.00,,,,,105.0,-107.5,-107.5,105.0,,,,,105.0,67.5,M,Вячеслав Кравцов,B
Yes,Raw,1,Daniil Semenov,Amateur Teen 16-17,1996,Russia,72.10,,,,,130.0,137.5,-140.0,137.5,,,,,137.5,75,M,Даниил Семенов,B
Yes,Raw,2,Igor Petlevanov,Amateur Teen 16-17,1996,Russia,72.20,,,,,-110.0,117.5,-122.5,117.5,,,,,117.5,75,M,Игорь Петлеванов,B
Yes,Raw,3,Sergey Mitrofanov,Amateur Teen 16-17,1997,Russia,71.70,,,,,-100.0,100.0,-107.5,100.0,,,,,100.0,75,M,Сергей Митрофанов,B
Yes,Raw,1,Andrey Lityaev,Amateur Teen 18-19,1995,Russia,72.30,,,,,110.0,115.0,-117.5,115.0,,,,,115.0,75,M,Андрей Литяев,B
Yes,Raw,1,Ivan Tugay,Amateur Juniors 20-23,1990,Russia,73.70,,,,,117.5,-122.5,-122.5,117.5,,,,,117.5,75,M,Иван Тугай,B
Yes,Raw,1,Maksim Koval,Amateur Open,1980,Russia,73.20,,,,,-120.0,135.0,140.0,140.0,,,,,140.0,75,M,Максим Коваль,B
Yes,Raw,2,Nikita Kerkesner,Amateur Open,1988,Russia,74.70,,,,,-120.0,125.0,135.0,135.0,,,,,135.0,75,M,Никита Керкеснер,B
Yes,Raw,3,Anatoliy Novoselov,Amateur Open,1988,Russia,72.00,,,,,110.0,-117.5,-117.5,110.0,,,,,110.0,75,M,Анатолий Новоселов,B
Yes,Raw,4,Aleksandr Milovanov,Amateur Open,1981,Russia,70.40,,,,,-70.0,80.0,-95.0,80.0,,,,,80.0,75,M,Александр Милованов,B
Yes,Raw,DQ,Matvey Plyashnik,Amateur Open,1985,Russia,74.00,,,,,-127.5,,,,,,,,,75,M,Матвей Пляшник,B
Yes,Raw,1,Ilya Penkin,Amateur Teen 16-17,1996,Russia,82.10,,,,,90.0,100.0,105.0,105.0,,,,,105.0,82.5,M,Илья Пенкин,B
Yes,Raw,1,Andrey Gnativ,Amateur Juniors 20-23,1994,Russia,80.10,,,,,140.0,-145.0,145.0,145.0,,,,,145.0,82.5,M,Андрей Гнатив,B
Yes,Raw,2,Aleksandr Korotkevich,Amateur Juniors 20-23,1990,Russia,81.80,,,,,110.0,115.0,117.5,117.5,,,,,117.5,82.5,M,Александр Короткевич,B
Yes,Raw,1,Stepan Dolushkin,Amateur Open,1987,Russia,82.50,,,,,140.0,145.0,150.0,150.0,,,,,150.0,82.5,M,Степан Долушкин,B
Yes,Raw,2,Mikhail Nikiforov,Amateur Open,1979,Russia,79.80,,,,,135.0,145.0,-147.5,145.0,,,,,145.0,82.5,M,Михаил Никифоров,B
Yes,Raw,3,Aleksey Khoroshikh,Amateur Open,1983,Russia,81.00,,,,,112.5,-117.5,117.5,117.5,,,,,117.5,82.5,M,Алексей Хороших,B
Yes,Raw,4,Anton Alekseev,Amateur Open,1988,Russia,82.20,,,,,100.0,105.0,-107.5,105.0,,,,,105.0,82.5,M,Антон Алексеев,B
Yes,Raw,1,Nikita Demidenko,Amateur Juniors 20-23,1991,Russia,90.00,,,,,155.0,-157.5,-157.5,155.0,,,,,155.0,90,M,Никита Демиденко,B
Yes,Raw,2,Dalerchon Achilov,Amateur Juniors 20-23,1993,Russia,88.80,,,,,145.0,-152.5,-152.5,145.0,,,,,145.0,90,M,Далерчон Ачилов,B
Yes,Raw,1,Mikhail Shpagin,Amateur Open,1988,Russia,89.40,,,,,170.0,175.0,-180.0,175.0,,,,,175.0,90,M,Михаил Шпагин,B
Yes,Raw,2,Andrey Ryazhev,Amateur Open,1986,Russia,88.00,,,,,145.0,152.5,-157.5,152.5,,,,,152.5,90,M,Андрей Ряжев,B
Yes,Raw,3,Konstantin Boev,Amateur Open,1983,Russia,88.50,,,,,132.5,137.5,142.5,142.5,,,,,142.5,90,M,Константин Боев,B
Yes,Raw,4,Sergey Gribakha,Amateur Open,1987,Russia,87.50,,,,,115.0,122.5,-127.5,122.5,,,,,122.5,90,M,Сергей Грибаха,B
Yes,Raw,1,Oleg Shevchenko,Amateur Masters 40-44,1970,Russia,87.10,,,,,125.0,132.5,135.0,135.0,,,,,135.0,90,M,Олег Шевченко,B
Yes,Raw,1,Aleksandr Tyulenev,Amateur Masters 45-49,1968,Russia,90.00,,,,,145.0,-152.5,152.5,152.5,,,,,152.5,90,M,Александр Тюленев,B
Yes,Raw,1,Anatoliy Pavlenko,Amateur Masters 60-64,1951,Russia,89.40,,,,,100.0,105.0,110.0,110.0,,,,,110.0,90,M,Анатолий Павленко,B
Yes,Raw,1,Yuriy Isagulov,Amateur Masters 70-74,1944,Russia,83.80,,,,,87.5,90.0,-92.5,90.0,,,,,90.0,90,M,Юрий Исагулов,B
Yes,Raw,1,Aleksandr Sizev,Amateur Juniors 20-23,1992,Russia,94.30,,,,,140.0,-150.0,,140.0,,,,,140.0,100,M,Александр Сизев,B
Yes,Raw,1,Fedor Alekseev,Amateur Open,1977,Russia,98.30,,,,,165.0,172.5,177.5,177.5,,,,,177.5,100,M,Федор Алексеев,B
Yes,Raw,2,Sergey Nikolaev,Amateur Open,1971,Russia,98.50,,,,,165.0,175.0,-182.5,175.0,,,,,175.0,100,M,Сергей Николаев,B
Yes,Raw,3,Pavel Kovalev,Amateur Open,1982,Russia,96.00,,,,,160.0,167.5,170.0,170.0,,,,,170.0,100,M,Павел Ковалев,B
Yes,Raw,4,Sergey Gerber,Amateur Open,1977,Russia,98.00,,,,,162.5,170.0,-175.0,170.0,,,,,170.0,100,M,Сергей Гербер,B
Yes,Raw,5,Roman Popov,Amateur Open,1986,Russia,96.00,,,,,140.0,150.0,155.0,155.0,,,,,155.0,100,M,Роман Попов,B
Yes,Raw,6,Mikhail Zholnerov,Amateur Open,1989,Russia,96.40,,,,,130.0,-145.0,-145.0,130.0,,,,,130.0,100,M,Михаил Жолнеров,B
Yes,Raw,DQ,Vladimir Kovalenko,Amateur Open,1987,Russia,94.50,,,,,-155.0,-155.0,,,,,,,,100,M,Владимир Коваленко,B
Yes,Raw,1,Sergey Nikolaev,Amateur Masters 40-44,1971,Russia,98.50,,,,,165.0,175.0,-182.5,175.0,,,,,175.0,100,M,Сергей Николаев,B
Yes,Raw,1,Valeriy Zhitkov,Amateur Open,1994,Russia,99.40,,,,,135.0,-140.0,140.0,140.0,,,,,140.0,100,M,Валерий Житков,B
Yes,Raw,1,Vladimir Vizgin,Amateur Masters 60-64,1952,Russia,95.00,,,,,140.0,-150.0,150.0,150.0,,,,,150.0,100,M,Владимир Визгин,B
Yes,Raw,1,Evgeniy Mizin,Amateur Open,1975,Russia,108.40,,,,,155.0,-162.5,162.5,162.5,,,,,162.5,110,M,Евгений Мизин,B
Yes,Raw,2,Svyatoslav Gaprindashvili,Amateur Open,1987,Russia,101.00,,,,,150.0,-160.0,160.0,160.0,,,,,160.0,110,M,Святослав Гаприндашвили,B
Yes,Raw,3,Sergey Sharovatov,Amateur Open,1978,Russia,104.40,,,,,150.0,-155.0,,150.0,,,,,150.0,110,M,Сергей Шароватов,B
Yes,Raw,1,Vadim Klyachenkov,Amateur Masters 45-49,1966,Russia,102.00,,,,,137.5,145.0,-150.0,145.0,,,,,145.0,110,M,Вадим Кляченков,B
Yes,Raw,1,Konstantin Starodubov,Amateur Open,1982,Russia,124.00,,,,,170.0,177.5,182.5,182.5,,,,,182.5,125,M,Константин Стародубов,B
Yes,Raw,2,Andrey Ruban,Amateur Open,1983,Russia,114.90,,,,,160.0,-170.0,-175.0,160.0,,,,,160.0,125,M,Андрей Рубан,B
Yes,Single-ply,1,Kristina Baranova,Amateur Open,1988,Russia,59.40,,,,,-90.0,90.0,97.5,97.5,,,,,97.5,60,F,Кристина Баранова,B
Yes,Single-ply,1,Mariya Zaigraeva,Amateur Open,1976,Russia,67.00,,,,,80.0,85.0,90.0,90.0,,,,,90.0,67.5,F,Мария Заиграева,B
Yes,Single-ply,1,Daniil Ogly,Amateur Juniors 20-23,1991,Russia,74.20,,,,,-135.0,135.0,-140.0,135.0,,,,,135.0,75,M,Даниил Оглы,B
Yes,Single-ply,1,Artem Azaryan,Amateur Juniors 20-23,1990,Russia,82.00,,,,,130.0,-142.5,-142.5,130.0,,,,,130.0,82.5,M,Артем Азарян,B
Yes,Single-ply,1,Sergey Zhuganenko,Amateur Open,1987,Russia,78.20,,,,,-145.0,145.0,152.5,152.5,,,,,152.5,82.5,M,Сергей Жуганенко,B
Yes,Single-ply,1,Sergey Boldin,Amateur Masters 40-44,1971,Russia,92.80,,,,,170.0,177.5,-187.5,177.5,,,,,177.5,100,M,Сергей Болдин,B
Yes,Single-ply,1,Konstantin Zakharov,Amateur Open,1981,Russia,106.40,,,,,205.0,215.0,225.0,225.0,,,,,225.0,110,M,Константин Захаров,B
No,Raw,1,Anastasiya Kovanovskaya,Pro Open,1989,Russia,50.90,,,,,45.0,-52.5,-55.0,45.0,,,,,45.0,52,F,Анастасия Ковановская,B
No,Raw,1,Evgeniya Zheravina,Pro Juniors 20-23,1993,Russia,55.90,,,,,45.0,50.0,55.0,55.0,,,,,55.0,56,F,Евгения Жеравина,B
No,Raw,1,Olga Nasonova,Pro Teen 18-19,1996,Russia,64.30,,,,,77.5,-82.5,82.5,82.5,,,,,82.5,67.5,F,Ольга Насонова,B
No,Raw,1,Sergey Synkov,Pro Teen 13-15,2001,Russia,41.70,,,,,45.0,50.0,52.5,52.5,,,,,52.5,52,M,Сергей Сынков,B
No,Raw,1,Nikita Kochnev,Pro Teen 16-17,1997,Russia,57.80,,,,,-75.0,75.0,80.0,80.0,,,,,80.0,60,M,Никита Кочнев,B
No,Raw,1,Dmitriy Savchenko,Pro Open,1981,Russia,82.00,,,,,145.0,,,145.0,,,,,145.0,82.5,M,Дмитрий Савченко,B
No,Raw,1,Aleksandr Smirnov,Pro Juniors 20-23,1991,Russia,90.00,,,,,-150.0,150.0,160.0,160.0,,,,,160.0,90,M,Александр Смирнов,B
No,Raw,2,Maksim Andreev,Pro Juniors 20-23,1993,Russia,90.00,,,,,120.0,130.0,-140.0,130.0,,,,,130.0,90,M,Максим Андреев,B
No,Raw,1,Stepan Borovskiy,Pro Open,1986,Russia,89.90,,,,,180.0,190.0,195.0,195.0,,,,,195.0,90,M,Степан Боровский,B
No,Raw,2,Maksim Sagaydak,Pro Open,1988,Russia,88.80,,,,,147.5,157.5,160.0,160.0,,,,,160.0,90,M,Максим Сагайдак,B
No,Raw,3,Oleg Chekhlov,Pro Open,1973,Russia,90.00,,,,,140.0,145.0,150.0,150.0,,,,,150.0,90,M,Олег Чехлов,B
No,Raw,4,Danila Krasilnikov,Pro Open,1989,Russia,87.30,,,,,147.5,-157.5,-157.5,147.5,,,,,147.5,90,M,Данила Красильников,B
No,Raw,1,Oleg Chekhlov,Pro Masters 40-44,1973,Russia,90.00,,,,,140.0,145.0,150.0,150.0,,,,,150.0,90,M,Олег Чехлов,B
No,Raw,1,Nikolay Leschenko,Pro Masters 45-49,1966,Russia,87.90,,,,,140.0,150.0,155.0,155.0,,,,,155.0,90,M,Николай Лещенко,B
No,Raw,1,Vasiliy Synkov,Pro Open,1972,Russia,99.10,,,,,190.0,200.0,207.5,207.5,,,,,207.5,100,M,Василий Сынков,B
No,Raw,2,Aleksandr Savin,Pro Open,1986,Russia,95.20,,,,,185.0,192.5,197.5,197.5,,,,,197.5,100,M,Александр Савин,B
No,Raw,3,Andrey Yastrebov,Pro Open,1971,Russia,92.80,,,,,160.0,170.0,175.0,175.0,,,,,175.0,100,M,Андрей Ястребов,B
No,Raw,4,Aleksandr Goloyukhov,Pro Open,1988,Russia,95.60,,,,,-165.0,165.0,-167.5,165.0,,,,,165.0,100,M,Александр Голоюхов,B
No,Raw,DQ,Ivan Melnik,Pro Open,1986,Russia,93.80,,,,,-185.0,-190.0,-190.0,,,,,,,100,M,Иван Мельник,B
No,Raw,1,Vasiliy Synkov,Pro Masters 40-44,1972,Russia,99.10,,,,,190.0,200.0,207.5,207.5,,,,,207.5,100,M,Василий Сынков,B
No,Raw,2,Andrey Yastrebov,Pro Masters 40-44,1971,Russia,92.80,,,,,160.0,170.0,175.0,175.0,,,,,175.0,100,M,Андрей Ястребов,B
No,Raw,1,Nikolay Klepikov,Pro Teen 18-19,1995,Russia,109.70,,,,,160.0,172.5,180.0,180.0,,,,,180.0,110,M,Николай Клепиков,B
No,Raw,1,Aleksandr Zaytsev,Pro Open,1986,Kazakhstan,104.50,,,,,195.0,202.5,207.5,207.5,,,,,207.5,110,M,,B
No,Raw,2,Anton Epikhin,Pro Open,1988,Russia,109.70,,,,,160.0,170.0,180.0,180.0,,,,,180.0,110,M,Антон Епихин,B
No,Raw,1,Evgeniy Stuchkov,Pro Masters 50-54,1961,Russia,106.20,,,,,155.0,165.0,175.0,175.0,,,,,175.0,110,M,Евгений Стучков,B
No,Raw,1,Stanislav Kolachev,Pro Open,1987,Russia,122.00,,,,,230.0,240.0,250.0,250.0,,,,,250.0,125,M,Станислав Колачев,B
No,Single-ply,1,Dmitriy Savchenko,Pro Open,1981,Russia,82.00,,,,,-190.0,190.0,200.0,200.0,,,,,200.0,82.5,M,Дмитрий Савченко,B
No,Single-ply,1,Denis Mosharov,Pro Juniors 20-23,1992,Russia,99.10,,,,,190.0,200.0,-210.0,200.0,,,,,200.0,100,M,Денис Мошаров,B
Yes,Raw,1,Viktoriya Sharovatova,Amateur Teen 13-15,2000,Russia,41.70,,,,,,,,,55.0,60.0,65.0,65.0,65.0,44,F,Виктория Шароватова,D
Yes,Raw,1,Aleksandra Bekk,Amateur Teen 13-15,1998,Russia,52.00,,,,,,,,,60.0,65.0,-70.0,65.0,65.0,52,F,Александра Бекк,D
Yes,Raw,1,Alina Vishnyakova,Amateur Teen 16-17,1998,Russia,51.50,,,,,,,,,65.0,,,65.0,65.0,52,F,Алина Вишнякова,D
Yes,Raw,1,Veronika Brodyagina,Amateur Teen 18-19,1994,Russia,51.70,,,,,,,,,70.0,80.0,85.0,85.0,85.0,52,F,Вероника Бродягина,D
Yes,Raw,1,Alina Sik,Amateur Teen 16-17,1997,Russia,62.60,,,,,,,,,60.0,65.0,80.0,80.0,80.0,67.5,F,Алина Сик,D
Yes,Raw,1,Galina Konovalova,Amateur Teen 18-19,1994,Russia,66.90,,,,,,,,,120.0,135.0,142.5,142.5,142.5,67.5,F,Галина Коновалова,D
Yes,Raw,1,Evgeniy Fateev,Amateur Juniors 20-23,1993,Russia,55.50,,,,,,,,,125.0,135.0,142.5,142.5,142.5,56,M,Евгений Фатеев,D
Yes,Raw,1,Denis Batalov,Amateur Open,1988,Russia,60.00,,,,,,,,,160.0,170.0,175.0,175.0,175.0,60,M,Денис Баталов,D
Yes,Raw,1,Egor Seryukov,Amateur Teen 16-17,1996,Russia,66.60,,,,,,,,,140.0,150.0,160.0,160.0,160.0,67.5,M,Егор Серюков,D
Yes,Raw,1,Sergey Shpilev,Amateur Teen 18-19,1995,Russia,66.50,,,,,,,,,165.0,170.0,175.0,175.0,175.0,67.5,M,Сергей Шпилев,D
Yes,Raw,2,Vladislav Mavrin,Amateur Teen 18-19,1995,Russia,67.30,,,,,,,,,165.0,175.0,-185.0,175.0,175.0,67.5,M,Владислав Маврин,D
Yes,Raw,3,Vladimir Balkin,Amateur Teen 18-19,1994,Russia,61.10,,,,,,,,,160.0,-165.0,165.0,165.0,165.0,67.5,M,Владимир Балкин,D
Yes,Raw,4,Aleksandr Anufriev,Amateur Teen 18-19,1995,Russia,67.50,,,,,,,,,110.0,120.0,-130.0,120.0,120.0,67.5,M,Александр Ануфриев,D
Yes,Raw,1,Aleksey Kislukhin,Amateur Juniors 20-23,1992,Russia,64.00,,,,,,,,,170.0,180.0,-190.0,180.0,180.0,67.5,M,Алексей Кислухин,D
Yes,Raw,1,Anton Voronin,Amateur Teen 16-17,1997,Russia,71.60,,,,,,,,,170.0,180.0,185.0,185.0,185.0,75,M,Антон Воронин,D
Yes,Raw,1,Sergey Sklyar,Amateur Teen 18-19,1994,Russia,74.90,,,,,,,,,180.0,190.0,-202.5,190.0,190.0,75,M,Сергей Скляр,D
Yes,Raw,1,Evgeniy Kiselev,Amateur Juniors 20-23,1990,Russia,73.90,,,,,,,,,190.0,-200.0,-200.0,190.0,190.0,75,M,Евгений Киселев,D
Yes,Raw,DQ,Viktor Kurbatov #2,Amateur Juniors 20-23,1992,Russia,74.80,,,,,,,,,-202.5,-202.5,-202.5,,,75,M,Виктор Курбатов,D
Yes,Raw,1,Sergey German,Amateur Open,1986,Russia,73.00,,,,,,,,,185.0,195.0,202.5,202.5,202.5,75,M,Сергей Герман,D
Yes,Raw,1,Daniil Novikov,Amateur Teen 16-17,1996,Russia,82.20,,,,,,,,,-195.0,195.0,-200.0,195.0,195.0,82.5,M,Даниил Новиков,D
Yes,Raw,1,Anton Gofer,Amateur Teen 18-19,1994,Russia,80.60,,,,,,,,,215.0,225.0,230.0,230.0,230.0,82.5,M,Антон Гофер,D
Yes,Raw,1,Andrey Arsenov,Amateur Open,1956,Russia,80.70,,,,,,,,,185.0,200.0,-215.0,200.0,200.0,82.5,M,Андрей Арсенов,D
Yes,Raw,1,Andrey Arsenov,Amateur Masters 55-59,1956,Russia,80.70,,,,,,,,,185.0,200.0,-215.0,200.0,200.0,82.5,M,Андрей Арсенов,D
Yes,Raw,1,Aleksey Gorlov,Amateur Teen 16-17,1996,Russia,88.60,,,,,,,,,195.0,210.0,222.5,222.5,222.5,90,M,Алексей Горлов,D
Yes,Raw,1,Artem Bykhovets,Amateur Open,1983,Russia,84.80,,,,,,,,,210.0,230.0,240.0,240.0,240.0,90,M,Артем Быховец,D
Yes,Raw,2,Grigoriy Agarkov,Amateur Open,1978,Russia,88.90,,,,,,,,,205.0,222.5,232.5,232.5,232.5,90,M,Григорий Агарков,D
Yes,Raw,3,Igor Koscheev,Amateur Open,1979,Russia,88.20,,,,,,,,,210.0,222.5,-245.0,222.5,222.5,90,M,Игорь Кощеев,D
Yes,Raw,DQ,Nikolay Efanov,Amateur Masters 55-59,1958,Russia,89.50,,,,,,,,,-180.0,-180.0,-180.0,,,90,M,Николай Ефанов,D
Yes,Raw,1,Sergey Gerber,Amateur Open,1977,Russia,98.00,,,,,,,,,-232.5,232.5,245.0,245.0,245.0,100,M,Сергей Гербер,D
Yes,Raw,2,Artem Furdyga,Amateur Open,1989,Kazakhstan,97.20,,,,,,,,,220.0,230.0,-240.0,230.0,230.0,100,M,,D
Yes,Raw,3,Anton Vegner,Amateur Open,1982,Russia,98.50,,,,,,,,,195.0,205.0,210.0,210.0,210.0,100,M,Антон Вегнер,D
Yes,Raw,4,Sergey Litvinenko,Amateur Open,1979,Russia,96.50,,,,,,,,,185.0,202.5,-232.5,202.5,202.5,100,M,Сергей Литвиненко,D
Yes,Raw,1,Sergey Karelin,Amateur Masters 50-54,1959,Russia,107.00,,,,,,,,,200.0,220.0,230.0,230.0,230.0,110,M,Сергей Карелин,D
Yes,Multi-ply,1,Evgeniy Bykov,Amateur Open,1984,Russia,73.50,,,,,,,,,200.0,215.0,230.0,230.0,230.0,75,M,Евгений Быков,D
No,Raw,1,Sargis Melkonyan,Pro Teen 16-17,1996,Russia,86.40,,,,,,,,,210.0,230.0,-245.0,230.0,230.0,90,M,Саргис Мелконян,D
No,Raw,1,Yaroslav Bondar,Pro Juniors 20-23,1990,Russia,86.10,,,,,,,,,230.0,240.0,-247.5,240.0,240.0,90,M,Ярослав Бондарь,D
