Place,Sex,Name,CyrillicName,BodyweightKg,Squat1Kg,Squat2Kg,Squat3Kg,Best3SquatKg,Squat4Kg,Bench1Kg,Bench2Kg,Bench3Kg,Best3BenchKg,Bench4Kg,Deadlift1Kg,Deadlift2Kg,Deadlift3Kg,Best3DeadliftKg,Deadlift4Kg,TotalKg,WeightClassKg,Event,Equipment,Tested,Division,Age,BirthDate
1,F,Veronika Ukolova,Вероника Уколова,119.2,177.5,185,-190,185,,75,-80,-80,75,,145,-152.5,-152.5,145,,405,90+,SBD,Wraps,Yes,Open,19,1997-06-17
1,M,Daniil Grigin,Даниил Григин,78.2,200,220,-230,220,,120,130,135,135,,180,200,210,210,,565,82.5,SBD,Wraps,Yes,Open,26,1989-12-11
1,M,Mikhail Kulakov,Михаил Кулаков,108.1,100,105,110,110,,70,-75,-75,70,,105,112.5,120,120,,300,110,SBD,Wraps,Yes,Open,30,1986-05-01
1,M,Dmitriy Yarmukhametov,Дмитрий Ярмухаметов,68.8,160,-170,180,180,,100,-110,,100,,180,195,210,210,,490,75,SBD,Wraps,No,Open,37,1979-06-15
1,M,Aleksandr Kozlov,Александр Козлов,86.5,240,250,-260,250,,-140,142.5,-145,142.5,,230,-240,-240,230,,622.5,90,SBD,Wraps,No,Open,22,1994-08-28
2,M,Sergey Mozhaev,Сергей Можаев,86.1,200,-210,215,215,,145,-150,-150,145,,220,225,-230,225,,585,90,SBD,Wraps,No,Open,28,1988-04-16
1,M,Vadim Petriv,Вадим Петрив,110,260,270,-280,270,,-170,180,-185,180,,250,265,-272.5,265,,715,110,SBD,Wraps,No,Open,34,1981-12-29
2,M,Viktor Stefantsov,Виктор Стефанцов,103.7,-220,220,-235,220,,150,160,-170,160,,200,225,-240,225,,605,110,SBD,Wraps,No,Open,31,1984-11-09
1,M,Yaroslav Golubev,Ярослав Голубев,114,255,270,-280,270,,190,200,-205,200,,235,250,-257.5,250,,720,125,SBD,Wraps,No,Open,36,1980-02-02
1,F,Nigara Dashdanova,Нигара Дашданова,60.7,65,70,75,75,,35,-40,-40,35,,-95,95,-102.5,95,,205,67.5,SBD,Raw,Yes,Open,26,1989-12-25
1,M,Oleg Kiselev,Олег Киселев,56.5,90,100,-110,100,,60,70,-75,70,,100,110,117.5,117.5,,287.5,60,SBD,Raw,Yes,Teen,17,1999-06-11
1,M,Denis Zamoruev,Денис Заморуев,60.1,140,150,155,155,,80,87.5,-90,87.5,,140,147.5,-150,147.5,,390,67.5,SBD,Raw,Yes,Teen,18,1998-01-16
1,M,Evgeniy Karpov,Евгений Карпов,66.7,-145,145,155,155,,110,-115,115,115,,155,165,-170,165,,435,67.5,SBD,Raw,Yes,Open,36,1979-10-26
1,M,Aleksey Yushin,Алексей Юшин,73.6,165,170,175,175,,145,-150,150,150,,200,210,-220,210,,535,75,SBD,Raw,Yes,Open,33,1982-10-09
2,M,Dmitriy Pigrov,Дмитрий Пигров,74.3,140,150,-155,150,,100,-105,-105,100,,-180,180,-190,180,,430,75,SBD,Raw,Yes,Open,27,1989-01-02
1,M,Maksim Korobov,Максим Коробов,82,-110,110,-120,110,,72.5,77.5,-80,77.5,,135,147.5,155,155,,342.5,82.5,SBD,Raw,Yes,Teen,15,2001-03-31
1,M,Vladislav Khodosevich,Владислав Ходосевич,86.4,140,150,-160,150,,-115,115,-120,115,,145,155,170,170,,435,90,SBD,Raw,Yes,Teen,17,1999-08-28
1,M,Mikhail Frantsuzov,Михаил Французов,94.6,110,-115,120,120,,85,95,-102.5,95,,130,-150,150,150,,365,100,SBD,Raw,Yes,Teen,17,1999-05-28
1,M,Vladimir Elistratov,Владимир Елистратов,105.7,220,230,-240,230,,125,132.5,140,140,,232.5,247.5,252.5,252.5,,622.5,110,SBD,Raw,Yes,Juniors 20-23,23,1993-09-08
1,F,Olga Kostrova,Ольга Кострова,65.2,132.5,140,-150,140,,85,92.5,-97.5,92.5,,160,165,170,170,,402,67.5,SBD,Raw,No,Masters 40-44,42,1974-05-28
1,M,Aleksey Kozinets,Алексей Козинец,69.6,140,150,157.5,157.5,,115,122.5,-125,122.5,,165,175,180,180,,460,75,SBD,Raw,No,Open,30,1986-09-10
2,M,Vitaliy Titarenko #2,Виталий Титаренко,73.6,135,142.5,-150,142.5,,115,-120,-120,115,,-190,190,200,200,,457.5,75,SBD,Raw,No,Open,25,1990-10-19
1,M,Marat Sagitov,Марат Сагитов,81.2,165,180,190,190,,130,140,-145,140,,170,185,200,200,,530,82.5,SBD,Raw,No,Masters 45-49,45,1971-03-05
1,M,Aleksey Shchekunov,Алексей Щекунов,86.6,180,-190,195,195,,150,160,167.5,167.5,,230,240,-250,240,,602.5,90,SBD,Raw,No,Open,32,1984-07-17
1,M,Anatoliy Nikiforov,Анатолий Никифоров,95.1,200,220,235,235,,145,155,162.5,162.5,,240,260,-275,260,,657.5,100,SBD,Raw,No,Open,34,1982-07-13
1,M,Ivan Pezikov,Иван Пезиков,106.4,-250,-250,250,250,,165,-175,-175,165,,250,265,-285,265,,680,110,SBD,Raw,No,Juniors 20-23,22,1994-04-24
1,M,Ivan Pezikov,Иван Пезиков,106.4,-250,-250,250,250,,165,-175,-175,165,,250,265,-285,265,,680,110,SBD,Raw,No,Open,22,1994-04-24
2,M,Ruslan Platov,Руслан Платов,107.8,190,-200,200,200,,140,150,-160,150,,-210,-230,230,230,,580,110,SBD,Raw,No,Open,37,1979-06-11
1,M,Matvey Sokolov,Матвей Соколов,46.3,,,,,,25,-27.5,27.5,27.5,,,,,,,27.5,52,B,Raw,No,Youth,9,2006-11-30
1,M,Vasiliy Chekulov,Василий Чекулов,57,,,,,,67.5,72.5,-77.5,72.5,,,,,,,72.5,60,B,Raw,No,Teen,14,2002-06-17
1,M,Sergey Karaziya,Сергей Каразия,64.4,,,,,,-155,155,-165,155,,,,,,,155,67.5,B,Raw,No,Open,28,1987-11-30
1,M,Nikita Konstantinov,Никита Константинов,70.1,,,,,,-80,85,-90,85,,,,,,,85,75,B,Raw,No,Teen,19,1996-12-14
1,M,Vladimír Belykh,Владимир Белых,68.1,,,,,,105,110,-115,110,,,,,,,110,75,B,Raw,No,Open,30,1986-09-24
1,M,Shamil Askerov,Шамиль Аскеров,82.5,,,,,,145,150,-155,150,,,,,,,150,82.5,B,Raw,No,Open,27,1989-04-01
1,M,Igor Polivanov,Игорь Поливанов,80.6,,,,,,145,150,-155,150,,,,,,,150,82.5,B,Raw,No,Masters 40-44,41,1974-12-06
1,M,Marat Sagitov,Марат Сагитов,81.2,,,,,,140,,,140,,,,,,,140,82.5,B,Raw,No,Masters 45-49,45,1971-03-05
1,M,Roman Ozornov,Роман Озорнов,84.6,,,,,,-140,145,-155,145,,,,,,,145,90,B,Raw,No,Open,34,1982-07-01
1,M,Aleksandr Vorobev,Александр Воробьев,89.5,,,,,,150,155,157.5,157.5,,,,,,,157.5,90,B,Raw,No,Masters 45-49,49,1967-02-18
2,M,Igor Chernyshov,Игорь Чернышов,89.5,,,,,,145,-150,-150,145,,,,,,,145,90,B,Raw,No,Masters 45-49,47,1969-07-14
1,M,Vladimir Lashin,Владимир Лашин,89.9,,,,,,-110,110,-115,110,,,,,,,110,90,B,Raw,No,Masters 55-59,56,1960-03-28
1,M,Nikolay Chekhov,Николай Чехов,101,,,,,,175,-185,-185,175,,,,,,,175,110,B,Raw,No,Open,37,1979-03-26
1,M,Evgeniy Spirkin,Евгений Спиркин,105.6,,,,,,212.5,-215,215,215,,,,,,,215,110,B,Raw,No,Open,28,1987-11-14
DQ,M,Denis Kochnev,Денис Кочнев,107.9,,,,,,-160,-167.5,-167.5,,,,,,,,,110,B,Raw,No,Open,35,1980-12-21
1,M,Dmitriy Shneyder,Дмитрий Шнейдер,101.2,,,,,,135,-137.5,,135,,,,,,,135,110,B,Raw,No,Masters 45-49,45,1971-02-16
1,M,Denis Puzyrev,Денис Пузырев,111.9,,,,,,-177.5,177.5,182.5,182.5,,,,,,,182.5,125,B,Raw,No,Open,42,1974-03-31
2,M,Valeriy Sokolov,Валерий Соколов,111.8,,,,,,140,145,-147.5,145,,,,,,,145,125,B,Raw,No,Open,31,1984-10-17
1,M,Denis Puzyrev,Денис Пузырев,111.9,,,,,,-177.5,177.5,182.5,182.5,,,,,,,182.5,125,B,Raw,No,Masters 40-44,42,1974-03-31
1,F,Ekaterina Lukina,Екатерина Лукина,52,,,,,,45,-50,-50,45,,,,,,,45,52,B,Raw,Yes,Open,25,1991-04-12
DQ,F,Ekaterina Puzyreva,Екатерина Пузырева,58.7,,,,,,-67.5,-67.5,-67.5,,,,,,,,,60,B,Raw,Yes,Open,25,1991-06-21
1,F,Svetlana Grigoreva,Светлана Григорьева,63.7,,,,,,70,75,77.5,77.5,,,,,,,77.5,67.5,B,Raw,Yes,Open,34,1982-07-15
2,F,Darya Pokazaneva,Дарья Показаньева,64.4,,,,,,55,60,-62.5,60,,,,,,,60,67.5,B,Raw,Yes,Open,26,1989-12-03
1,F,Marina Kozlova,Марина Козлова,75,,,,,,-40,-40,40,40,,,,,,,40,75,B,Raw,Yes,Open,31,1985-06-27
1,M,Valentin Bukhantsev,Валентин Буханцев,53.3,,,,,,72.5,77.5,-80,77.5,,,,,,,77.5,56,B,Raw,Yes,Teen,18,1998-06-01
1,M,Igor Mkhitaryan,Игорь Мхитарян,57.7,,,,,,60,65,-70,65,,,,,,,65,60,B,Raw,Yes,Teen,14,2002-02-19
DQ,M,Daniil Karpov,Даниил Карпов,58.3,,,,,,-65,-65,-67.5,,,,,,,,,60,B,Raw,Yes,Teen,13,2002-11-03
1,M,Sergey Pronichkin,Сергей Проничкин,59.8,,,,,,110,115,-120,115,,,,,,,115,60,B,Raw,Yes,Open,27,1989-08-15
1,M,Yuriy Pokazanev,Юрий Показаньев,65.8,,,,,,85,90,100,100,,,,,,,100,67.5,B,Raw,Yes,Open,30,1985-11-28
2,M,Sergey Belskiy,Сергей Бельский,65.1,,,,,,90,-100,-100,90,,,,,,,90,67.5,B,Raw,Yes,Open,39,1977-02-07
1,M,Stanislav Artamonov,Станислав Артамонов,69.5,,,,,,-82.5,82.5,85,85,,,,,,,85,75,B,Raw,Yes,Teen,15,2001-06-24
1,M,Vadim Aliskerov,Вадим Алискеров,72.5,,,,,,122.5,-127.5,-127.5,122.5,,,,,,,122.5,75,B,Raw,Yes,Juniors 20-23,20,1996-07-21
2,M,Pavel Ushkov,Павел Ушков,69.1,,,,,,107.5,-112.5,117.5,117.5,,,,,,,117.5,75,B,Raw,Yes,Juniors 20-23,20,1996-09-06
1,M,Aleksey Volkov,Алексей Волков,74.3,,,,,,145,-150,-150,145,,,,,,,145,75,B,Raw,Yes,Open,31,1985-05-03
2,M,Maksim Bukatkin,Максим Букаткин,71.2,,,,,,-137.5,142.5,-145,142.5,,,,,,,142.5,75,B,Raw,Yes,Open,24,1992-01-12
DQ,M,Aleksandr Feygin,Александр Фейгин,72.3,,,,,,-105,-105,-117.5,,,,,,,,,75,B,Raw,Yes,Open,33,1983-02-07
DQ,M,Aleksandr Lyakhov,Александр Ляхов,72.9,,,,,,-122.5,-122.5,-125,,,,,,,,,75,B,Raw,Yes,Open,38,1978-06-14
1,M,Andrey Mitrochenko,Андрей Митроченко,80.7,,,,,,135,140,145,145,,,,,,,145,82.5,B,Raw,Yes,Open,39,1976-11-19
2,M,Dmitriy Nechaev,Дмитрий Нечаев,79.9,,,,,,-140,140,-147.5,140,,,,,,,140,82.5,B,Raw,Yes,Open,33,1983-03-18
3,M,Vitaliy Gorlatenko,Виталий Горлатенко,80.5,,,,,,135,-145,-145,135,,,,,,,135,82.5,B,Raw,Yes,Open,25,1991-03-20
4,M,Maksim Valuevich,Максим Валуевич,81.6,,,,,,135,-145,-145,135,,,,,,,135,82.5,B,Raw,Yes,Open,34,1982-09-23
5,M,Sergey Rak,Сергей Рак,80.6,,,,,,120,127.5,132.5,132.5,,,,,,,132.5,82.5,B,Raw,Yes,Open,31,1985-06-01
6,M,Konstantin Prokofev,Константин Прокофьев,80.9,,,,,,130,-137.5,-137.5,130,,,,,,,130,82.5,B,Raw,Yes,Open,33,1983-03-07
7,M,Aleksey Safaev,Алексей Сафаев,79.4,,,,,,115,-117.5,-120,115,,,,,,,115,82.5,B,Raw,Yes,Open,29,1987-03-15
1,M,Aleksandr Mladenskiy,Александр Младенский,87.5,,,,,,97.5,102.5,-107.5,102.5,,,,,,,102.5,90,B,Raw,Yes,Teen,14,2002-09-03
2,M,Igor Florya,Игорь Флоря,85.9,,,,,,95,-102.5,-107.5,95,,,,,,,95,90,B,Raw,Yes,Teen,19,1997-06-18
1,M,Ilya Bondarenko,Илья Бондаренко,90,,,,,,160,165,170,170,,,,,,,170,90,B,Raw,Yes,Open,35,1981-04-07
2,M,Stanislav Novoselov,Станислав Новоселов,89.3,,,,,,140,152.5,157.5,157.5,,,,,,,157.5,90,B,Raw,Yes,Open,29,1987-08-25
3,M,Aleksey Mukhin,Алексей Мухин,88.2,,,,,,127.5,-132.5,-132.5,127.5,,,,,,,127.5,90,B,Raw,Yes,Open,34,1982-07-10
4,M,Aleksandr Tolmachev,Александр Толмачев,89.4,,,,,,115,120,125,125,,,,,,,125,90,B,Raw,Yes,Open,32,1984-01-06
DQ,M,Andrey Borisov,Андрей Борисов,89.1,,,,,,-152.5,-152.5,-152.5,,,,,,,,,90,B,Raw,Yes,Open,29,1987-09-15
1,M,Aleksey Kondakov,Алексей Кондаков,86.1,,,,,,-145,145,-152.5,145,,,,,,,145,90,B,Raw,Yes,Masters 45-49,46,1970-07-22
1,M,Evgeniy Moiseev,Евгений Моисеев,92,,,,,,125,132.5,-140,132.5,,,,,,,132.5,100,B,Raw,Yes,Juniors 20-23,21,1995-01-11
1,M,Evgeniy Milovanov,Евгений Милованов,95.9,,,,,,175,-185,187.5,187.5,,,,,,,187.5,100,B,Raw,Yes,Open,23,1993-06-03
2,M,Maksim Trostyanskiy,Максим Тростянский,98.9,,,,,,155,162.5,-167.5,162.5,,,,,,,162.5,100,B,Raw,Yes,Open,28,1988-07-14
DQ,M,Andrey Filippin,Андрей Филиппин,97.7,,,,,,-175,-177.5,-177.5,,,,,,,,,100,B,Raw,Yes,Open,34,1982-01-02
DQ,M,Dmitriy Zhemarkin,Дмитрий Жемаркин,101.5,,,,,,-160,-165,,,,,,,,,,110,B,Raw,Yes,Teen,19,1997-01-29
1,M,Andrey Kharchikov,Андрей Харчиков,100.8,,,,,,135,140,-147.5,140,,,,,,,140,110,B,Raw,Yes,Juniors 20-23,20,1995-11-07
1,M,Evgeniy Grebnev,Евгений Гребнев,104.7,,,,,,150,155,160,160,,,,,,,160,110,B,Raw,Yes,Open,36,1980-05-07
2,M,Ruslan Korobeynikov,Руслан Коробейников,107.7,,,,,,145,150,-155,150,,,,,,,150,110,B,Raw,Yes,Open,32,1984-06-12
1,M,Pavel Bukhantsev,Павел Буханцев,105.8,,,,,,162.5,167.5,-172.5,167.5,,,,,,,167.5,110,B,Raw,Yes,Masters 45-49,47,1969-08-02
1,M,Stanislav Gusev,Станислав Гусев,116.2,,,,,,-150,150,-155,150,,,,,,,150,125,B,Raw,Yes,Open,28,1988-06-25
1,M,Dmitriy Zolotykh,Дмитрий Золотых,88.4,,,,,,130,-140,-150,130,,,,,,,130,90,B,Single-ply,Yes,Open,29,1987-07-31
1,M,Andrey Imenev,Андрей Именьев,98.3,,,,,,185,-202.5,-205,185,,,,,,,185,100,B,Single-ply,No,Open,27,1989-07-02
1,M,Nikolay Glazev,Николай Глазьев,114.7,,,,,,-235,247.5,252.5,252.5,,,,,,,252.5,125,B,Single-ply,No,Open,32,1983-10-29
DQ,M,Kirill Tsaparov,Кирилл Цапаров,83.2,,,,,,,,,,,-300,-300,-300,,,,90,D,Raw,No,Open,31,1984-09-30
1,M,Artem Kirsanov,Артем Кирсанов,92.8,,,,,,,,,,,245,260,272.5,272.5,,272.5,100,D,Raw,No,Open,25,1991-03-07
1,M,Aleksandr Ovodkov,Александр Оводков,102.9,,,,,,,,,,,270,285,292.5,292.5,,292.5,110,D,Raw,No,Open,31,1985-06-09
1,M,Aleksandr Baranov,Александр Баранов,111.4,,,,,,,,,,,200,215,230,230,,230,125,D,Raw,No,Open,30,1986-01-15
1,F,Karina Shorina,Карина Шорина,51.8,,,,,,,,,,,80,95,102.5,102.5,,102.5,52,D,Raw,Yes,Teen,19,1997-06-06
1,F,Anastasiya Lakomkina,Анастасия Лакомкина,55.1,,,,,,,,,,,100,110,-125,110,,110,56,D,Raw,Yes,Open,24,1992-03-20
1,F,Elena Akhmetova,Елена Ахметова,66.1,,,,,,,,,,,80,85,92.5,92.5,,92.5,67.5,D,Raw,Yes,Open,25,1991-07-05
1,F,Ani Avetisyan,Ани Аветисян,71.5,,,,,,,,,,,90,100,115,115,,115,75,D,Raw,Yes,Open,25,1990-11-14
1,F,Alina Khlebodarova,Алина Хлебодарова,78.3,,,,,,,,,,,-112.5,115,-120,115,,115,82.5,D,Raw,Yes,Open,27,1989-08-18
1,M,Sergey Rakov,Сергей Раков,66.4,,,,,,,,,,,170,175,180,180,,180,67.5,D,Raw,Yes,Teen,18,1998-07-16
1,M,Andrey Merkulov,Андрей Меркулов,65.9,,,,,,,,,,,-190,190,195,195,,195,67.5,D,Raw,Yes,Open,24,1992-03-02
1,M,Egor Molostovkin,Егор Молостовкин,71.3,,,,,,,,,,,155,165,175,175,,175,75,D,Raw,Yes,Teen,17,1998-09-29
2,M,Andrey Frolov,Андрей Фролов,70.8,,,,,,,,,,,165,-170,-170,165,,165,75,D,Raw,Yes,Teen,18,1998-09-24
1,M,Maksim Korobov,Максим Коробов,82,,,,,,,,,,,150,162.5,167.5,167.5,,167.5,82.5,D,Raw,Yes,Teen,15,2001-03-31
2,M,Mikhail Pozharitskiy,Михаил Пожарицкий,77.4,,,,,,,,,,,140,150,-162.5,150,,150,82.5,D,Raw,Yes,Teen,18,1998-01-24
1,M,Yaroslav Feskov,Ярослав Феськов,79.3,,,,,,,,,,,175,185,-215,185,,185,82.5,D,Raw,Yes,Juniors 20-23,20,1995-10-20
1,M,Daniil Grigin,Даниил Григин,78.2,,,,,,,,,,,210,,,210,,210,82.5,D,Raw,Yes,Open,26,1989-12-11
2,M,Vadim Shchemenenko,Вадим Щемененко,76,,,,,,,,,,,170,190,200,200,,200,82.5,D,Raw,Yes,Open,27,1989-01-21
DQ,M,Sergey Rak,Сергей Рак,79.6,,,,,,,,,,,-190,-190,-195,,,,82.5,D,Raw,Yes,Open,31,1985-06-01
1,M,Aleksandr Mladenskiy,Александр Младенский,87.2,,,,,,,,,,,140,150,160,160,,160,90,D,Raw,Yes,Teen,14,2002-09-03
1,M,Aleksey Osipenko,Алексей Осипенко,89.2,,,,,,,,,,,220,230,235,235,,235,90,D,Raw,Yes,Open,31,1985-05-09
2,M,Aleksandr Alyautdinov,Александр Аляутдинов,84.5,,,,,,,,,,,150,160,-165,160,,160,90,D,Raw,Yes,Open,31,1984-09-26
1,M,Sergey Gnatyuk,Сергей Гнатюк,87.1,,,,,,,,,,,180,190,195,195,,195,90,D,Raw,Yes,Masters 55-59,55,1960-12-10
1,M,Mikhail Eremin,Михаил Еремин,97.2,,,,,,,,,,,220,230,-240,230,,230,100,D,Raw,Yes,Teen,17,1999-05-31
1,M,Vladimir Elistratov,Владимир Елистратов,105.7,,,,,,,,,,,252.5,,,252.5,,252.5,110,D,Raw,Yes,Juniors 20-23,23,1993-09-08
1,M,Aleksey Makarenko,Алексей Макаренко,107.3,,,,,,,,,,,210,225,-240,225,,225,110,D,Raw,Yes,Open,27,1989-05-28
