Name,CyrillicName,Division,BirthDate,Age,BodyweightKg,WeightClassKg,Sex,Squat1Kg,Squat2Kg,Squat3Kg,Best3SquatKg,Bench1Kg,Bench2Kg,Bench3Kg,Best3BenchKg,Deadlift1Kg,Deadlift2Kg,Deadlift3Kg,Best3DeadliftKg,TotalKg,Event,Equipment,Tested,Place
Ekaterina Kosmynina,Екатерина Космынина,Amateur Teen 13-15,1998-12-12,,49.4,52,F,50,55,60,60,25,30,-32.5,30,60,70,75,75,165,SBD,Raw,Yes,1
Irina Grigoreva,Ирина Григорьева,Amateur Teen 16-17,1997-04-14,17,51.4,52,F,-60,65,70,70,40,-42.5,-42.5,40,75,80,-87.5,80,190,SBD,Raw,Yes,1
Anna Mozhaeeva,Анна Можаеева,Amateur Teen 16-17,1997-09-24,17,50.3,52,F,-65,-65,67.5,67.5,-35,-40,-40,,,,,,,SBD,Raw,Yes,DQ
Ekaterina Gorbunova,Екатерина Горбунова,Amateur Teen 16-17,1997-10-23,17,54.1,56,F,60,70,75,75,37.5,-42.5,-42.5,37.5,70,80,87.5,87.5,200,SBD,Raw,Yes,1
Oksana Novichkova,Оксана Новичкова,Amateur Open,1988-11-23,26,54.8,56,F,60,-67.5,75,75,32.5,40,-45,40,85,95,,95,210,SBD,Raw,Yes,1
Viktoriya Epikhina,Виктория Епихина,Amateur Juniors 20-23,1991-04-18,23,63.6,67.5,F,82.5,90,100,100,55,-62.5,62.5,62.5,105,117.5,-122.5,117.5,280,SBD,Raw,Yes,1
Roman Shevchenko,Роман Шевченко,Amateur Teen 13-15,2000-05-26,14,53.1,56,M,70,75,-80,75,-50,-50,50,50,105,-115,-115,105,230,SBD,Raw,Yes,1
Artem Popykin,Артем Попыкин,Amateur Teen 13-15,2000-04-14,14,58.3,60,M,70,80,-85,80,40,50,55,55,100,110,120,120,255,SBD,Raw,Yes,1
Artem Kartyshkov,Артем Картышков,Amateur Teen 18-19,1995-06-09,19,73.9,75,M,160,170,-175,170,120,-132.5,-132.5,120,210,220,-225,220,510,SBD,Raw,Yes,1
Rinat Suleymenov,Ринат Сулейменов,Amateur Juniors 20-23,1994-03-11,20,74.5,75,M,170,185,-200,185,-120,125,130,130,220,230,-240,230,545,SBD,Raw,Yes,1
Ivan Gontaryuk,Иван Гонтарюк,Amateur Masters 75-79,1935-12-19,,69.8,75,M,100,-110,115,115,55,60,62.5,62.5,120,140,150,150,327.5,SBD,Raw,Yes,1
Vladislav Kologorov,Владислав Кологоров,Amateur Teen 18-19,1996-04-14,18,79.7,82.5,M,170,180,190,190,110,115,122.5,122.5,190,207.5,215,215,527.5,SBD,Raw,Yes,1
Denis Goncharov,Денис Гончаров,Amateur Teen 18-19,1996-11-19,18,79.9,82.5,M,170,187.5,-200,187.5,100,107.5,-112.5,107.5,190,205,215,215,510,SBD,Raw,Yes,2
Aleksandr Salakhanov,Александр Салаханов,Amateur Teen 18-19,1995-12-08,,79.3,82.5,M,-160,160,-165,160,-125,125,-130,125,185,200,210,210,495,SBD,Raw,Yes,3
Sergey Karpov,Сергей Карпов,Amateur Juniors 20-23,1994-01-04,20,81.6,82.5,M,190,202.5,215,215,100,112.5,120,120,217.5,232.5,240,240,575,SBD,Raw,Yes,1
Sergey Chekmasov,Сергей Чекмасов,Amateur Open,1989-03-13,25,81.5,82.5,M,190,200,,200,115,-120,-120,115,200,212.5,225,225,540,SBD,Raw,Yes,1
Sergey Stepanov,Сергей Степанов,Amateur Open,1988-10-28,26,81.3,82.5,M,180,187.5,-192.5,187.5,-130,130,-135,130,200,-220,-220,200,517.5,SBD,Raw,Yes,2
Anton Karpov,Антон Карпов,Amateur Teen 16-17,1998-07-23,16,89.4,90,M,120,130,140,140,110,125,-130,125,140,160,-175,160,425,SBD,Raw,Yes,1
Maksim Kalinin,Максим Калинин,Amateur Juniors 20-23,1993-06-01,21,89.9,90,M,200,210,-220,210,160,167.5,-172.5,167.5,240,255,-262.5,255,632.5,SBD,Raw,Yes,1
Arman Sargsyan,Арман Саргсян,Amateur Teen 16-17,1997-01-03,17,98.3,100,M,165,175,185,185,135,140,-145,140,175,200,207.5,207.5,532.5,SBD,Raw,Yes,1
German Velsh,Герман Вельш,Amateur Teen 18-19,1996-08-20,18,96.9,100,M,180,190,-200,190,130,-135,135,135,190,200,210,210,535,SBD,Raw,Yes,1
Roman Kiselev,Роман Киселев,Amateur Teen 18-19,1995-11-12,19,90.8,100,M,140,160,170,170,100,105,110,110,150,160,170,170,450,SBD,Raw,Yes,2
Dmitriy Funk,Дмитрий Функ,Amateur Juniors 20-23,1994-08-20,20,97.8,100,M,185,200,-212.5,200,135,145,152.5,152.5,195,210,220,220,572.5,SBD,Raw,Yes,1
Aleksandr Dementev #2,Александр Деменьтев,Amateur Juniors 20-23,1992-12-28,,94,100,M,140,155,170,170,105,117.5,125,125,170,190,205,205,500,SBD,Raw,Yes,2
Julia Vins,Юлия Винс,Amateur Teen 18-19,1996-05-21,18,65.1,67.5,F,180,-195,-195,180,-105,105,-110,105,-160,160,-180,160,445,SBD,Single-ply,Yes,1
Dmitriy Galkin,Дмитрий Галкин,Amateur Open,1987-08-14,27,82.2,82.5,M,215,-230,230,230,-165,165,170,170,-230,230,-240,230,630,SBD,Single-ply,Yes,1
Rushan Suleymanov,Рушан Сулейманов,Amateur Open,1991-03-15,23,110,110,M,250,-267.5,-275,250,165,175,-182.5,175,190,210,220,220,645,SBD,Single-ply,Yes,1
Irina Grigoreva,Ирина Григорьева,Amateur Teen 16-17,1997-04-14,17,51.3,52,F,,,,,40,42.5,-45,42.5,,,,,42.5,B,Raw,Yes,1
Ekaterina Gorbunova,Екатерина Горбунова,Amateur Teen 16-17,1997-10-23,17,54.1,56,F,,,,,37.5,40,-42.5,40,,,,,40,B,Raw,Yes,1
Nataliya Zagrebina,Наталия Загребина,Amateur Open,1977-10-29,37,64.6,67.5,F,,,,,77.5,82.5,85,85,,,,,85,B,Raw,Yes,1
Yuliya Tairova,Юлия Таирова,Amateur Juniors 20-23,1992-10-27,22,69.9,75,F,,,,,50,55,-57.5,55,,,,,55,B,Raw,Yes,1
Maksim Abdiev,Максим Абдиев,Amateur Teen 18-19,1996-04-14,18,48.3,52,M,,,,,70,82.5,-90,82.5,,,,,82.5,B,Raw,Yes,1
Anton Popov,Антон Попов,Amateur Teen 18-19,1996-01-26,18,59.1,60,M,,,,,67.5,75,-77.5,75,,,,,75,B,Raw,Yes,1
Sergey Orekhov,Сергей Орехов,Amateur Masters 50-54,1962-04-08,52,59.2,60,M,,,,,-80,80,-82.5,80,,,,,80,B,Raw,Yes,1
Yuriy Bondarenko,Юрий Бондаренко,Amateur Teen 16-17,1997-10-24,17,67.5,67.5,M,,,,,100,107.5,110,110,,,,,110,B,Raw,Yes,1
Gevorg Aleksanyan,Геворг Алексанян,Amateur Teen 16-17,1998-02-20,16,66.7,67.5,M,,,,,90,97.5,-107.5,97.5,,,,,97.5,B,Raw,Yes,2
Kirill Bobkov,Кирилл Бобков,Amateur Teen 18-19,1995-05-21,19,66.1,67.5,M,,,,,-115,-115,-115,,,,,,,B,Raw,Yes,DQ
Andrey Kochergin,Андрей Кочергин,Amateur Open,1989-09-18,25,66.9,67.5,M,,,,,-67.5,70,-75,70,,,,,70,B,Raw,Yes,1
Kirill Pyltsov,Кирилл Пыльцов,Amateur Teen 13-15,1998-12-21,,72.8,75,M,,,,,85,90,-95,90,,,,,90,B,Raw,Yes,1
Aleksandr Kurbakov,Александр Курбаков,Amateur Teen 13-15,1998-12-01,,68.1,75,M,,,,,80,85,87.5,87.5,,,,,87.5,B,Raw,Yes,2
Dmitriy Levin,Дмитрий Левин,Amateur Teen 13-15,2000-04-14,14,74,75,M,,,,,50,60,65,65,,,,,65,B,Raw,Yes,3
Aleksandr Prokofev,Александр Прокофьев,Amateur Teen 18-19,1995-04-14,19,74.8,75,M,,,,,110,117.5,-122.5,117.5,,,,,117.5,B,Raw,Yes,1
Viktor Berezin,Виктор Березин,Amateur Juniors 20-23,1992-04-14,22,73.5,75,M,,,,,130,135,-140,135,,,,,135,B,Raw,Yes,1
Semen Kupin,Семен Купин,Amateur Juniors 20-23,1992-06-29,22,75,75,M,,,,,120,127.5,-130,127.5,,,,,127.5,B,Raw,Yes,2
Vyacheslav Orekhov,Вячеслав Орехов,Amateur Open,1985-06-11,29,73.8,75,M,,,,,150,155,-162.5,155,,,,,155,B,Raw,Yes,1
Vasiliy Efimov,Василий Ефимов,Amateur Open,1990-07-28,24,72.2,75,M,,,,,130,135,140,140,,,,,140,B,Raw,Yes,2
Oleg Buvashkin,Олег Бувашкин,Amateur Open,1978-10-17,36,74.2,75,M,,,,,107.5,112.5,-117.5,112.5,,,,,112.5,B,Raw,Yes,3
Marat Galyavetdinov,Марат Галяветдинов,Amateur Open,1984-05-05,30,73.6,75,M,,,,,90,95,-105,95,,,,,95,B,Raw,Yes,4
Dmitriy Zagrebin,Дмитрий Загребин,Amateur Teen 18-19,1996-07-28,18,82.4,82.5,M,,,,,120,127.5,132.5,132.5,,,,,132.5,B,Raw,Yes,1
Daniil Torgashkov,Даниил Торгашков,Amateur Teen 18-19,1995-04-04,19,78.1,82.5,M,,,,,117.5,127.5,130,130,,,,,130,B,Raw,Yes,2
Rinat Salikhov,Ринат Салихов,Amateur Teen 18-19,1995-02-13,19,78.9,82.5,M,,,,,-95,-100,100,100,,,,,100,B,Raw,Yes,3
Konstantin Balashov,Константин Балашов,Amateur Juniors 20-23,1993-06-03,21,77.1,82.5,M,,,,,140,-147.5,-147.5,140,,,,,140,B,Raw,Yes,1
Aleksey Nebykov,Алексей Небыков,Amateur Open,1966-03-19,48,81.8,82.5,M,,,,,150,162.5,165,165,,,,,165,B,Raw,Yes,1
Aleksandr Makarov,Александр Макаров,Amateur Open,1983-10-08,31,81,82.5,M,,,,,145,-152.5,152.5,152.5,,,,,152.5,B,Raw,Yes,2
Ramzan Saraliev,Рамзан Саралиев,Amateur Open,1990-10-21,24,80.2,82.5,M,,,,,135,-140,-145,135,,,,,135,B,Raw,Yes,3
Yakov Syromolotov,Яков Сыромолотов,Amateur Open,1988-04-26,26,80.4,82.5,M,,,,,-127.5,127.5,135,135,,,,,135,B,Raw,Yes,4
Aleksandr Mashtakov,Александр Маштаков,Amateur Open,1990-08-14,24,80.5,82.5,M,,,,,-130,130,-137.5,130,,,,,130,B,Raw,Yes,5
Aleksandr Kadadov,Александр Кададов,Amateur Open,1989-05-15,25,81.4,82.5,M,,,,,130,-137.5,-137.5,130,,,,,130,B,Raw,Yes,6
Aleksandr Bolynov,Александр Болынов,Amateur Teen 18-19,1995-05-18,19,84.2,90,M,,,,,125,132.5,137.5,137.5,,,,,137.5,B,Raw,Yes,1
Mikhail Moshkov,Михаил Мошков,Amateur Juniors 20-23,1992-10-28,22,87.6,90,M,,,,,-120,-120,120,120,,,,,120,B,Raw,Yes,1
Aleksey Zotov,Алексей Зотов,Amateur Open,1986-07-05,28,86.5,90,M,,,,,155,-160,160,160,,,,,160,B,Raw,Yes,1
Mikhail Kruglyy,Михаил Круглый,Amateur Open,1984-10-17,30,87.6,90,M,,,,,115,120,-132.5,120,,,,,120,B,Raw,Yes,2
Arman Sargsyan,Арман Саргсян,Amateur Teen 16-17,1997-01-03,17,98.4,100,M,,,,,135,-140,-140,135,,,,,135,B,Raw,Yes,1
Bogdan Nazarov,Богдан Назаров,Amateur Teen 16-17,1997-06-20,17,90.1,100,M,,,,,-100,-100,100,100,,,,,100,B,Raw,Yes,2
Oleg Kurtashkin,Олег Курташкин,Amateur Juniors 20-23,1992-05-15,22,95.4,100,M,,,,,145,150,-152.5,150,,,,,150,B,Raw,Yes,1
Gleb Shikhalov,Глеб Шихалов,Amateur Juniors 20-23,1992-07-24,22,98,100,M,,,,,-152.5,-152.5,-152.5,,,,,,,B,Raw,Yes,DQ
Pavel Trukhtanov,Павел Трухтанов,Amateur Open,1976-10-30,38,98.1,100,M,,,,,160,-165,-165,160,,,,,160,B,Raw,Yes,1
Aleksandr Zhukov,Александр Жуков,Amateur Open,1983-03-13,31,96.8,100,M,,,,,150,-155,,150,,,,,150,B,Raw,Yes,2
Boris Zasorin,Борис Засорин,Amateur Open,1980-12-29,,95.8,100,M,,,,,-115,-115,-115,,,,,,,B,Raw,Yes,DQ
Evgeniy Sokolov,Евгений Соколов,Amateur Open,1984-07-21,30,99.9,100,M,,,,,-155,-160,-162.5,,,,,,,B,Raw,Yes,DQ
Sergey Zakharov,Сергей Захаров,Amateur Masters 40-44,1971-07-08,43,95,100,M,,,,,165,-175,-175,165,,,,,165,B,Raw,Yes,1
Razmik Khudunts,Размик Худунц,Amateur Teen 18-19,1995-10-07,19,110,110,M,,,,,190,200,210,210,,,,,210,B,Raw,Yes,1
Vyacheslav Logashkin,Вячеслав Логашкин,Amateur Juniors 20-23,1991-08-08,23,105.4,110,M,,,,,187.5,195,202.5,202.5,,,,,202.5,B,Raw,Yes,1
Vyacheslav Logashkin,Вячеслав Логашкин,Amateur Open,1991-08-08,23,105.4,110,M,,,,,187.5,195,202.5,202.5,,,,,202.5,B,Raw,Yes,1
Sergey Efimov,Сергей Ефимов,Amateur Masters 40-44,1970-04-05,44,103.8,110,M,,,,,160,165,170,170,,,,,170,B,Raw,Yes,1
Egor Burdanov,Егор Бурданов,Amateur Open,1984-07-21,30,122,125,M,,,,,170,177.5,,177.5,,,,,177.5,B,Raw,Yes,1
Kamil Galiev,Камиль Галиев,Amateur Juniors 20-23,1994-05-01,20,73.1,75,M,,,,,137.5,147.5,150,150,,,,,150,B,Single-ply,Yes,1
Aleksey Zotov,Алексей Зотов,Amateur Open,1986-07-05,28,86.5,90,M,,,,,180,-190,,180,,,,,180,B,Single-ply,Yes,1
Oleg Pivovarov,Олег Пивоваров,Amateur Masters 50-54,1963-03-18,51,103.6,110,M,,,,,-192.5,192.5,200,200,,,,,200,B,Single-ply,Yes,1
Anna Mozhaeeva,Анна Можаеева,Amateur Teen 16-17,1997-09-24,17,50.2,52,F,,,,,,,,,60,-70,70,70,70,D,Raw,Yes,1
Oksana Novichkova,Оксана Новичкова,Amateur Open,1988-11-23,26,54.8,56,F,,,,,,,,,85,97.5,105,105,105,D,Raw,Yes,1
Artem Kulikov,Артем Куликов,Amateur Youth,2002-02-24,12,40,52,M,,,,,,,,,85,-92.5,92.5,92.5,92.5,D,Raw,Yes,1
Artem Popykin,Артем Попыкин,Amateur Teen 13-15,2000-04-14,14,58.3,60,M,,,,,,,,,110,120,-125,120,120,D,Raw,Yes,1
Ivan Ryazantsev,Иван Рязанцев,Amateur Juniors 20-23,1991-04-18,23,67.3,67.5,M,,,,,,,,,140,165,172.5,172.5,172.5,D,Raw,Yes,1
Vladimir Borisov,Владимир Борисов,Amateur Open,1978-05-11,36,65.8,67.5,M,,,,,,,,,180,190,195,195,195,D,Raw,Yes,1
Andrey Kochergin,Андрей Кочергин,Amateur Open,1989-05-27,25,66.8,67.5,M,,,,,,,,,125,135,-145,135,135,D,Raw,Yes,2
Kirill Pyltsov,Кирилл Пыльцов,Amateur Teen 13-15,1998-12-21,,72.8,75,M,,,,,,,,,-130,130,142.5,142.5,142.5,D,Raw,Yes,1
Dmitriy Levin,Дмитрий Левин,Amateur Teen 13-15,2000-04-14,14,74,75,M,,,,,,,,,80,95,110,110,110,D,Raw,Yes,2
Sergey Zotov,Сергей Зотов,Amateur Open,1987-05-11,27,74.8,75,M,,,,,,,,,190.0,-202.5,205.0,205.0,205,D,Raw,Yes,1
Artur Plaksin,Артур Плаксин,Amateur Open,1989-11-02,25,73.4,75,M,,,,,,,,,202.5,-210,-210,202.5,202.5,D,Raw,Yes,2
Denis Kolmaer,Денис Кольмаер,Amateur Open,1989-10-17,25,74.1,75,M,,,,,,,,,-180,180,202.5,202.5,202.5,D,Raw,Yes,3
Valeriy Yurin,Валерий Юрин,Amateur Open,1990-01-12,24,73.5,75,M,,,,,,,,,-185,185,-202.5,185,185,D,Raw,Yes,4
Denis Goncharov,Денис Гончаров,Amateur Teen 18-19,1996-11-19,18,79.9,82.5,M,,,,,,,,,200,215,-220,215,215,D,Raw,Yes,1
Daniil Torgashkov,Даниил Торгашков,Amateur Teen 18-19,1995-04-04,19,78.1,82.5,M,,,,,,,,,155,162.5,185,185,185,D,Raw,Yes,2
Oleg Trushin,Олег Трушин,Amateur Juniors 20-23,1993-04-14,21,75.3,82.5,M,,,,,,,,,180,-190,190,190,190,D,Raw,Yes,1
Aleksandr Makarov,Александр Макаров,Amateur Open,1983-10-08,31,81,82.5,M,,,,,,,,,220,235,,235,235,D,Raw,Yes,1
Ruslan Mitrofanov,Руслан Митрофанов,Amateur Juniors 20-23,1993-04-14,21,87.8,90,M,,,,,,,,,187.5,195,,195,195,D,Raw,Yes,1
Vladimir Epifanov,Владимир Епифанов,Amateur Open,1970-09-27,44,88.7,90,M,,,,,,,,,195,212.5,-222.5,212.5,212.5,D,Raw,Yes,1
Vladimir Epifanov,Владимир Епифанов,Amateur Masters 40-44,1970-09-27,44,88.6,90,M,,,,,,,,,195,212.5,-222.5,212.5,212.5,D,Raw,Yes,1
Vladimir Kessler,Владимир Кесслер,Amateur Teen 16-17,1998-02-03,16,95.3,100,M,,,,,,,,,130,,,130,130,D,Raw,Yes,1
Evgeniy Kopylov,Евгений Копылов,Amateur Masters 40-44,1973-01-02,41,98.6,100,M,,,,,,,,,205,217.5,-232.5,217.5,217.5,D,Raw,Yes,1
Dmitriy Rudnitskiy,Дмитрий Рудницкий,Amateur Juniors 20-23,1992-02-12,22,121.3,125,M,,,,,,,,,190,-215,,190,190,D,Raw,Yes,1
Andrey Rubtsov,Андрей Рубцов,Amateur Open,1981-09-24,33,116,125,M,,,,,,,,,155,165,175,175,175,D,Raw,Yes,1
Sergey Filin,Сергей Филин,Amateur Masters 45-49,1969-06-30,45,142.3,140+,M,,,,,,,,,150,160,170,170,170,D,Raw,Yes,1
Ivan Semenikhin,Иван Семенихин,Pro Juniors 20-23,1991-03-30,23,82.5,82.5,M,,,,,,,,,100,220,-235,220,220,D,Single-ply,No,1
Dmitriy Vorobev,Дмитрий Воробьев,Pro Teen 13-15,2000-04-14,14,61.7,67.5,M,,,,,,,,,130,140,150,150,150,D,Raw,No,1
Ilya Shcherbakov,Илья Щербаков,Pro Teen 16-17,1997-06-09,17,69.8,75,M,,,,,,,,,145,-165,-165,145,145,D,Raw,No,1
Aryan Afzalyar,Арьян Афзаляр,Pro Juniors 20-23,1993-03-13,21,80.1,82.5,M,,,,,,,,,235,255,-265,255,255,D,Raw,No,1
Evgeniy Gavrilenko,Евгений Гавриленко,Pro Open,1986-01-13,28,100,100,M,,,,,,,,,265,280,292.5,292.5,292.5,D,Raw,No,1
Aleksandr Mavrinskiy,Александр Мавринский,Pro Open,1982-11-22,32,92.6,100,M,,,,,,,,,265,277.5,,277.5,277.5,D,Raw,No,2
Ilya Klopkov,Илья Клопков,Pro Juniors 20-23,1994-05-03,20,105.2,110,M,,,,,,,,,260,285,,285,285,D,Raw,No,1
Ilya Klopkov,Илья Клопков,Pro Open,1994-05-03,20,105.2,110,M,,,,,,,,,260,285,,285,285,D,Raw,No,1
Veniamin Zverev,Вениамин Зверев,Pro Open,1984-11-20,30,107.5,110,M,,,,,,,,,270,-285,-285,270,270,D,Raw,No,2
Andrey Kiselev,Андрей Киселев,Pro Teen 16-17,1998-02-10,16,113,125,M,,,,,,,,,170,180,190,190,190,D,Raw,No,1
Emin Galib Ogly Mamedov,Емин Галиб Оглы Мамедов,Pro Open,1974-08-30,40,100,100,M,,,,,330,350,,350,,,,,350,B,Multi-ply,No,1
Sergey Antropov,Сергей Антропов,Pro Open,1975-04-23,39,98.4,100,M,,,,,210,220,235,235,,,,,235,B,Multi-ply,No,2
Emin Galib Ogly Mamedov,Емин Галиб Оглы Мамедов,Pro Masters 40-44,1974-08-30,40,100,100,M,,,,,330,350,,350,,,,,350,B,Multi-ply,No,1
Pavel Dvoryadkin,Павел Дворядкин,Pro Open,1986-07-17,28,82.5,82.5,M,,,,,200,215,-230,215,,,,,215,B,Single-ply,No,1
Ivan Semenikhin,Иван Семенихин,Pro Open,1991-03-30,23,82.2,82.5,M,,,,,-205,-205,-205,,,,,,,B,Single-ply,No,DQ
Dmitriy Zykov,Дмитрий Зыков,Pro Teen 13-15,1999-03-04,15,55.9,56,M,,,,,82.5,85,-87.5,85,,,,,85,B,Raw,No,1
Sergey Lobanov,Сергей Лобанов,Pro Teen 13-15,2001-04-14,13,56,56,M,,,,,40,-50,50,50,,,,,50,B,Raw,No,2
Sergey Zykov,Сергей Зыков,Pro Open,1975-09-25,39,66.2,67.5,M,,,,,115,117.5,-120,117.5,,,,,117.5,B,Raw,No,1
Andrey Skorikov,Андрей Скориков,Pro Juniors 20-23,1993-04-12,21,82,82.5,M,,,,,140,150,-155,150,,,,,150,B,Raw,No,1
Andrey Kruglov,Андрей Круглов,Pro Open,1988-03-01,26,82.4,82.5,M,,,,,155,165,170,170,,,,,170,B,Raw,No,1
Pavel Dvoryadkin,Павел Дворядкин,Pro Open,1986-07-17,28,82.5,82.5,M,,,,,-160,-170,170,170,,,,,170,B,Raw,No,2
Igor Puzikov,Игорь Пузиков,Pro Open,1978-06-01,36,82.2,82.5,M,,,,,130,-147.5,-147.5,130,,,,,130,B,Raw,No,3
Aleksey Zhurkov,Алексей Журков,Pro Juniors 20-23,1993-06-19,21,88.5,90,M,,,,,145,-157.5,-162.5,145,,,,,145,B,Raw,No,1
Ivan Doronin,Иван Доронин,Pro Open,1985-08-10,29,88.2,90,M,,,,,165,170,175,175,,,,,175,B,Raw,No,1
Anton Lapshin,Антон Лапшин,Pro Open,1980-03-19,34,89,90,M,,,,,-170,175,-180,175,,,,,175,B,Raw,No,2
Sergey Gusev,Сергей Гусев,Pro Masters 40-44,1974-01-11,40,83.9,90,M,,,,,-170,-170,170,170,,,,,170,B,Raw,No,1
Dmitriy Utushkin,Дмитрий Утушкин,Pro Juniors 20-23,1992-02-17,22,97.9,100,M,,,,,165,175,-190,175,,,,,175,B,Raw,No,1
Aleksandr Rubanov,Александр Рубанов,Pro Juniors 20-23,1991-08-18,23,97.1,100,M,,,,,-175,-175,-175,,,,,,,B,Raw,No,DQ
Aleksandr Borshchev,Александр Борщев,Pro Open,1986-03-24,28,97.9,100,M,,,,,185,195,200,200,,,,,200,B,Raw,No,1
Pavel Bochkarev,Павел Бочкарев,Pro Open,1986-12-30,,96,100,M,,,,,-190,190,-195,190,,,,,190,B,Raw,No,2
Aleksandr Katkov,Александр Катков,Pro Open,1983-01-19,31,93.3,100,M,,,,,170,180,-190,180,,,,,180,B,Raw,No,3
Igor Smirnov,Игорь Смирнов,Pro Open,1979-04-02,35,98.8,100,M,,,,,180,-190,-190,180,,,,,180,B,Raw,No,4
Sergey Serebryakov,Сергей Серебряков,Pro Open,1978-05-15,36,105.2,110,M,,,,,195,205,-215,205,,,,,205,B,Raw,No,1
Sergey Pimenov,Сергей Пименов,Pro Open,1982-12-18,,108.9,110,M,,,,,197.5,-200,,197.5,,,,,197.5,B,Raw,No,2
Evgeniy Arsentev,Евгений Арсентьев,Pro Open,1987-04-19,27,105.1,110,M,,,,,180,190,-200,190,,,,,190,B,Raw,No,3
Aleksey Maksimov,Алексей Максимов,Pro Open,1984-09-29,30,105.9,110,M,,,,,145,150,-155,150,,,,,150,B,Raw,No,4
Vladimir Varaksin,Владимир Вараксин,Pro Masters 40-44,1972-02-28,42,107.9,110,M,,,,,180,187.5,192.5,192.5,,,,,192.5,B,Raw,No,1
Viktor Khashov,Виктор Хашов,Pro Open,1989-12-18,,115.5,125,M,,,,,190,200,-207.5,200,,,,,200,B,Raw,No,1
Andrey Sharapov,Андрей Шарапов,Pro Open,1978-11-25,36,89.5,90,M,330,350,370,370,210,-240,-250,210,290,310,330,330,910,SBD,Multi-ply,No,1
Nikita Gulyaev,Никита Гуляев,Pro Juniors 20-23,1994-07-11,20,96.8,100,M,215,230,240,240,135,-145,,135,200,215,-225,215,590,SBD,Multi-ply,No,1
Dmitriy Zhudro,Дмитрий Жудро,Pro Open,1988-05-25,26,96.1,100,M,225,240,250,250,145,155,162.5,162.5,220,240,250,250,662.5,SBD,Multi-ply,No,1
Nataliya Koltunova,Наталия Колтунова,Pro Teen 13-15,1999-07-19,15,42.4,44,F,-35,35,-40,35,22.5,25,-27.5,25,60,65,-70,65,125,SBD,Raw,No,1
Alena Lapshina,Алена Лапшина,Pro Teen 13-15,1999-11-27,15,48,48,F,-40,40,45,45,25,-30,30,30,60,-70,-80,60,135,SBD,Raw,No,1
Elena Lutova,Елена Лутова,Pro Teen 13-15,1999-03-25,15,50.3,52,F,-50,-50,50,50,20,30,35,35,60,65,-90,65,150,SBD,Raw,No,1
Tatyana Aryukova,Татьяна Арюкова,Pro Teen 16-17,1997-05-05,17,55.3,56,F,-60,60,65,65,35,37.5,-40,37.5,70,-80,-90,70,172.5,SBD,Raw,No,1
Karen Badalov,Карен Бадалов,Pro Teen 13-15,1999-06-18,15,49.6,52,M,60,65,-70,65,60,65,70,70,100,105,-110,105,240,SBD,Raw,No,1
Nikolay Podlinov,Николай Подлинов,Pro Teen 13-15,2001-05-29,13,40,52,M,40,42.5,-45,42.5,25,30,-32.5,30,50,70,-72.5,70,142.5,SBD,Raw,No,2
Aleksandr Badalov,Александр Бадалов,Pro Teen 18-19,1996-08-28,18,51.3,52,M,80,-85,85,85,60,-65,65,65,130,-132.5,-132.5,130,280,SBD,Raw,No,1
David Bazarbaev,Давид Базарбаев,Pro Teen 18-19,1995-05-23,19,59.9,60,M,-80,85,90,90,70,85,90,90,150,160,170,170,350,SBD,Raw,No,1
Aleksey Sploshnov,Алексей Сплошнов,Pro Teen 18-19,1995-06-04,19,63.2,67.5,M,-95,-100,100,100,57.5,65,-72.5,65,115,125,132.5,132.5,297.5,SBD,Raw,No,1
Anton Nazarov,Антон Назаров,Pro Open,1984-01-20,30,80.5,82.5,M,210,225,230,230,175,185,-190,185,230,240,245,245,660,SBD,Raw,No,1
Konstantin Dyakonov,Константин Дьяконов,Pro Masters 50-54,1961-04-17,53,82,82.5,M,185,-190,,185,85,92.5,-100,92.5,-200,200,225,225,502.5,SBD,Raw,No,1
Artem Smirnov,Артем Смирнов,Pro Teen 18-19,1996-10-17,18,88.7,90,M,-200,210,220,220,110,-117.5,-117.5,110,245,-255,-255,245,575,SBD,Raw,No,1
Pavel Volodin,Павел Володин,Pro Open,1990-09-04,24,88.3,90,M,185,195,205,205,130,137.5,-140,137.5,230,240,250,250,592.5,SBD,Raw,No,1
Pavel Ivanov,Павел Иванов,Pro Juniors 20-23,1992-02-17,22,99.2,100,M,230,-250,250,250,160,170,-180,170,250,262.5,280,280,700,SBD,Raw,No,1
Andrey Kuzmichev,Андрей Кузмичев,Pro Juniors 20-23,1994-04-26,20,93.4,100,M,150,160,170,170,105,-112.5,-115,105,-170,190,-200,190,465,SBD,Raw,No,2
Pavel Ivanov,Павел Иванов,Pro Open,1992-02-17,22,99.2,100,M,230,-250,250,250,160,170,-180,170,250,262.5,280,280,700,SBD,Raw,No,1
Evgeniy Gavrilenko,Евгений Гавриленко,Pro Open,1986-01-13,28,100,100,M,205,220,232.5,232.5,155,170,175,175,275,290,-305,290,697.5,SBD,Raw,No,2
Sergey Makhrov,Сергей Махров,Pro Open,1957-02-02,57,94.2,100,M,190,205,210,210,135,-145,145,145,190,205,215,215,570,SBD,Raw,No,3
Sergey Makhrov,Сергей Махров,Pro Masters 55-59,1957-02-02,57,94.2,100,M,190,205,210,210,135,-145,145,145,190,205,215,215,570,SBD,Raw,No,1
Evgeniy Tsvetkov,Евгений Цветков,Pro Juniors 20-23,1994-06-13,20,109,110,M,230,240,-250,240,150,160,-170,160,250,260,-272.5,260,660,SBD,Raw,No,1
Ildar Yagudin,Ильдар Ягудин,Pro Juniors 20-23,1993-04-24,21,107.3,110,M,225,235,242.5,242.5,150,-160,160,160,230,-240,-240,230,632.5,SBD,Raw,No,2
Vadim Tairov,Вадим Таиров,Pro Open,1985-10-31,29,107.9,110,M,220,-230,-230,220,-130,130,140,140,210,230,-240,230,590,SBD,Raw,No,1
Vadim Kulikov,Вадим Куликов,Pro Masters 45-49,1967-02-18,47,105.1,110,M,235,250,-260,250,140,150,155,155,255,270,282.5,282.5,687.5,SBD,Raw,No,1
Mikhail Rodimtsev,Михаил Родимцев,Pro Open,1986-01-05,28,122.9,125,M,-270,-270,,,,,,,,,,,,SBD,Raw,No,DQ
