Name,Sex,BirthDate,Division,WeightClassKg,BodyweightKg,Squat1Kg,Squat2Kg,Squat3Kg,Squat4Kg,Best3SquatKg,Bench1Kg,Bench2Kg,Bench3Kg,Bench4Kg,Best3BenchKg,Deadlift1Kg,Deadlift2Kg,Deadlift3Kg,Deadlift4Kg,Best3DeadliftKg,TotalKg,Event,Tested,Equipment,Place
Svetlana Kumuts,F,1995-02-01,F_TR_3_AWPC,52,48.3,,,,,,67.5,72.5,-77.5,,72.5,,,,,,72.5,B,Yes,Raw,1
Anna Koshkina,F,1992-01-20,F_JR_AWPC,52,50.5,,,,,,52.5,-57.5,,,52.5,,,,,,52.5,B,Yes,Raw,1
Mariya Dyukova,F,1984-06-18,F_OR_AWPC,52,51.6,,,,,,50,55,57.5,,57.5,,,,,,57.5,B,Yes,Raw,1
Yelena Shelepova,F,1973-01-28,F_MR_1_AWPC,52,51.2,,,,,,62.5,-67.5,,,62.5,,,,,,62.5,B,Yes,Raw,1
Yuliya Dolgorukova,F,1979-11-28,F_OR_AWPC,56,55.4,,,,,,57.5,60,-62.5,,60,,,,,,60,B,Yes,Raw,1
Anna Grigoryeva,F,1984-03-17,F_OR_AWPC,75,73.5,,,,,,55,60,62.5,,62.5,,,,,,62.5,B,Yes,Raw,1
Maksim Akhiyarov,M,1998-02-17,M_TR_1_AWPC,52,50,,,,,,40,-50,-50,,40,,,,,,40,B,Yes,Raw,1
Konstantin Demidenko,M,1996-03-06,M_TR_2_AWPC,56,55.5,,,,,,70,75,-80,,75,,,,,,75,B,Yes,Raw,1
Ivan Butakov,M,1996-07-19,M_TR_2_AWPC,60,59.1,,,,,,75,80,-85,,80,,,,,,80,B,Yes,Raw,1
Marat Zanakhov,M,1989-12-14,M_JR_AWPC,60,60,,,,,,105,112.5,115,,115,,,,,,115,B,Yes,Raw,1
Ilya Shavkunov,M,1992-05-13,M_JR_AWPC,60,57.7,,,,,,80,82.5,-85,,82.5,,,,,,82.5,B,Yes,Raw,2
Yanis Kalaychev,M,1985-07-23,M_OR_AWPC,60,60,,,,,,140,160,165,170,165,,,,,,165,B,Yes,Raw,1
Linar Khayrullin,M,1986-11-12,M_OR_AWPC,60,59.8,,,,,,107.5,110,112.5,,112.5,,,,,,112.5,B,Yes,Raw,2
Andrey Godovalov,M,1996-11-05,M_TR_2_AWPC,67.5,65.4,,,,,,120,125,-127.5,,125,,,,,,125,B,Yes,Raw,1
Artem Zelenin,M,1996-09-08,M_TR_2_AWPC,67.5,64.3,,,,,,102.5,107.5,-110,,107.5,,,,,,107.5,B,Yes,Raw,2
Yevgeniy Aspidov,M,1993-09-09,M_TR_3_AWPC,67.5,66.6,,,,,,-130,132.5,135,,135,,,,,,135,B,Yes,Raw,1
Renat Khabibullin,M,1984-06-07,M_OR_AWPC,67.5,65.8,,,,,,-120,122.5,-125,,122.5,,,,,,122.5,B,Yes,Raw,2
Denis Yakovlev,M,1989-04-23,M_JR_AWPC,67.5,66.7,,,,,,115,120,-125,,120,,,,,,120,B,Yes,Raw,1
Aleksandr Gorkun,M,1992-07-04,M_JR_AWPC,67.5,63.9,,,,,,107.5,112.5,117.5,,117.5,,,,,,117.5,B,Yes,Raw,2
Aleksandr Gorkun,M,1992-07-04,M_JR_AWPC,67.5,63.9,,,,,,107.5,112.5,,,112.5,,,,,,112.5,B,Yes,Raw,3
Ayvar Baymagambetov,M,1991-10-11,M_JR_AWPC,67.5,64.6,,,,,,102.5,107.5,-110,,107.5,,,,,,107.5,B,Yes,Raw,4
Aleksey Solovey,M,1989-05-11,M_JR_AWPC,67.5,67,,,,,,-107.5,107.5,-110,,107.5,,,,,,107.5,B,Yes,Raw,5
Ilya Nikitin,M,1988-12-05,M_OR_AWPC,67.5,66.5,,,,,,-115,125,130,,130,,,,,,130,B,Yes,Raw,1
Yevgeniy Melnikov,M,1996-05-02,M_TR_2_AWPC,75,72.5,,,,,,90,95,-100,,95,,,,,,95,B,Yes,Raw,1
Aleksandr Kiryanov,M,1996-11-27,M_TR_2_AWPC,75,72.8,,,,,,95,-100,-100,,95,,,,,,95,B,Yes,Raw,2
Kirill Mikhnyuk,M,1994-10-15,M_TR_3_AWPC,75,73.9,,,,,,-145,145,147.5,,147.5,,,,,,147.5,B,Yes,Raw,1
Yaroslav Yasas,M,1992-06-19,M_JR_AWPC,75,73.8,,,,,,125,130,-135,,130,,,,,,130,B,Yes,Raw,1
Leonid Sharkov,M,1991-11-17,M_JR_AWPC,75,73.3,,,,,,120,-127.5,-127.5,,120,,,,,,120,B,Yes,Raw,2
Sergey Faizov,M,1990-11-30,M_JR_AWPC,75,73.3,,,,,,110,115,117.5,,117.5,,,,,,117.5,B,Yes,Raw,3
Fedor Telminov,M,1992-02-10,M_JR_AWPC,75,72.9,,,,,,100,-105,-107.5,,100,,,,,,100,B,Yes,Raw,4
Vasiliy Nikolayev,M,1987-11-15,M_OR_AWPC,75,74.4,,,,,,120,135,145,,145,,,,,,145,B,Yes,Raw,1
Ilya Makarov,M,1987-05-21,M_OR_AWPC,75,73.6,,,,,,127.5,135,140,,140,,,,,,140,B,Yes,Raw,2
Rustam Krapivin,M,1984-06-14,M_OR_AWPC,75,73.7,,,,,,117.5,-122.5,122.5,,122.5,,,,,,122.5,B,Yes,Raw,3
Aleksandr Spitsyn,M,1988-02-03,M_OR_AWPC,75,73.9,,,,,,107.5,-117.5,117.5,,117.5,,,,,,117.5,B,Yes,Raw,4
Yakov Yarantsev,M,1985-12-20,M_OR_AWPC,75,73.3,,,,,,110,115,-117.5,,115,,,,,,115,B,Yes,Raw,5
Dmitriy Stulov,M,1982-10-03,M_OR_AWPC,75,74,,,,,,110,-117.5,-117.5,,110,,,,,,110,B,Yes,Raw,6
Nikolay Malakhov,M,1986-08-07,M_OR_AWPC,75,74.3,,,,,,-100,105,-112.5,,105,,,,,,105,B,Yes,Raw,7
Aleksandr Katyshev,M,1985-02-01,M_OR_AWPC,75,71.3,,,,,,-137.5,-140,-140,,,,,,,,,B,Yes,Raw,DQ
Vyacheslav Mishchenko,M,1972-09-21,M_MR_1_AWPC,75,74.2,,,,,,110,117.5,122.5,,122.5,,,,,,122.5,B,Yes,Raw,1
Oleg Shchegolikhin,M,1967-02-25,M_MR_2_AWPC,75,72.8,,,,,,120,127.5,-135,,127.5,,,,,,127.5,B,Yes,Raw,1
Gennadiy Pereladov,M,1936-06-06,M_MR_8_AWPC,75,74.9,,,,,,80,85,90,,90,,,,,,90,B,Yes,Raw,1
Vitaliy Akinshin,M,1995-12-10,M_TR_2_AWPC,82.5,78.7,,,,,,-120,120,127.5,,127.5,,,,,,127.5,B,Yes,Raw,1
Sergey Krapivin,M,1996-06-12,M_TR_2_AWPC,82.5,81.9,,,,,,100,110,115,,115,,,,,,115,B,Yes,Raw,2
Vitaliy Burkov,M,1996-12-27,M_TR_2_AWPC,82.5,78.1,,,,,,105,110,112.5,,112.5,,,,,,112.5,B,Yes,Raw,3
Pavel Yedrenkin,M,1992-03-07,M_JR_AWPC,82.5,81.2,,,,,,130,140,145,,145,,,,,,145,B,Yes,Raw,1
Aleksandr Popov,M,1990-10-24,M_JR_AWPC,82.5,75.6,,,,,,120,127.5,-130,,127.5,,,,,,127.5,B,Yes,Raw,2
Artush Karapetyan,M,1991-10-20,M_JR_AWPC,82.5,82.4,,,,,,-120,-120,-120,,,,,,,,,B,Yes,Raw,DQ
Aleksandr Alyayev,M,1984-07-17,M_OR_AWPC,82.5,80.3,,,,,,160,167.5,-172.5,,167.5,,,,,,167.5,B,Yes,Raw,1
Valeriy Kleshnya,M,1981-02-21,M_OR_AWPC,82.5,81.8,,,,,,145,150,-152.5,,150,,,,,,150,B,Yes,Raw,2
Oleg Pushenkov,M,1980-08-24,M_OR_AWPC,82.5,80.5,,,,,,127.5,145,-150,,145,,,,,,145,B,Yes,Raw,3
Maksim Pervushin,M,1987-05-22,M_OR_AWPC,82.5,80.4,,,,,,135,-145,-145,,135,,,,,,135,B,Yes,Raw,4
Dmitriy Churkin,M,1988-09-18,M_OR_AWPC,82.5,81.2,,,,,,122.5,127.5,130,,130,,,,,,130,B,Yes,Raw,5
Eldar Tsoriyev,M,1946-02-17,M_MR_6_AWPC,82.5,82.2,,,,,,125,130,136,,136,,,,,,136,B,Yes,Raw,1
Ilya Galkin,M,1995-04-07,M_TR_2_AWPC,90,83.5,,,,,,-130,,,,,,,,,,,B,Yes,Raw,DQ
Vadim Bezdykhanyuk,M,1993-06-08,M_TR_3_AWPC,90,86.9,,,,,,127.5,132.5,-140,,132.5,,,,,,132.5,B,Yes,Raw,1
Anatoliy Alyayev,M,1984-07-17,M_OR_AWPC,90,87.7,,,,,,180,190,-195,,190,,,,,,190,B,Yes,Raw,1
Aleksandr Kozhevin,M,1979-05-18,M_OR_AWPC,90,89.7,,,,,,160,167.5,-170,,167.5,,,,,,167.5,B,Yes,Raw,2
Aleksey Shchurov,M,1980-06-23,M_OR_AWPC,90,88.3,,,,,,145,152.5,155,,155,,,,,,155,B,Yes,Raw,3
Aleksey Mikov,M,1978-04-26,M_OR_AWPC,90,87.2,,,,,,132.5,-152.5,152.5,,152.5,,,,,,152.5,B,Yes,Raw,4
Marat Yusupov,M,1984-12-24,M_OR_AWPC,90,89.3,,,,,,135,145,152.5,,152.5,,,,,,152.5,B,Yes,Raw,5
Timur Bocharov,M,1980-10-09,M_OR_AWPC,90,89.4,,,,,,140,-155,-155,,140,,,,,,140,B,Yes,Raw,6
Nikita Khramov,M,1981-07-14,M_OR_AWPC,90,89.9,,,,,,140,-155,-155,,140,,,,,,140,B,Yes,Raw,7
Maksim Khramtsov,M,1986-01-09,M_OR_AWPC,90,87.6,,,,,,120,130,135,,135,,,,,,135,B,Yes,Raw,8
Sergey Kolosov,M,1988-11-07,M_OR_AWPC,90,84.7,,,,,,-130,-132.5,132.5,,132.5,,,,,,132.5,B,Yes,Raw,9
Aleksandr Lysikov,M,1985-08-14,M_OR_AWPC,90,88.1,,,,,,125,132.5,-137.5,,132.5,,,,,,132.5,B,Yes,Raw,10
Sergey Kharin,M,1981-06-01,M_OR_AWPC,90,87.7,,,,,,110,-120,120,,120,,,,,,120,B,Yes,Raw,11
Vitaliy Pushkarev,M,1983-05-23,M_OR_AWPC,90,89,,,,,,-115,115,-132.5,,115,,,,,,115,B,Yes,Raw,12
Aleksey Babkin,M,1981-12-05,M_OR_AWPC,90,88.9,,,,,,-140,,,,,,,,,,,B,Yes,Raw,DQ
Andrey Raskovalov,M,1984-04-30,M_OR_AWPC,90,89,,,,,,-130,,,,,,,,,,,B,Yes,Raw,DQ
Ivan Kazantsev,M,1967-09-29,M_MR_2_AWPC,90,89.4,,,,,,-145,,,,,,,,,,,B,Yes,Raw,DQ
Vladimir Lomatskiy,M,1955-06-26,M_MR_4_AWPC,90,87.9,,,,,,120,-137.5,-137.5,,120,,,,,,120,B,Yes,Raw,1
Ilya Bulychev,M,1996-06-20,M_TR_2_AWPC,100,95.7,,,,,,102.5,107.5,-112.5,,107.5,,,,,,107.5,B,Yes,Raw,1
Mikhail Neprintsev,M,1986-07-01,M_OR_AWPC,100,97.5,,,,,,185,192.5,,,192.5,,,,,,192.5,B,Yes,Raw,1
Mikhail Vinokurov,M,1983-03-28,M_OR_AWPC,100,96.5,,,,,,-170,175,180,,180,,,,,,180,B,Yes,Raw,2
Dmitriy Karelin,M,1968-09-27,M_OR_AWPC,100,99.8,,,,,,170,177.5,-182.5,,177.5,,,,,,177.5,B,Yes,Raw,3
Yuriy Makhmudov,M,1978-04-26,M_OR_AWPC,100,94,,,,,,150,157.5,162.5,,162.5,,,,,,162.5,B,Yes,Raw,4
Aleksandr Dragilev,M,1987-05-18,M_OR_AWPC,100,96,,,,,,-150,-150,150,,150,,,,,,150,B,Yes,Raw,5
Vladimir Shmidt,M,1985-05-06,M_OR_AWPC,100,94.9,,,,,,130,140,-145,,140,,,,,,140,B,Yes,Raw,6
Yevgeniy Batanov,M,1981-01-26,M_OR_AWPC,100,99.2,,,,,,140,-162.5,-162.5,,140,,,,,,140,B,Yes,Raw,7
Andrey Oberyukhtin,M,1987-10-05,M_OR_AWPC,100,97.5,,,,,,125,-135,135,,135,,,,,,135,B,Yes,Raw,8
Igor Khramtsov,M,1973-04-17,M_OR_AWPC,100,98.7,,,,,,130,-140,-140,,130,,,,,,130,B,Yes,Raw,9
Ivan Dobrynin,M,1982-05-22,M_OR_AWPC,100,99.7,,,,,,-150,,,,,,,,,,,B,Yes,Raw,DQ
Dmitriy Karelin,M,1968-09-27,M_MR_1_AWPC,100,99.8,,,,,,170,177.5,-182.5,,177.5,,,,,,177.5,B,Yes,Raw,1
Vladimir Beloglazov,M,1969-02-20,M_MR_1_AWPC,100,100,,,,,,160,172.5,177.5,,177.5,,,,,,177.5,B,Yes,Raw,2
Viktor Permyakov,M,1966-08-16,M_MR_2_AWPC,100,98.3,,,,,,140,-162.5,-162.5,,140,,,,,,140,B,Yes,Raw,1
Petr Komarov,M,1958-10-06,M_MR_3_AWPC,100,96.7,,,,,,-165,-165,165,,165,,,,,,165,B,Yes,Raw,1
Anatoliy Gorelov,M,1962-01-24,M_MR_3_AWPC,100,97.5,,,,,,122.5,127.5,137.5,,137.5,,,,,,137.5,B,Yes,Raw,2
Ivan Telepov,M,1997-06-11,M_TR_1_AWPC,110,101.5,,,,,,65,75,80,,80,,,,,,80,B,Yes,Raw,1
Vladimir Moshkovskiy,M,1973-02-01,M_OR_AWPC,110,109.4,,,,,,180,187.5,-195,,187.5,,,,,,187.5,B,Yes,Raw,1
Igor Karapuzov,M,1962-07-29,M_OR_AWPC,110,102.6,,,,,,157.5,167.5,175,,175,,,,,,175,B,Yes,Raw,2
Eduard Churakov,M,1977-02-09,M_OR_AWPC,110,109.5,,,,,,165,175,-180,,175,,,,,,175,B,Yes,Raw,3
Aleksey Lepekhov,M,1978-05-08,M_OR_AWPC,110,105.6,,,,,,147.5,155,160,,160,,,,,,160,B,Yes,Raw,4
Vitaliy Yakovchikov,M,1976-06-12,M_OR_AWPC,110,108.5,,,,,,150,-155,,,150,,,,,,150,B,Yes,Raw,5
Vladimir Moshkovskiy,M,1973-02-01,M_MR_1_AWPC,110,109.4,,,,,,180,187.5,-195,,187.5,,,,,,187.5,B,Yes,Raw,1
Aleksandr Belyayev,M,1972-09-29,M_MR_1_AWPC,110,101.8,,,,,,162.5,172.5,185,,185,,,,,,185,B,Yes,Raw,2
Dmitriy Kosarev,M,1972-07-16,M_MR_1_AWPC,110,108.3,,,,,,170,180,-185,,180,,,,,,180,B,Yes,Raw,3
Igor Karapuzov,M,1962-07-29,M_MR_3_AWPC,110,102.6,,,,,,157.5,167.5,175,,175,,,,,,175,B,Yes,Raw,1
Andrey Sharov,M,1974-02-07,M_OR_AWPC,125,122.5,,,,,,200,210,218,,218,,,,,,217.5,B,Yes,Raw,1
Aleksey Brednev,M,1969-05-01,M_MR_1_AWPC,125,115.4,,,,,,152.5,157.5,,,157.5,,,,,,157.5,B,Yes,Raw,1
Anatoliy Lukyanov,M,1949-11-21,M_MR_5_AWPC,125,116.9,,,,,,130,140,145,,145,,,,,,145,B,Yes,Raw,1
Sergey Khudyakov,M,1975-09-11,M_OR_AWPC,140,134.2,,,,,,230,240,-245,,240,,,,,,240,B,Yes,Raw,1
Anton Genkin,M,1976-06-05,M_OR_AWPC,140,134.1,,,,,,-200,210,-220,,210,,,,,,210,B,Yes,Raw,2
Andrey Larin,M,1986-01-11,M_OR_AWPC,140,137.5,,,,,,-180,182.5,192.5,,192.5,,,,,,192.5,B,Yes,Raw,3
Yevgeniy Kardapoltsev,M,1979-01-03,M_OR_AWPC,140,131,,,,,,-165,165,182.5,,182.5,,,,,,182.5,B,Yes,Raw,4
Olga Nazemnova,F,1997-01-24,F_TES_2_AWPC,44,40,,,,,,35,40,42.5,45,42.5,,,,,,42.5,B,Yes,Single-ply,1
Anna Shuklina,F,1999-08-15,F_TES_1_AWPC,52,52,,,,,,50,55,62.5,65,62.5,,,,,,62.5,B,Yes,Single-ply,1
Vyacheslav Kusochkin,M,1997-08-05,M_TES_1_AWPC,60,59.5,,,,,,100,-110,-115,,100,,,,,,100,B,Yes,Single-ply,1
Sergey Lysyakov,M,1980-04-17,M_OES_AWPC,67.5,67.1,,,,,,140,145,-152.5,,145,,,,,,145,B,Yes,Single-ply,1
Dmitriy Bykovskiy,M,1987-07-09,M_OES_AWPC,67.5,67.3,,,,,,125,-132.5,132.5,,132.5,,,,,,132.5,B,Yes,Single-ply,2
Aleksey Sarvayev,M,1986-01-17,M_OES_AWPC,67.5,65.6,,,,,,-120,125,-132.5,,125,,,,,,125,B,Yes,Single-ply,3
Aleksandr Kopytov,M,1996-12-18,M_TES_2_AWPC,82.5,81.9,,,,,,120,-127.5,127.5,,127.5,,,,,,127.5,B,Yes,Single-ply,1
Sergey Sharonov,M,1989-07-13,M_JES_AWPC,82.5,78.6,,,,,,150,160,170,,170,,,,,,170,B,Yes,Single-ply,1
Linar Dautov,M,1987-02-04,M_OES_AWPC,82.5,82,,,,,,180,190,200,,200,,,,,,200,B,Yes,Single-ply,1
Stas Nevezhin,M,1988-07-25,M_OES_AWPC,90,89.1,,,,,,170,-180,-180,,170,,,,,,170,B,Yes,Single-ply,1
Marsel Khusainov,M,1984-07-28,M_OES_AWPC,90,87.6,,,,,,165,-175,-175,,165,,,,,,165,B,Yes,Single-ply,2
Viktor Titov,M,1972-11-26,M_MES_1_AWPC,90,89.9,,,,,,190,-200,-200,,190,,,,,,190,B,Yes,Single-ply,1
Mikhail Neprintsev,M,1986-07-01,M_OES_AWPC,100,97.5,,,,,,215,-247.5,247.5,,247.5,,,,,,247.5,B,Yes,Single-ply,1
Andrey Dobryakov,M,1975-04-27,M_OES_AWPC,100,98.9,,,,,,225,235,-247.5,,235,,,,,,235,B,Yes,Single-ply,2
Andrey Tikhomirov,M,1978-09-22,M_OES_AWPC,100,95.3,,,,,,220,230,-245,,230,,,,,,230,B,Yes,Single-ply,3
Kirill Fedoseyev,M,1992-02-23,M_JES_AWPC,110,108.8,,,,,,190,197.5,205,,205,,,,,,205,B,Yes,Single-ply,1
Aleksandr Portnoy,M,1987-12-13,M_OES_AWPC,110,101.4,,,,,,180,-190,190,,190,,,,,,190,B,Yes,Single-ply,1
Valeriy Zaytsev,M,1976-01-22,M_OES_AWPC,110,108.6,,,,,,165,175,-185,,175,,,,,,175,B,Yes,Single-ply,2
Yevgeniy Zuyev,M,1985-07-11,M_OEM_AWPC,75,73.5,,,,,,-190,-190,-190,,,,,,,,,B,Yes,Multi-ply,DQ
Pavel Yagovkin,M,1959-07-27,M_OEM_AWPC,125,116.7,,,,,,-260,265,-270,,265,,,,,,265,B,Yes,Multi-ply,1
Pavel Yagovkin,M,1959-07-27,M_MEM_3_AWPC,125,116.7,,,,,,-260,265,-270,,265,,,,,,265,B,Yes,Multi-ply,1
Yuriy Polyakov,M,1982-04-27,M_OEM_AWPC,140,134.2,,,,,,-295,-295,-305,,,,,,,,,B,Yes,Multi-ply,DQ
Yekaterinna Pyatynina,F,1995-06-12,F_TR_2_AWPC,48,47.1,65,70,-72.5,,70,35,40,42.5,,42.5,77.5,82.5,87.5,,87.5,200,SBD,Yes,Raw,1
Renata Bakiyeva,F,1988-07-03,F_OR_AWPC,48,47.8,55,60,65,,65,35,40,45,,45,65,70,-75,,70,180,SBD,Yes,Raw,1
Olga Sibiryakova,F,1995-06-15,F_TR_2_AWPC,52,50.2,75,80,-85,,80,37.5,42.5,45,,45,100,107.5,-115,,107.5,232.5,SBD,Yes,Raw,1
Linara Galiullina,F,1988-09-25,F_OR_AWPC,56,54.6,82.5,87.5,90,,90,42.5,45,47.5,,47.5,100,105,110,,110,247.5,SBD,Yes,Raw,1
Lyudmila Kivrina,F,1981-03-27,F_OR_AWPC,60,57.6,70,75,80,,80,37.5,42.5,45,,45,90,100,105,,105,230,SBD,Yes,Raw,1
Olga Dolinskaya,F,1981-03-11,F_OR_AWPC,60,57.9,60,-70,-75,,60,40,-50,-52.5,,40,90,95,105,,105,205,SBD,Yes,Raw,2
Yekaterina Kustodyncheva,F,1986-03-14,F_OR_AWPC,67.5,66.6,100,110,-115,,110,60,65,-70,,65,130,-140,,,130,305,SBD,Yes,Raw,1
Marina Slesarenko,F,1997-04-05,F_TR_1_AWPC,75,70.6,70,75,80,,80,42.5,45,47.5,,47.5,90,95,-100,,95,222.5,SBD,Yes,Raw,1
Mariya Pertsel,F,1982-12-12,F_OR_AWPC,90,84.5,75,77.5,,,77.5,40,42.5,45,,45,95,-102.5,-102.5,,95,217.5,SBD,Yes,Raw,1
Sergey Konovalov #3,M,1997-07-03,M_TR_1_AWPC,52,50.6,90,100,110,,110,75,82.5,-85,,82.5,130,140,150,,150,342.5,SBD,Yes,Raw,1
Sergey Neustroyev,M,2001-03-01,M_YR_AWPC,67.5,66.2,60,70,75,,75,45,50,-55,,50,90,100,-110,,100,225,SBD,Yes,Raw,1
Artem Zelenin,M,1996-09-08,M_TR_2_AWPC,67.5,64.3,90,100,-105,,100,90,97.5,105,,105,100,110,120,,120,325,SBD,Yes,Raw,1
Ivan Karkavin,M,1991-02-13,M_JR_AWPC,67.5,66.2,105,110,-115,,110,85,95,100,,100,130,145,160,,160,370,SBD,Yes,Raw,1
Igor Filatov,M,1979-03-14,M_OR_AWPC,67.5,65.6,140,145,150,,150,105,110,115,,115,170,180,185,,185,450,SBD,Yes,Raw,1
Renat Khabibullin,M,1984-06-07,M_OR_AWPC,67.5,65.8,-140,-150,-150,,,-120,,,,,-155,,,,,,SBD,Yes,Raw,DQ
Dmitriy Mitin,M,1992-02-18,M_JR_AWPC,75,73.4,160,170,175,,175,110,115,120,,120,195,207.5,220,,220,515,SBD,Yes,Raw,1
Yaroslav Yasas,M,1992-06-19,M_JR_AWPC,75,73.8,150,155,160,,160,-125,125,-130,,125,180,190,195,,195,480,SBD,Yes,Raw,2
Mikhail Gridyayev,M,1990-09-14,M_JR_AWPC,75,72.8,160,165,-170,,165,102.5,105,107.5,,107.5,165,175,185,,185,457.5,SBD,Yes,Raw,3
Konstantin Sidenkov,M,1967-10-30,M_MR_2_AWPC,75,71.6,120,130,140,,140,115,-120,-120,,115,155,170,-175,,170,425,SBD,Yes,Raw,1
Konstantin Sgibnev,M,1997-12-30,M_TR_1_AWPC,82.5,80,140,150,160,,160,90,110,115,,115,165,175,185,,185,460,SBD,Yes,Raw,1
Igor Zuyev,M,1991-04-17,M_JR_AWPC,82.5,82.5,180,190,-195,,190,130,-137.5,-137.5,,130,220,235,,,235,555,SBD,Yes,Raw,1
Aleksey Irodovskiy,M,1992-03-30,M_JR_AWPC,82.5,77.4,170,175,180,,180,100,105,-110,,105,180,190,-200,,190,475,SBD,Yes,Raw,2
Nikolay Krasikov,M,1987-10-29,M_OR_AWPC,82.5,76.7,-115,-115,120,,120,80,85,-90,,85,140,147.5,152.5,,152.5,357.5,SBD,Yes,Raw,1
Oleg Pushenkov,M,1980-08-24,M_OR_AWPC,82.5,80.5,-175,-175,-175,,,-140,,,,,-175,,,,,,SBD,Yes,Raw,DQ
Aleksandr Foshchanka,M,1985-04-22,M_OR_AWPC,82.5,79.5,-160,,,,,-110,,,,,-160,,,,,,SBD,Yes,Raw,DQ
Grigoriy Daragan,M,1993-09-29,M_TR_3_AWPC,90,87.6,130,140,150,,150,95,-97.5,,,95,160,170,-190,,170,415,SBD,Yes,Raw,1
Semen Lazarenko,M,1988-03-02,M_OR_AWPC,90,88.6,185,195,200,,200,145,152.5,-155,,152.5,210,217.5,-225,,217.5,570,SBD,Yes,Raw,1
Sergey Nechayev,M,1971-07-20,M_OR_AWPC,90,90,170,180,-185,,180,145,152.5,157.5,,157.5,185,195,-202.5,,195,532.5,SBD,Yes,Raw,2
Dmitriy Gushchin,M,1985-08-27,M_OR_AWPC,90,89,140,150,155,,155,120,125,-130,,125,210,220,230,,230,510,SBD,Yes,Raw,3
Omar Nishonbayev,M,1984-09-01,M_OR_AWPC,90,89.2,155,-160,160,,160,122.5,125,-127.5,,125,190,200,205,,205,490,SBD,Yes,Raw,4
Sergey Nechayev,M,1971-07-20,M_MR_1_AWPC,90,89.6,170,180,-185,,180,145,152.5,157.5,,157.5,185,195,-202.5,,195,532.5,SBD,Yes,Raw,1
Aleksandr Podryadov,M,1953-03-04,M_MR_4_AWPC,90,86.6,150,-170,170,,170,90,-110,110,,110,150,-202.5,,,150,430,SBD,Yes,Raw,1
Pavel Galuts,M,1980-06-05,M_OR_AWPC,100,100,220,230,235,,235,130,140,145,,145,220,240,-250,,240,620,SBD,Yes,Raw,1
Sergey Permyakov,M,1981-12-19,M_OR_AWPC,100,99.2,195,205,210,,210,115,122.5,127.5,,127.5,230,240,252.5,,252.5,590,SBD,Yes,Raw,2
Vasiliy Trepach,M,1976-04-29,M_OR_AWPC,100,99.9,200,210,215,,215,130,140,145,,145,210,222.5,230,,230,590,SBD,Yes,Raw,3
Anatoliy Kirichenko,M,1949-02-10,M_MR_5_AWPC,100,99.2,162.5,175,177.5,,177.5,102.5,107.5,110,,110,-172.5,180,192.5,,192.5,480,SBD,Yes,Raw,1
Roman Demin,M,1980-04-24,M_OR_AWPC,110,108.4,230,240,,,240,160,172.5,,,172.5,260,280,,,280,692.5,SBD,Yes,Raw,1
Aleksandr Marfitsyn,M,1982-08-23,M_OR_AWPC,110,109,225,235,240,,240,140,145,150,,150,260,275,282.5,,282.5,672.5,SBD,Yes,Raw,2
Anton Lapin,M,1985-03-16,M_OR_AWPC,110,105.8,180,190,200,,200,150,160,165,,165,220,230,240,,240,605,SBD,Yes,Raw,3
Vladimir Moshkovskiy,M,1973-02-01,M_MR_1_AWPC,110,109.4,130,-150,150,,150,170,180,190,,190,150,170,190,,190,530,SBD,Yes,Raw,1
Vladimir Lopin,M,1983-01-21,M_OR_AWPC,125,123.5,-290,-290,290,,290,190,200,205,,205,290,300,-310,,300,795,SBD,Yes,Raw,1
Asel Ustyuzhaninova,M,1996-12-01,M_TES_2_AWPC,60,59.9,80,-90,90,,90,40,45,50,,50,90,100,-110,,100,240,SBD,Yes,Single-ply,1
Dmitriy Novoselov,M,1999-09-21,M_TES_1_AWPC,56,53.5,90,100,110,,110,65,70,75,,75,90,105,115,,115,300,SBD,Yes,Single-ply,1
Ramil Galiullin,M,1994-08-13,M_TES_3_AWPC,75,72.5,180,-190,195,,195,85,95,105,,105,165,180,187.5,,187.5,487.5,SBD,Yes,Single-ply,1
Aleksandr Kalinin,M,1975-05-07,M_OES_AWPC,100,98.6,200,-215,220,,220,140,150,-160,,150,200,240,-250,,240,610,SBD,Yes,Single-ply,1
Roman Demin,M,1980-04-24,M_OES_AWPC,110,108.4,300,320,,,320,200,210,220,,220,280,300,-320,,300,840,SBD,Yes,Single-ply,1
Ilya Moshkovtsev,M,1987-03-23,M_OES_AWPC,110,105.9,260,270,,,270,180,190,200,,200,250,-270,270,,270,740,SBD,Yes,Single-ply,2
Irina Tyurina,F,1984-01-01,F_OR_AWPC,56,55.6,,,,,,,,,,,80,97.5,105,,105,105,D,Yes,Raw,1
Yekaterina Kustodyncheva,F,1986-03-14,F_OR_AWPC,67.5,66.6,,,,,,,,,,,120,125,130,,130,130,D,Yes,Raw,1
Aleksandr Biykov,M,1996-08-05,M_TR_2_AWPC,56,54.7,,,,,,,,,,,-142.5,142.5,-162.5,,142.5,142.5,D,Yes,Raw,1
Ilya Grigoryev,M,1995-01-25,M_TR_3_AWPC,56,54.9,,,,,,,,,,,142.5,150,-155,,150,150,D,Yes,Raw,1
Rustam Bikbayev,M,1990-06-14,M_JR_AWPC,60,56.8,,,,,,,,,,,172.5,192.5,-200,,192.5,192.5,D,Yes,Raw,1
Aleksandr Gorkun,M,1992-07-04,M_JR_AWPC,67.5,63.9,,,,,,,,,,,165,175,-190,,175,175,D,Yes,Raw,1
Dmitriy Stulov,M,1982-10-03,M_OR_AWPC,75,74,,,,,,,,,,,185,-202.5,205,,205,205,D,Yes,Raw,1
Danil Imayev,M,1986-05-31,M_OR_AWPC,82.5,81.5,,,,,,,,,,,190,215,222.5,,222.5,222.5,D,Yes,Raw,1
Yevgeniy Blinkov,M,1987-09-03,M_OR_AWPC,90,89.9,,,,,,,,,,,237.5,255,-267.5,,255,255,D,Yes,Raw,1
Aleksey Nesterov,M,1980-05-07,M_OR_AWPC,90,87.9,,,,,,,,,,,210,222.5,230,,230,230,D,Yes,Raw,2
Ivan Khorev,M,1983-12-18,M_OR_AWPC,90,85.1,,,,,,,,,,,-195,205,210,,210,210,D,Yes,Raw,3
Sergey Kharin,M,1981-06-01,M_OR_AWPC,90,87.7,,,,,,,,,,,170,195,205,,205,205,D,Yes,Raw,4
Vitaliy Pushkarev,M,1983-05-23,M_OR_AWPC,90,89,,,,,,,,,,,170,195,,,195,195,D,Yes,Raw,5
Vasiliy Trepach,M,1976-04-29,M_OR_AWPC,100,99.9,,,,,,,,,,,205,215,220,,220,220,D,Yes,Raw,1
Vasiliy Shtokolok,M,1988-05-07,M_OR_AWPC,100,97.2,,,,,,,,,,,180,202.5,210,,210,210,D,Yes,Raw,2
Nikita Khramov,M,1981-07-14,M_OR_AWPC,100,92.5,,,,,,,,,,,140,160,192.5,,192.5,192.5,D,Yes,Raw,3
Timur Bocharov,M,1980-10-09,M_OR_AWPC,100,90.8,,,,,,,,,,,150,175,-195,,175,175,D,Yes,Raw,4
Aleksandr Marfitsin,M,1982-08-23,M_OR_AWPC,110,109,,,,,,,,,,,250,265,280,,280,280,D,Yes,Raw,1
Mikhail Peshlyayev,M,1989-11-19,M_JR_AWPC,125,116.6,,,,,,,,,,,260,285,295,,295,295,D,Yes,Raw,1
Vitaliy Rodionov,M,1990-03-03,M_JR_AWPC,125,116.3,,,,,,,,,,,260,275,-285,,275,275,D,Yes,Raw,2
Irina Pilipishko,F,1957-02-28,F_MR_4_WPC,60,58,,,,,,47.5,50,55,,55,,,,,,55,B,,Raw,1
Dmitriy Boldin,M,1998-03-29,M_TR_1_WPC,52,48.8,,,,,,52.5,57.5,60,,60,,,,,,60,B,,Raw,1
Aleksey Zaytsev,M,1987-10-17,M_OR_WPC,60,58.1,,,,,,90,95,100,,100,,,,,,100,B,,Raw,1
Vladimir Karavayev,M,1987-09-03,M_OR_WPC,75,72.9,,,,,,160,165,170,,170,,,,,,170,B,,Raw,1
Denis Khanayev,M,1988-08-31,M_OR_WPC,75,70.3,,,,,,90,100,-107.5,,100,,,,,,100,B,,Raw,2
Ilya Krasko,M,1966-01-21,M_MR_2_WPC,75,74.9,,,,,,135,140,-145,,140,,,,,,140,B,,Raw,1
Borodin,M,1995-05-22,M_TR_2_WPC,82.5,77.5,,,,,,95,100,105,,105,,,,,,105,B,,Raw,1
Aleksey Gusev,M,1994-02-25,M_TR_3_WPC,82.5,80.1,,,,,,120,127.5,130,,130,,,,,,130,B,,Raw,1
Maksim Kryukov,M,1985-08-02,M_OR_WPC,82.5,80.8,,,,,,160,165,170,,170,,,,,,170,B,,Raw,1
Vyacheslav Khorev,M,1976-12-27,M_OR_WPC,82.5,81.2,,,,,,-155,,,,,,,,,,,B,,Raw,DQ
Ilya Galkin,M,1995-04-07,M_TR_2_WPC,90,84,,,,,,-132.5,-135,137.5,,137.5,,,,,,137.5,B,,Raw,1
Rushan Biktashev,M,1994-06-03,M_TR_3_WPC,90,87.8,,,,,,100,-105,-107.5,,100,,,,,,100,B,,Raw,1
Denis Loginov,M,1992-12-17,M_JR_WPC,90,88.8,,,,,,90,100,110,,110,,,,,,110,B,,Raw,1
Maksim Gornastalev,M,1983-04-09,M_OR_WPC,90,90,,,,,,207.5,212.5,215,,215,,,,,,215,B,,Raw,1
Vyacheslav Shisterov,M,1987-01-05,M_OR_WPC,90,90,,,,,,172.5,180,187.5,,187.5,,,,,,187.5,B,,Raw,2
Grigoriy Serebrennikov,M,1973-07-25,M_OR_WPC,90,85.7,,,,,,170,180,185,,185,,,,,,185,B,,Raw,3
Yevgeniy Aksenov,M,1986-08-03,M_OR_WPC,90,88.5,,,,,,160,172.5,-182.5,,172.5,,,,,,172.5,B,,Raw,4
Anatoliy Kudlya,M,1948-02-07,M_MR_6_WPC,90,88.2,,,,,,-100,110,120,,120,,,,,,120,B,,Raw,1
Vladimir Lymar,M,1987-05-02,M_OR_WPC,100,96.2,,,,,,170,175,180,,180,,,,,,180,B,,Raw,1
Nikolay Pilipishko,M,1984-01-13,M_OR_WPC,100,99.2,,,,,,160,170,180,,180,,,,,,180,B,,Raw,2
Sergey Konovalov #4,M,1969-03-22,M_MR_1_WPC,100,90.2,,,,,,135,142.5,-147.5,,142.5,,,,,,142.5,B,,Raw,1
Nikolay Tsyplenkov,M,1962-01-13,M_MR_3_WPC,100,99.8,,,,,,125,-130,,,125,,,,,,125,B,,Raw,1
Fedor Chesnokov,M,1947-02-16,M_MR_6_WPC,100,91.6,,,,,,130,140,146,,146,,,,,,146,B,,Raw,1
Aleksandr Mantserov,M,1983-06-13,M_OR_WPC,110,109.6,,,,,,210,215,217.5,,217.5,,,,,,217.5,B,,Raw,1
Aleksey Belosludtsev,M,1988-10-19,M_OR_WPC,110,103.5,,,,,,-170,170,200,,200,,,,,,200,B,,Raw,2
Rinat Ashirov,M,1985-07-31,M_OR_WPC,110,109.9,,,,,,180,190,195,,195,,,,,,195,B,,Raw,3
Dmitriy Minyayev,M,1972-02-28,M_MR_1_WPC,110,109.8,,,,,,150,160,-167.5,,160,,,,,,160,B,,Raw,1
Sergey Kirillov,M,1964-04-21,M_MR_2_WPC,110,109.3,,,,,,180,190,-195,,190,,,,,,190,B,,Raw,1
Andrey Martemyanov,M,1961-07-08,M_MR_3_WPC,110,108.3,,,,,,160,165,170,,170,,,,,,170,B,,Raw,1
Sergey Kolesnichenko,M,1979-11-19,M_OR_WPC,125,124.9,,,,,,215,220,-222.5,,220,,,,,,220,B,,Raw,1
Dmitriy Nazarov,M,1987-07-29,M_OR_WPC,125,110.8,,,,,,190,200,-205,,200,,,,,,200,B,,Raw,2
Yuriy Kolmakov,M,1983-01-01,M_OR_WPC,125,124.3,,,,,,190,195,-207.5,,195,,,,,,195,B,,Raw,3
Aleksey Chernysh,M,1967-05-10,M_MR_2_WPC,125,112.2,,,,,,180,190,-200,,190,,,,,,190,B,,Raw,1
Dmitriy Sedymov,M,1995-10-06,M_TES_2_WPC,82.5,79.8,,,,,,-145,145,160,,160,,,,,,160,B,,Single-ply,1
Maksim Sharonov,M,1982-02-25,M_OES_WPC,82.5,82,,,,,,200,220,-230,,220,,,,,,220,B,,Single-ply,1
Grigoriy Serebrennikov,M,1973-07-25,M_OES_WPC,90,85.7,,,,,,190,200,210,,210,,,,,,210,B,,Single-ply,1
Sergey Boldin,M,1971-05-31,M_MES_1_WPC,90,87.6,,,,,,150,160,-170,,160,,,,,,160,B,,Single-ply,1
Dmitriy Tsimbalistyy,M,1978-11-01,M_OES_WPC,100,98.9,,,,,,210,230,-240,,230,,,,,,230,B,,Single-ply,1
Aleksey Melnikov,M,1978-12-02,M_OES_WPC,110,104,,,,,,-235,-240,240,,240,,,,,,240,B,,Single-ply,1
Denis Semenov,M,1974-04-27,M_OES_WPC,125,122.1,,,,,,260,-270,270,,270,,,,,,270,B,,Single-ply,1
Yevgeniy Katayev,M,1983-08-08,M_OEM_WPC,90,90,,,,,,220,230,240,,240,,,,,,240,B,,Multi-ply,1
Yuriy Krikov,M,1962-04-24,M_OEM_WPC,90,88.6,,,,,,200,230,-240,,230,,,,,,230,B,,Multi-ply,2
Yevgeniy Aksenov,M,1986-08-03,M_OEM_WPC,90,88.5,,,,,,-190,-195,-195,,,,,,,,,B,,Multi-ply,DQ
Yuriy Korikov,M,1962-04-24,M_MEM_3_WPC,90,88.6,,,,,,220,230,-240,,230,,,,,,230,B,,Multi-ply,1
Eduard Khaliullin,M,1973-05-22,M_OEM_WPC,110,107,,,,,,-260,-265,265,,265,,,,,,265,B,,Multi-ply,1
Maksim Ladyshkin,M,1990-04-04,M_JR_WPC,82.5,77.6,100,115,120,,120,90,100,,,100,100,-125,140,,140,360,SBD,,Raw,1
Aleksandr Foshchanka,M,1985-04-22,M_OR_WPC,82.5,79.5,160,170,-180,,170,110,120,-130,,120,160,170,180,,180,470,SBD,,Raw,1
Valeriy Melnikov,M,1963-01-26,M_MR_3_WPC,82.5,82.4,170,180,185,,185,130,140,145,,145,160,170,180,,180,510,SBD,,Raw,1
Mikhail Losev,M,1953-08-01,M_MR_4_WPC,82.5,81.5,140,-150,-150,,140,90,-100,100,,100,160,170,180,,180,420,SBD,,Raw,1
Albert Shakirov,M,1992-12-28,M_JR_WPC,100,95.8,-220,220,230,,230,145,150,,,150,230,240,-250,,240,620,SBD,,Raw,1
Valeriy Kuznetsov #3,M,1983-08-21,M_OR_WPC,100,96,210,230,-250,,230,170,180,-190,,180,230,250,,,250,660,SBD,,Raw,1
Pavel Vasilyev,M,1978-01-09,M_OR_WPC,100,97.7,180,-190,-200,,180,-160,-160,-165,,,-210,,,,,,SBD,,Raw,DQ
Ruslan Akhmetov,M,1960-04-10,M_MR_3_WPC,110,109.5,250,260,,,260,160,170,175,,175,200,250,,,250,685,SBD,,Raw,1
Vasiliy Petrov,M,1975-11-14,M_OR_WPC,140,135.5,-310,,,,,-240,,,,,-300,,,,,,SBD,,Raw,DQ
Sergey Tymchenko,M,1970-06-09,M_MR_1_WPC,140,138.1,190,200,,,200,-110,110,-120,,110,220,250,260,,260,570,SBD,,Raw,1
Dmitriy Perminov,M,1998-08-09,M_TES_1_WPC,60,56.8,-120,130,140,,140,80,90,95,,95,120,130,135,,135,370,SBD,,Single-ply,1
Sergey Marchenko,M,1994-02-11,M_TES_3_WPC,75,75,220,230,237.5,,237.5,130,135,140,,140,220,-242.5,242.5,,242.5,620,SBD,,Single-ply,1
Denis Beklenishchev,M,1996-02-11,M_TES_2_WPC,82.5,80.1,140,150,-160,,150,90,100,-105,,100,170,185,-190,,185,435,SBD,,Single-ply,1
Aleksey Kozlov #1,M,1970-02-12,M_MES_1_WPC,100,100,282.5,300,320,,320,205,212.5,217.5,,217.5,270,287.5,300,,300,837.5,SBD,,Single-ply,1
Petr Romanov,M,1980-07-21,M_OES_WPC,110,110,260,-270,270,,270,-190,190,200,,200,240,250,260,,260,730,SBD,,Single-ply,1
Ruslan Akhmetov,M,1960-04-10,M_MES_3_WPC,110,109.5,280,-285,285,,285,170,200,210,,210,200,,,,200,695,SBD,,Single-ply,1
Denis Loginov,M,1992-12-17,M_JR_WPC,90,88.8,,,,,,,,,,,120,150,180,,180,180,D,,Raw,1
Yevgeniy Aksenov,M,1986-08-03,M_OR_WPC,90,88.5,,,,,,,,,,,140,170,190,,190,190,D,,Raw,1
Valeriy Kuznetsov #3,M,1983-08-21,M_OR_WPC,100,96,,,,,,,,,,,230,250,270,,270,270,D,,Raw,1
Valeriy Kuznetsov #3,M,1983-08-21,M_OR_WPC,100,96,,,,,,,,,,,-230,,,,,,D,,Raw,DQ
Aleksey Melnikov,M,1978-12-02,M_OR_WPC,110,104,,,,,,,,,,,285,-300,,,285,285,D,,Raw,1
Sergey Permyakov,M,1983-09-09,M_OR_WPC,110,105.1,,,,,,,,,,,285,-305,-305,,285,285,D,,Raw,2
Sergey Tymchenko,M,1970-06-09,M_OR_WPC,140,138.1,,,,,,,,,,,220,270,280,,280,280,D,,Raw,1
Sergey Tymchenko,M,1970-06-09,M_MR_1_WPC,140,138.1,,,,,,,,,,,220,270,280,,280,280,D,,Raw,1
Mikhail Koklyayev,M,1978-12-17,M_OR_WPC,140+,162.5,,,,,,,,,,,360,390,-402.5,,390,390,D,,Raw,1
Mikhail Glazunov,M,1974-02-09,M_OEM_WPC,125,123,,,,,,,,,,,340,360,380,,380,380,D,,Multi-ply,1
