Place,Name,CyrillicName,WeightClassKg,Division,Tested,Sex,Event,Equipment,BirthDate,Age,BodyweightKg,Squat1Kg,Squat2Kg,Squat3Kg,Squat4Kg,Best3SquatKg,Bench1Kg,Bench2Kg,Bench3Kg,Bench4Kg,Best3BenchKg,Deadlift1Kg,Deadlift2Kg,Deadlift3Kg,Deadlift4Kg,Best3DeadliftKg,TotalKg,Country
1,Evgeniy Gansh,Евгений Ганш,75,Elite Pro Open,No,M,SBD,Wraps,1992-04-10,26,74.7,-240,-245,245,,245,-135,135,-140,,135,240,-255,-255,,240,620,
1,Oleksii Melnyk,Олексій Мельник,90,Elite Pro Open,No,M,SBD,Wraps,,,88.7,330,350,365,,365,190,202.5,-207.5,,202.5,310,332.5,-345,,332.5,900,Ukraine
1,Sergey Akhlestin,Сергей Ахлестин,110,Elite Pro Open,No,M,SBD,Wraps,1989-09-15,29,105.6,320,335,345,,345,185,195,-200,,195,350,370,-375,,370,910,
1,Konstantin Morozov #1,Константин Морозов,125,Elite Pro Open,No,M,SBD,Wraps,1984-10-23,34,124.7,280,300,,,300,210,220,230,,230,370,400,422.5,,422.5,952.5,
2,Vladimir Marchenko,Владимир Марченко,125,Elite Pro Open,No,M,SBD,Wraps,1984-10-19,34,124,340,360,375,,375,190,197.5,,,197.5,360,-380,,,360,932.5,
3,Nizami Tagiev,Низами Тагиев,125,Elite Pro Open,No,M,SBD,Wraps,1991-04-05,27,114.1,290,310,320,,320,210,220,-225,,220,340,360,-375,,360,900,
1,Aleksandr Lugovoy,Александр Луговой,140,Elite Pro Open,No,M,SBD,Wraps,1995-10-28,23,136,320,340,360,,360,190,200,205,,205,320,350,370,,370,935,
2,Sergey Odegov,Сергей Одегов,140,Elite Pro Open,No,M,SBD,Wraps,1976-10-02,42,131.8,315,330,-345,,330,200,210,-217.5,,210,320,345,-370,,345,885,
1,Ivan Ryabenkov,Иван Рябенков,140+,Elite Pro Open,No,M,SBD,Wraps,1996-01-14,23,144,385,-405,405,,405,190,200,-205,,200,360,375,-382.5,,375,980,
1,Mariya Pyrina,Мария Пырина,52,Pro Juniors 20-23,No,F,SBD,Raw,1997-08-28,21,50.7,75,80,85,,85,40,45,-47.5,,45,90,97.5,100,,100,230,
1,Valeriy Kondratev,Валерий Кондратьев,67.5,Pro Open,No,M,SBD,Raw,1990-09-04,28,65.4,120,125,130,,130,70,75,-77.5,,75,120,130,135,,135,340,
1,Aleksey Zamotin,Алексей Замотин,75,Pro Open,No,M,SBD,Raw,1986-09-21,32,74.9,110,120,-130,,120,105,-110,110,,110,140,155,165,,165,395,
1,Oleg Chernov,Олег Чернов,82.5,Pro Open,No,M,SBD,Raw,1986-06-04,32,82.3,165,-175,-175,,165,92.5,100,102.5,,102.5,190,200,-205,,200,467.5,
1,Andrey Meshcheryakov,Андрей Мещеряков,82.5,Pro Masters 50-54,No,M,SBD,Raw,1965-10-28,53,79.5,-110,110,120,,120,105,112.5,120,,120,120,130,140,,140,380,
1,Vladimir Elov,Владимир Елов,90,Pro Open,No,M,SBD,Raw,1991-03-04,27,89.8,170,-180,-180,,170,140,150,-155,,150,210,220,250,,250,570,
1,Ivan Kachaev,Иван Качаев,100,Pro Juniors 20-23,No,M,SBD,Raw,1996-11-05,22,99.6,190,205,-210,,205,125,130,137.5,,137.5,190,205,215,,215,557.5,
1,Nikolay Burdakov,Николай Бурдаков,100,Pro Open,No,M,SBD,Raw,1988-07-24,30,98.7,260,-270,-270,,260,160,170,180,,180,300,-325,-325,,300,740,
2,Nikolay Afanasev,Николай Афанасьев,100,Pro Open,No,M,SBD,Raw,1981-04-27,37,97.4,-240,-240,240,,240,160,170,-175,,170,270,282.5,-292.5,,282.5,692.5,
3,Vitaliy Bogatov,Виталий Богатов,100,Pro Open,No,M,SBD,Raw,1971-01-16,48,99,225,235,240,,240,145,155,160,,160,235,250,260,,260,660,
1,Evgeniy Solopov,Евгений Солопов,110,Pro Open,No,M,SBD,Raw,1989-09-04,29,108.9,265,275,280,,280,190,195,-197.5,,195,305,310,-315,,310,785,
1,Margarita Makunina,Маргарита Макунина,67.5,Pro Masters 45-49,No,F,SBD,Wraps,1969-03-07,49,65.6,-80,100,115,,115,62.5,70,75,,75,105,115,130,,130,320,
1,Andrey Isaev,Андрей Исаев,82.5,Pro Open,No,M,SBD,Wraps,1991-12-15,27,82,227.5,237.5,-242.5,,237.5,167.5,-172.5,-172.5,,167.5,245,252.5,-257.5,,252.5,657.5,
2,Denis Kostryukov,Денис Кострюков,82.5,Pro Open,No,M,SBD,Wraps,1986-07-02,32,80.4,130,140,-145,,140,85,90,-95,,90,145,155,160,,160,390,
1,Vitaliy Shkodin,Виталий Шкодин,90,Pro Open,No,M,SBD,Wraps,1993-04-14,25,89.9,-270,-270,270,,270,140,150,160,,160,265,275,290,,290,720,
2,Konstantin Azizmamadov,Константин Азизмамадов,90,Pro Open,No,M,SBD,Wraps,1985-03-17,33,89.8,-215,215,220,,220,140,150,155,,155,270,280,,,280,655,
1,Anatoliy Markov,Анатолий Марков,90,Pro Masters 65-69,No,M,SBD,Wraps,1951-01-13,68,88.6,-190,210,-215,,210,130,-140,-140,,130,185,205,-215,,205,545,
1,Aleksandr Matskevich,Александр Мацкевич,100,Pro Open,No,M,SBD,Wraps,1988-08-26,30,98.6,240,252.5,260,,260,170,177.5,182.5,,182.5,-290,295,305,,305,747.5,
2,Aleksandr Yudaev,Александр Юдаев,100,Pro Open,No,M,SBD,Wraps,1994-02-10,25,90.4,255,265,280,,280,160,170,180,,180,260,275,285,,285,745,
3,Evgeniy Reznik,Евгений Резник,100,Pro Open,No,M,SBD,Wraps,1994-10-27,24,95.8,200,-215,-220,,200,150,-155,-155,,150,180,200,210,,210,560,
DQ,Sergey Klypov,Сергей Клыпов,100,Pro Open,No,M,SBD,Wraps,1980-08-24,38,97.7,-250,-260,-260,,,,,,,,,,,,,,
DQ,Denis Sapozhkov,Денис Сапожков,100,Pro Masters 40-44,No,M,SBD,Wraps,1979-02-06,40,98.6,-225,-225,-225,,,,,,,,,,,,,,
1,Aleksandr Kablukov,Александр Каблуков,110,Pro Open,No,M,SBD,Wraps,1984-12-25,34,107.4,290,300,,,300,170,180,-185,,180,300,330,-350,,330,810,
2,Evgeniy Poddubnyy,Евгений Поддубный,110,Pro Open,No,M,SBD,Wraps,1981-04-30,37,108.3,-260,270,280,,280,165,175,180,,180,240,250,260,,260,720,
3,Pavel Klimushin,Павел Климушин,110,Pro Open,No,M,SBD,Wraps,1980-11-29,38,109.8,260,270,280,,280,160,170,-180,,170,210,220,230,,230,680,
4,Maksim Plotnikov,Максим Плотников,110,Pro Open,No,M,SBD,Wraps,1983-05-20,35,100.2,-230,230,245,,245,145,155,-160,,155,230,-240,-240,,230,630,
1,Andrey Zolotaryonok,Андрей Золотарёнок,110,Pro Masters 40-44,No,M,SBD,Wraps,1978-11-23,40,108.9,260,275,290,,290,160,172.5,-182.5,,172.5,235,255,260,,260,722.5,
1,Aleksey Fedorenko,Алексей Федоренко,125,Pro Juniors 20-23,No,M,SBD,Wraps,1996-06-02,22,119.1,-240,240,260,,260,190,200,-207.5,,200,275,285,-300,,285,745,
1,Maksim Surovov,Максим Суровов,140,Pro Juniors 20-23,No,M,SBD,Wraps,1996-02-02,23,135.2,235,250,260,,260,160,167.5,172.5,,172.5,-250,250,265,,265,697.5,
1,Egor Filatov,Егор Филатов,82.5,Pro Open,No,M,SBD,Single-ply,1993-04-22,25,80.2,215,225,-235,,225,185,192.5,-197.5,,192.5,230,-245,,,230,647.5,
1,Aleksandr Kozlov,Александр Козлов,100,Pro Open,No,M,SBD,Single-ply,1994-08-28,24,95.7,355,-375,-375,,355,230,242.5,-250,,242.5,-290,290,-302.5,,290,887.5,
1,Sergey Mavrenkov,Сергей Мавренков,110,Pro Open,No,M,SBD,Multi-ply,1966-11-05,52,108,285,-305,-305,,285,240,250,-260,,250,240,260,-270,,260,795,
1,Sergey Mavrenkov,Сергей Мавренков,110,Pro Masters 50-54,No,M,SBD,Multi-ply,1966-11-05,52,108,285,-305,-305,,285,240,250,-260,,250,240,260,-270,,260,795,
1,Aleksandra Khorolskaya,Александра Хорольская,60,Pro Open,No,F,B,Raw,1983-01-12,36,58.8,,,,,,42.5,45,-47.5,,45,,,,,,45,
1,Alisa Larskaya,Алиса Ларская,67.5,Pro Open,No,F,B,Raw,1989-04-18,29,65.3,,,,,,-67.5,70,-75,,70,,,,,,70,
1,Olga Baranova,Ольга Баранова,67.5,Pro Masters 40-44,No,F,B,Raw,1976-05-21,42,64.9,,,,,,60,62.5,-65,,62.5,,,,,,62.5,
1,Irina Yakovleva,Ирина Яковлева,82.5,Pro Open,No,F,B,Raw,1970-01-08,49,79.9,,,,,,105,-112.5,117.5,,117.5,,,,,,117.5,
1,Aleksandr Kuznetsov #9,Александр Кузнецов,60,Pro Open,No,M,B,Raw,1993-12-16,25,59.6,,,,,,127.5,132.5,-135,,132.5,,,,,,132.5,
2,Maksim Popov #1,Максим Попов,60,Pro Open,No,M,B,Raw,1984-09-03,34,59.7,,,,,,102.5,110,-112.5,,110,,,,,,110,
1,Vladimir Berdnikov,Владимир Бердников,67.5,Pro Open,No,M,B,Raw,1987-02-25,31,65.9,,,,,,140,145,-147.5,,145,,,,,,145,
1,Ilya Marinkevich,Илья Маринкевич,75,Pro Teen 15-19,No,M,B,Raw,2003-08-03,15,70,,,,,,95,100,-105,,100,,,,,,100,
1,Aleksandr Rumyantsev,Александр Румянцев,75,Pro Open,No,M,B,Raw,1991-06-26,27,70.7,,,,,,90,107.5,-110,,107.5,,,,,,107.5,
1,Stanislav Milostnoy,Станислав Милостной,82.5,Pro Open,No,M,B,Raw,1978-12-19,40,81.9,,,,,,235,-245,,,235,,,,,,235,
2,Sergey Lomin,Сергей Ломин,82.5,Pro Open,No,M,B,Raw,1987-09-14,31,81.7,,,,,,157.5,-167.5,167.5,,167.5,,,,,,167.5,
3,Sergey Nikitin,Сергей Никитин,82.5,Pro Open,No,M,B,Raw,1990-09-08,28,81.7,,,,,,152.5,160,-167.5,,160,,,,,,160,
4,Nikolay Petrokovich,Николай Петрокович,82.5,Pro Open,No,M,B,Raw,1979-08-17,39,82.3,,,,,,110,-120,-120,,110,,,,,,110,
DQ,Andrey Rul,Андрей Руль,82.5,Pro Open,No,M,B,Raw,1982-07-24,36,81.5,,,,,,-145,-145,-145,,,,,,,,,
1,Sergey Khitrov,Сергей Хитров,90,Pro Open,No,M,B,Raw,1979-10-01,39,87.4,,,,,,160,-170,170,,170,,,,,,170,
2,Aleksandr Arestov,Александр Арестов,90,Pro Open,No,M,B,Raw,1986-06-08,32,88.8,,,,,,160,-170,-170,,160,,,,,,160,
1,Mikhail Korochkin,Михаил Корочкин,90,Pro Masters 50-54,No,M,B,Raw,1967-06-16,51,84.9,,,,,,170,180,185,,185,,,,,,185,
1,Sergey Bazanov,Сергей Базанов,90,Pro Masters 55-59,No,M,B,Raw,1962-06-22,56,88.7,,,,,,-170,170,-172.5,,170,,,,,,170,
1,Nikolay Shestakov,Николай Шестаков,100,Pro Juniors 20-23,No,M,B,Raw,1996-04-12,22,93.9,,,,,,165,175,180,,180,,,,,,180,
1,Maksim Yuyukin,Максим Ююкин,100,Pro Open,No,M,B,Raw,1982-05-09,36,98.8,,,,,,177.5,185,-190,,185,,,,,,185,
2,Sergey Salivon,Сергей Саливон,100,Pro Open,No,M,B,Raw,1982-02-14,37,97.8,,,,,,130,140,145,,145,,,,,,145,
1,Aleksey Kondakov,Алексей Кондаков,100,Pro Masters 45-49,No,M,B,Raw,1970-07-22,48,92.6,,,,,,165,172.5,177.5,180,177.5,,,,,,177.5,
1,Vladimir Khatipov,Владимир Хатипов,100,Pro Masters 50-54,No,M,B,Raw,1969-01-25,50,95.2,,,,,,165,172.5,175,,175,,,,,,175,
2,Dmitriy Rasskazikhin,Дмитрий Рассказихин,100,Pro Masters 50-54,No,M,B,Raw,1969-02-13,50,98.3,,,,,,170,-175,175,,175,,,,,,175,
1,Vladimir Svinarchuk,Владимир Свинарчук,110,Pro Open,No,M,B,Raw,1983-08-30,35,107.2,,,,,,210,220,225,,225,,,,,,225,
2,Vladimir Tsymbalenko,Владимир Цымбаленко,110,Pro Open,No,M,B,Raw,1985-07-13,33,109.1,,,,,,170,-195,195,,195,,,,,,195,
3,Aleksandr Yakuba,Александр Якуба,110,Pro Open,No,M,B,Raw,1987-09-26,31,107.2,,,,,,180,-195,-195,,180,,,,,,180,
1,Nodar Tsutskiridze,Нодар Цуцкиридзе,110,Pro Masters 40-44,No,M,B,Raw,1976-09-14,42,101.8,,,,,,165,170,175,,175,,,,,,175,
1,Yuriy Klimov,Юрий Климов,110,Pro Masters 45-49,No,M,B,Raw,1972-04-06,46,106,,,,,,170,177.5,-182.5,,177.5,,,,,,177.5,
2,Dmitriy Starov,Дмитрий Старов,110,Pro Masters 45-49,No,M,B,Raw,1973-02-01,46,108,,,,,,150,155,-160,,155,,,,,,155,
1,Vyacheslav Filin,Вячеслав Филин,110,Pro Masters 55-59,No,M,B,Raw,1961-11-12,57,104.1,,,,,,185,192.5,195,,195,,,,,,195,
1,Vladimir Kudryashov,Владимир Кудряшов,125,Pro Open,No,M,B,Raw,1985-11-05,33,116.6,,,,,,235,245,250,,250,,,,,,250,
2,Igor Trukhachev,Игорь Трухачев,125,Pro Open,No,M,B,Raw,1988-10-31,30,119.7,,,,,,190,205,210,,210,,,,,,210,
3,Evgeniy Zuykov,Евгений Зуйков,125,Pro Open,No,M,B,Raw,1994-05-10,24,123.1,,,,,,190,-195,195,,195,,,,,,195,
4,Andrey Chernyshev,Андрей Чернышев,125,Pro Open,No,M,B,Raw,1981-08-24,37,124.7,,,,,,150,160,170,,170,,,,,,170,
DQ,Dmitriy Kabanov,Дмитрий Кабанов,125,Pro Open,No,M,B,Raw,1987-06-15,31,119.9,,,,,,-245,-245,-245,,,,,,,,,
1,Aleksandr Volkov,Александр Волков,125,Pro Masters 40-44,No,M,B,Raw,1975-02-17,44,124.5,,,,,,185,195,-200,,195,,,,,,195,
1,Evgeniy Lapin-Kratasyuk,Евгений Лапин-Кратасюк,140,Pro Open,No,M,B,Raw,1980-09-13,38,131.5,,,,,,205,-212.5,-212.5,,205,,,,,,205,
1,Aleksandr Semenov,Александр Семенов,140,Pro Masters 50-54,No,M,B,Raw,1966-08-21,52,135.8,,,,,,190,200,210,,210,,,,,,210,
1,Evgeniy Deryuzhenko,Евгений Дерюженко,140+,Pro Open,No,M,B,Raw,1981-06-07,37,168.5,,,,,,210,220,230,,230,,,,,,230,
1,Vladimir Kulakov,Владимир Кулаков,75,Pro Open,No,M,B,Single-ply,1955-12-24,63,73.1,,,,,,72.5,80,,,80,,,,,,80,
1,Vladimir Kulakov,Владимир Кулаков,75,Pro Masters 60-64,No,M,B,Single-ply,1955-12-24,63,73.1,,,,,,72.5,80,,,80,,,,,,80,
1,Vyacheslav Nechpal,Вячеслав Нечпал,100,Pro Open,No,M,B,Single-ply,1973-07-02,45,94.3,,,,,,245,252.5,-260,,252.5,,,,,,252.5,
2,Konstantin Sapunkov,Константин Сапунков,100,Pro Open,No,M,B,Single-ply,1981-09-02,37,97.9,,,,,,215,230,-240,,230,,,,,,230,
3,Evgeniy Rodionov,Евгений Родионов,100,Pro Open,No,M,B,Single-ply,1981-09-21,37,96.9,,,,,,160,170,175,,175,,,,,,175,
DQ,Vladimir Lazarev,Владимир Лазарев,100,Pro Open,No,M,B,Single-ply,1979-11-06,39,100,,,,,,-192.5,-192.5,-200,,,,,,,,,
1,Vyacheslav Nechpal,Вячеслав Нечпал,100,Pro Masters 45-49,No,M,B,Single-ply,1973-07-02,45,94.3,,,,,,245,252.5,-260,,252.5,,,,,,252.5,
1,Roman Brekhov,Роман Брехов,110,Pro Open,No,M,B,Single-ply,1990-02-24,28,108.8,,,,,,252.5,262.5,-272.5,,262.5,,,,,,262.5,
1,Semen Paley,Семен Палей,82.5,Pro Juniors 20-23,No,M,B,Multi-ply,1999-01-01,20,77.6,,,,,,120,130,-140,,130,,,,,,130,
1,Ilya Filin,Илья Филин,90,Pro Open,No,M,B,Multi-ply,1988-08-16,30,85,,,,,,250,-257.5,-257.5,,250,,,,,,250,
1,Alisa Larskaya,Алиса Ларская,67.5,Pro Open,No,F,D,Raw,1989-04-18,29,65.3,,,,,,,,,,,117.5,122.5,130,,130,130,
1,Aleksandr Ilenko,Александр Ильенко,82.5,Pro Juniors 20-23,No,M,D,Raw,1996-03-23,22,81.5,,,,,,,,,,,260,275,285,-300,285,285,
DQ,Andrey Rul,Андрей Руль,82.5,Pro Open,No,M,D,Raw,1982-07-24,36,81.5,,,,,,,,,,,-210,,,,,,
1,Vitaliy Zheludev,Виталий Желудев,90,Pro Open,No,M,D,Raw,1985-02-09,34,90,,,,,,,,,,,290,302.5,,,302.5,302.5,
2,Aleksandr Galynyak,Александр Галыняк,90,Pro Open,No,M,D,Raw,1994-09-28,24,89.3,,,,,,,,,,,230,240,250,,250,250,
1,Dmitriy Kozhatkin,Дмитрий Кожаткин,90,Pro Masters 40-44,No,M,D,Raw,1978-06-10,40,89.4,,,,,,,,,,,150,160,-165,,160,160,
1,Evgeniy Kravchenko,Евгений Кравченко,100,Pro Open,No,M,D,Raw,1986-11-03,32,94.3,,,,,,,,,,,-355,355,-375,,355,355,
DQ,Maksim Karpovich,Максим Карпович,100,Pro Open,No,M,D,Raw,1993-07-13,25,97.6,,,,,,,,,,,-325,-325,-325,,,,
1,Pavel Sazonov,Павел Сазонов,110,Pro Open,No,M,D,Raw,1986-06-08,32,101.9,,,,,,,,,,,290,310,-315,,310,310,
2,Aleksandr Dvortsov,Александр Дворцов,110,Pro Open,No,M,D,Raw,1981-07-09,37,107.7,,,,,,,,,,,260,-282.5,-282.5,,260,260,
1,Ilya Ushkov,Илья Ушков,110,Pro Masters 40-44,No,M,D,Raw,1976-06-21,42,100.8,,,,,,,,,,,270,297.5,-310,,297.5,297.5,
2,Gennadiy Alimov,Геннадий Алимов,110,Pro Masters 40-44,No,M,D,Raw,1974-11-27,44,105.9,,,,,,,,,,,220,240,252.5,,252.5,252.5,
1,Dmitriy Starov,Дмитрий Старов,110,Pro Masters 45-49,No,M,D,Raw,1973-02-01,46,108,,,,,,,,,,,240,250,260,,260,260,
2,German Stasenko,Герман Стасенко,110,Pro Masters 45-49,No,M,D,Raw,1969-08-28,49,106.9,,,,,,,,,,,190,202.5,-207.5,,202.5,202.5,
1,Grigoriy Sakharov,Григорий Сахаров,140,Pro Masters 40-44,No,M,D,Raw,1977-06-17,41,131.5,,,,,,,,,,,250,265,275,,275,275,
1,Mariya Lukasevich,Мария Лукасевич,48,Amateur Open,Yes,F,SBD,Raw,1989-04-28,29,47.9,85,-90,,,85,45,-50,-50,,45,115,125,,,125,255,
2,Yaroslava Karpukhina,Ярослава Карпухина,48,Amateur Open,Yes,F,SBD,Raw,1994-10-05,24,47.2,82.5,90,92.5,,92.5,40,45,47.5,,47.5,90,100,105,,105,245,
1,Anna Shchyogoleva,Анна Щёголева,52,Amateur Open,Yes,F,SBD,Raw,1987-05-15,31,50.7,70,75,80,,80,45,47.5,-50,,47.5,70,-80,80,,80,207.5,
2,Viktoriya Sidorova,Виктория Сидорова,52,Amateur Open,Yes,F,SBD,Raw,1993-08-26,25,50.6,72.5,-77.5,-77.5,,72.5,37.5,40,-45,,40,82.5,87.5,-90,,87.5,200,
1,Oksana Petrakova,Оксана Петракова,60,Amateur Open,Yes,F,SBD,Raw,1984-01-15,35,59.8,110,115,120,,120,67.5,70,-72.5,,70,135,-140,-140,,135,325,
2,Ekaterina Chaplygina,Екатерина Чаплыгина,60,Amateur Open,Yes,F,SBD,Raw,1991-09-17,27,58.5,87.5,92.5,-95,,92.5,47.5,52.5,55,,55,117.5,122.5,-127.5,,122.5,270,
1,Natalya Viktorova,Наталья Викторова,67.5,Amateur Open,Yes,F,SBD,Raw,1985-12-29,33,66.3,100,105,110,,110,-55,55,60,,60,115,-125,-125,,115,285,
2,Darya Strelova,Дарья Стрелова,67.5,Amateur Open,Yes,F,SBD,Raw,1980-06-18,38,65.5,90,95,100,,100,55,-57.5,-57.5,,55,110,115,-117.5,,115,270,
1,Viktoriya Khrabrova,Виктория Храброва,75,Amateur Open,Yes,F,SBD,Raw,1992-08-15,26,74.1,75,-80,82.5,,82.5,45,50,52.5,,52.5,-105,-115,120,,120,255,
1,Mikhail Nazarenko,Михаил Назаренко,67.5,Amateur Open,Yes,M,SBD,Raw,1983-05-13,35,63.7,-120,-120,120,,120,82.5,85,-87.5,,85,170,180,190,,190,395,
2,Andrey Kukushkin,Андрей Кукушкин,67.5,Amateur Open,Yes,M,SBD,Raw,1986-03-28,32,66.5,105,110,117.5,,117.5,95,100,105,,105,110,120,137.5,,137.5,360,
1,Lev Krivov,Лев Кривов,75,Amateur Teen 15-19,Yes,M,SBD,Raw,2001-02-01,18,72.9,120,130,140,,140,90,95,100,,100,150,-160,-160,,150,390,
2,Bogdan Shtelmakh,Богдан Штельмах,75,Amateur Teen 15-19,Yes,M,SBD,Raw,2001-06-30,17,72.1,90,97.5,102.5,,102.5,80,85,-92.5,,85,110,125,-132.5,,125,312.5,
1,Dmitriy Arkadev,Дмитрий Аркадьев,75,Amateur Open,Yes,M,SBD,Raw,1983-01-25,36,73.8,205,-220,-220,,205,120,127.5,-130,,127.5,260,270,,,270,602.5,
2,Anatoliy Borisov,Анатолий Борисов,75,Amateur Open,Yes,M,SBD,Raw,1989-07-09,29,72.2,85,90,95,,95,80,-87.5,87.5,,87.5,125,135,140,,140,322.5,
1,Vladimir Skvortsov,Владимир Скворцов,82.5,Amateur Teen 15-19,Yes,M,SBD,Raw,2003-07-01,15,80.6,-130,130,135,,135,-90,90,95,,95,-160,160,165,,165,395,
1,Daniil Vtorushin,Даниил Вторушин,82.5,Amateur Juniors 20-23,Yes,M,SBD,Raw,1995-10-17,23,80.8,160,-175,-175,,160,135,145,150,,150,190,207.5,-215,,207.5,517.5,
1,Igor Startsev,Игорь Старцев,82.5,Amateur Open,Yes,M,SBD,Raw,1983-03-14,35,82.5,210,-220,222.5,230,222.5,152.5,-160,160,-165,160,-260,260,267.5,275,267.5,650,
1,Vladislav Sukharev,Владислав Сухарев,90,Amateur Teen 15-19,Yes,M,SBD,Raw,1999-03-29,19,88.2,170,180,185,,185,100,-110,110,,110,180,200,,,200,495,
2,Yaroslav Frolov,Ярослав Фролов,90,Amateur Teen 15-19,Yes,M,SBD,Raw,2004-12-17,14,87,85,95,-100,,95,62.5,-67.5,67.5,,67.5,85,97.5,102.5,,102.5,265,
1,Maksim Yarlykov,Максим Ярлыков,90,Amateur Open,Yes,M,SBD,Raw,1984-10-16,34,89.5,220,230,235,,235,135,150,-155,,150,230,240,252.5,,252.5,637.5,
2,Konstantin Ermakov,Константин Ермаков,90,Amateur Open,Yes,M,SBD,Raw,1984-12-31,34,88.8,170,190,-197.5,,190,140,155,-160,,155,227.5,250,255,,255,600,
3,Maksim Volokitin,Максим Волокитин,90,Amateur Open,Yes,M,SBD,Raw,1986-09-30,32,89.5,170,180,-192.5,,180,130,135,140,,140,210,-225,-225,,210,530,
1,Dmitriy Pavlovskiy,Дмитрий Павловский,100,Amateur Open,Yes,M,SBD,Raw,1988-02-01,31,99.9,-190,190,217.5,,217.5,130,145,152.5,,152.5,250,270,-280,,270,640,
2,Andrey Salov,Андрей Салов,100,Amateur Open,Yes,M,SBD,Raw,1984-08-30,34,93.5,200,-205,205,,205,130,-135,-135,,130,220,230,237.5,,237.5,572.5,
3,Roman Kovalev,Роман Ковалев,100,Amateur Open,Yes,M,SBD,Raw,1988-03-13,30,99.3,150,157.5,165,,165,85,90,-95,,90,160,170,180,,180,435,
DQ,Nikita Krut,Никита Круть,100,Amateur Open,Yes,M,SBD,Raw,1992-08-09,26,97.2,200,207.5,-215,,207.5,170,177.5,-185,,177.5,-250,-250,-250,,-250,,
1,Oleg Samofalov,Олег Самофалов,100,Amateur Masters 40-44,Yes,M,SBD,Raw,1976-03-11,42,98.6,180,-190,190,,190,120,127.5,-132.5,,127.5,180,190,-195,,190,507.5,
1,Daniil Bespalko,Даниил Беспалько,110,Amateur Teen 15-19,Yes,M,SBD,Raw,2001-04-20,17,108.6,155,-157.5,160,,160,80,85,-90,,85,155,165,172.5,,172.5,417.5,
1,Mikhail Evstigneev,Михаил Евстигнеев,110,Amateur Open,Yes,M,SBD,Raw,1976-06-21,42,104.8,230,-245,245,,245,172.5,180,182.5,,182.5,237.5,250,-260,,250,677.5,
2,Aleksandr Shustov,Александр Шустов,110,Amateur Open,Yes,M,SBD,Raw,1987-07-07,31,106.2,-230,230,240,,240,130,140,145,,145,230,240,255,,255,640,
1,Mikhail Evstigneev,Михаил Евстигнеев,110,Amateur Masters 40-44,Yes,M,SBD,Raw,1976-06-21,42,104.8,230,-245,245,,245,172.5,180,182.5,,182.5,237.5,250,-260,,250,677.5,
1,Cheslav Targonskiy,Чеслав Таргонский,110,Amateur Masters 60-64,Yes,M,SBD,Raw,1958-01-06,61,101.4,175,185,195,,195,-105,105,115,,115,260,270,277.5,,277.5,587.5,
1,Aleksandr Semenov,Александр Семенов,125,Amateur Open,Yes,M,SBD,Raw,1978-09-11,40,116.7,220,235,245,,245,145,160,-165,,160,180,210,220,,220,625,
1,Aleksandr Semenov,Александр Семенов,125,Amateur Masters 40-44,Yes,M,SBD,Raw,1978-09-11,40,116.7,220,235,245,,245,145,160,-165,,160,180,210,220,,220,625,
1,Kirill Zaytsev,Кирилл Зайцев,140,Amateur Teen 15-19,Yes,M,SBD,Raw,2000-05-10,18,137.8,220,240,250,,250,160,170,175,,175,-250,250,290,,290,715,
1,Oksana Kopylova,Оксана Копылова,52,Amateur Open,Yes,F,SBD,Wraps,1989-07-05,29,50.7,-92.5,92.5,97.5,,97.5,45,-47.5,-47.5,,45,95,100,-105,,100,242.5,
1,Kristina Nikiforova,Кристина Никифорова,56,Amateur Teen 15-19,Yes,F,SBD,Wraps,2002-12-24,16,55.3,95,-102.5,102.5,,102.5,42.5,45,47.5,,47.5,90,-97.5,97.5,,97.5,247.5,
DQ,Larisa Demina,Лариса Демина,56,Amateur Teen 15-19,Yes,F,SBD,Wraps,2001-07-27,17,55.9,-92.5,-92.5,-92.5,,,,,,,,,,,,,,
1,Marina Kamyshnikova,Марина Камышникова,56,Amateur Open,Yes,F,SBD,Wraps,1979-02-16,40,55.1,-100,100,107.5,,107.5,50,55,57.5,,57.5,120,130,-135,,130,295,
2,Liliya Fastova,Лилия Фастова,56,Amateur Open,Yes,F,SBD,Wraps,1991-06-18,27,52.5,75,87.5,-92.5,,87.5,40,-45,50,,50,70,80,92.5,,92.5,230,
3,Ekaterina Cherkovskaya,Екатерина Черковская,56,Amateur Open,Yes,F,SBD,Wraps,1990-03-24,28,53.8,-70,80,85,,85,-45,-45,45,,45,85,92.5,100,,100,230,
1,Natalya Dobrova,Наталья Доброва,56,Amateur Masters 45-49,Yes,F,SBD,Wraps,1970-11-29,48,54,70,75,80,,80,57.5,60,62.5,,62.5,110,115,120,,120,262.5,
2,Oksana Fatkina,Оксана Фатькина,56,Amateur Masters 45-49,Yes,F,SBD,Wraps,1973-04-24,45,55,85,90,95,,95,-50,50,52.5,,52.5,95,102.5,110,,110,257.5,
1,Alina Ryzhova,Алина Рыжова,67.5,Amateur Juniors 20-23,Yes,F,SBD,Wraps,1996-03-27,22,61.3,95,102.5,110,,110,47.5,-50,-50,,47.5,80,92.5,100,,100,257.5,
1,Anton Burdin,Антон Бурдин,60,Amateur Open,Yes,M,SBD,Wraps,1989-09-01,29,58.3,-115,125,135,,135,85,-90,-90,,85,125,135,145,,145,365,
1,Dmitriy Kirilkin,Дмитрий Кирилкин,67.5,Amateur Teen 15-19,Yes,M,SBD,Wraps,2003-10-13,15,64.9,-100,100,110,,110,70,-75,75,,75,120,125,130,,130,315,
1,Egor Ivanov,Егор Иванов,75,Amateur Teen 15-19,Yes,M,SBD,Wraps,2002-03-24,16,73.8,85,90,95,,95,67.5,70,-75,,70,105,110,115,,115,280,
1,Anton Rumyantsev,Антон Румянцев,75,Amateur Juniors 20-23,Yes,M,SBD,Wraps,1997-02-25,21,73.3,180,-190,-190,,180,105,110,117.5,,117.5,180,190,200,,200,497.5,
1,Vladimir Galchenkov,Владимир Галченков,75,Amateur Open,Yes,M,SBD,Wraps,1985-07-22,33,68,100,-110,115,,115,75,80,-85,,80,130,140,-145,,140,335,
1,Mikhail Lebedev,Михаил Лебедев,82.5,Amateur Juniors 20-23,Yes,M,SBD,Wraps,1996-02-01,23,81.1,190,200,-210,,200,102.5,107.5,115,,115,200,210,-215,,210,525,
1,Ilya Belov,Илья Белов,82.5,Amateur Open,Yes,M,SBD,Wraps,1989-12-26,29,81.6,205,-212.5,215,,215,142.5,145,-147.5,,145,205,215,220,,220,580,
2,Vladimir Kazemirov,Владимир Каземиров,82.5,Amateur Open,Yes,M,SBD,Wraps,1986-09-28,32,81.6,-195,-195,195,,195,145,150,-155,,150,200,210,230,,230,575,
3,Stanislav Kholodnyy,Станислав Холодный,82.5,Amateur Open,Yes,M,SBD,Wraps,1987-07-09,31,81.4,160,180,-187.5,,180,120,130,135,,135,210,225,240,,240,555,
1,Nikita Matveev,Никита Матвеев,90,Amateur Juniors 20-23,Yes,M,SBD,Wraps,1996-08-13,22,88.6,170,185,-195,,185,142.5,147.5,-150,,147.5,202.5,212.5,217.5,,217.5,550,
1,Vadim Skornyakov,Вадим Скорняков,90,Amateur Open,Yes,M,SBD,Wraps,1982-10-23,36,89.7,185,200,210,,210,120,130,-135,,130,195,205,-215,,205,545,
1,Boris Paskeev,Борис Паскеев,90,Amateur Masters 60-64,Yes,M,SBD,Wraps,1955-09-17,63,88.4,210,220,225,,225,110,120,-125,,120,220,230,,,230,575,
1,Aleksey Sysoev,Алексей Сысоев,100,Amateur Open,Yes,M,SBD,Wraps,1988-05-24,30,96.5,240,255,-265,,255,-145,145,-155,,145,280,290,-300,,290,690,
2,Roman Safronov,Роман Сафронов,100,Amateur Open,Yes,M,SBD,Wraps,1989-08-04,29,96.1,210,225,240,,240,130,135,-140,,135,225,-240,240,,240,615,
3,Ivan Lakhanov,Иван Лаханов,100,Amateur Open,Yes,M,SBD,Wraps,1987-06-17,31,98.5,-210,220,-230,,220,145,-152.5,-152.5,,145,220,-242.5,-242.5,,220,585,
1,Dmitriy Velikodnyy,Дмитрий Великодный,110,Amateur Juniors 20-23,Yes,M,SBD,Wraps,1998-10-05,20,100.7,225,235,247.5,,247.5,145,-150,150,,150,230,245,260,,260,657.5,
1,Dmitriy Sviridov,Дмитрий Свиридов,110,Amateur Open,Yes,M,SBD,Wraps,1992-03-27,26,108,220,-230,-230,,220,160,170,,,170,220,245,-252.5,,245,635,
1,Mikhail Stroilov,Михаил Строилов,110,Amateur Masters 40-44,Yes,M,SBD,Wraps,1976-01-09,43,110,230,240,-250,,240,145,150,-152.5,,150,-230,-245,245,,245,635,
1,Levon Trdatyan,Левон Трдатьян,125,Amateur Open,Yes,M,SBD,Wraps,1980-11-28,38,122.2,300,315,-325,,315,167.5,172.5,177.5,,177.5,260,-275,277.5,,277.5,770,
2,Artem Marchenko,Артем Марченко,125,Amateur Open,Yes,M,SBD,Wraps,1991-11-12,27,119.9,210,220,230,,230,135,140,145,,145,230,242.5,-252.5,,242.5,617.5,
1,Sergey Tsurkanu,Сергей Цуркану,140,Amateur Open,Yes,M,SBD,Wraps,1983-04-08,35,138,260,275,-285,,275,170,180,185,,185,257.5,270,280,-290,280,740,
DQ,Arina Podgornova,Арина Подгорнова,67.5,Amateur Teen 15-19,Yes,F,SBD,Single-ply,2002-03-11,16,63.8,-120,-120,-120,,-120,-72.5,,,,,,,,,,,
1,Nikolay Pankov,Николай Панков,110,Amateur Juniors 20-23,Yes,M,SBD,Single-ply,1996-07-17,22,103.8,-250,260,275,,275,165,175,-180,,175,-230,-240,240,,240,690,
1,Ekaterina Krasilova,Екатерина Красилова,44,Amateur Open,Yes,F,B,Raw,1985-06-12,33,42.5,,,,,,-32.5,32.5,-37.5,,32.5,,,,,,32.5,
1,Natalya Rybak,Наталья Рыбак,48,Amateur Open,Yes,F,B,Raw,1983-12-26,35,46.5,,,,,,52.5,55,57.5,,57.5,,,,,,57.5,
DQ,Kristina Maksimova,Кристина Максимова,48,Amateur Open,Yes,F,B,Raw,1982-08-16,36,48,,,,,,-45,-52.5,-52.5,,,,,,,,,
1,Elena Evdokimova,Елена Евдокимова,52,Amateur Masters 45-49,Yes,F,B,Raw,1970-05-06,48,52,,,,,,45,47.5,50,,50,,,,,,50,
1,Olga Krichmar,Ольга Кричмар,60,Amateur Open,Yes,F,B,Raw,1982-03-09,36,59.5,,,,,,72.5,77.5,80,-82.5,80,,,,,,80,
2,Mariya Ukhareva,Мария Ухарева,60,Amateur Open,Yes,F,B,Raw,1988-05-03,30,58.2,,,,,,65,70,-75,,70,,,,,,70,
3,Tamara Grigoreva,Тамара Григорьева,60,Amateur Open,Yes,F,B,Raw,1990-04-09,28,58.6,,,,,,55,60,67.5,,67.5,,,,,,67.5,
4,Ekaterina Zaytseva,Екатерина Зайцева,60,Amateur Open,Yes,F,B,Raw,1988-11-10,30,59.1,,,,,,52.5,57.5,62.5,,62.5,,,,,,62.5,
1,Anna Cheremisova,Анна Черемисова,60,Amateur Masters 40-44,Yes,F,B,Raw,1975-04-25,43,58.7,,,,,,50,-52.5,-52.5,,50,,,,,,50,
1,Tatyana Batalova,Татьяна Баталова,67.5,Amateur Juniors 20-23,Yes,F,B,Raw,1997-05-20,21,65,,,,,,62.5,65,-67.5,,65,,,,,,65,
1,Mariya Volkova,Мария Волкова,67.5,Amateur Open,Yes,F,B,Raw,1995-01-03,24,66,,,,,,87.5,92.5,-95,,92.5,,,,,,92.5,
2,Yuliya Viardo,Юлия Виардо,67.5,Amateur Open,Yes,F,B,Raw,1984-09-07,34,67.5,,,,,,77.5,82.5,87.5,,87.5,,,,,,87.5,
3,Anastasiya Grishina,Анастасия Гришина,67.5,Amateur Open,Yes,F,B,Raw,1986-06-09,32,66.8,,,,,,55,-60,-60,,55,,,,,,55,
1,Anna Ermolaeva,Анна Ермолаева,67.5,Amateur Masters 40-44,Yes,F,B,Raw,1975-04-27,43,67,,,,,,80,-85,-85,,80,,,,,,80,
2,Yana Fedyunina,Яна Федюнина,67.5,Amateur Masters 40-44,Yes,F,B,Raw,1975-11-15,43,65.4,,,,,,65,70,-72.5,,70,,,,,,70,
3,Natalya Lavrishcheva,Наталья Лаврищева,67.5,Amateur Masters 40-44,Yes,F,B,Raw,1974-09-09,44,67.3,,,,,,-45,45,-47.5,,45,,,,,,45,
1,Alina Kazantseva,Алина Казанцева,75,Amateur Teen 15-19,Yes,F,B,Raw,2000-12-18,18,74.5,,,,,,55,57.5,60,,60,,,,,,60,
1,Dmitriy Artsimovskiy,Дмитрий Арцимовский,56,Amateur Teen 15-19,Yes,M,B,Raw,2004-03-03,14,51.6,,,,,,70,75,-80,,75,,,,,,75,
2,Boris Bulgakov,Борис Булгаков,56,Amateur Teen 15-19,Yes,M,B,Raw,2001-03-22,17,54.8,,,,,,55,-57.5,57.5,,57.5,,,,,,57.5,
1,Vladislav Sitdikov,Владислав Ситдиков,56,Amateur Open,Yes,M,B,Raw,1994-12-23,24,51.1,,,,,,90,-95,95,,95,,,,,,95,
1,Matvey Loginov,Матвей Логинов,60,Amateur Teen 15-19,Yes,M,B,Raw,2003-02-24,15,58,,,,,,47.5,-55,60,,60,,,,,,60,
2,Georgiy Cherpunay,Георгий Черпунай,60,Amateur Teen 15-19,Yes,M,B,Raw,2001-04-24,17,59.8,,,,,,60,-65,-65,,60,,,,,,60,
1,Yaroslav Fatkin,Ярослав Фатькин,67.5,Amateur Teen 15-19,Yes,M,B,Raw,2000-08-24,18,65.9,,,,,,82.5,87.5,90,,90,,,,,,90,
2,Kirill Kirillov,Кирилл Кириллов,67.5,Amateur Teen 15-19,Yes,M,B,Raw,2001-09-08,17,62,,,,,,82.5,-87.5,-87.5,,82.5,,,,,,82.5,
1,Aleksandr Ivanov,Александр Иванов,67.5,Amateur Juniors 20-23,Yes,M,B,Raw,1997-06-18,21,65.9,,,,,,110,115,120,,120,,,,,,120,
DQ,Nikolay Chvikov,Николай Чвиков,67.5,Amateur Masters 40-44,Yes,M,B,Raw,1978-09-17,40,65.8,,,,,,-105,-105,-105,,,,,,,,,
1,Ilya Lanenkin,Илья Ланенкин,75,Amateur Teen 15-19,Yes,M,B,Raw,2000-06-13,18,73.9,,,,,,110,-115,115,,115,,,,,,115,
2,Andrey Chicherin-Lukyanenko,Андрей Чичерин-Лукьяненко,75,Amateur Teen 15-19,Yes,M,B,Raw,2000-11-23,18,74,,,,,,105,-112.5,-112.5,,105,,,,,,105,
3,Kondrat Surkov,Кондрат Сурков,75,Amateur Teen 15-19,Yes,M,B,Raw,2002-04-04,16,71.2,,,,,,72.5,77.5,82.5,,82.5,,,,,,82.5,
1,Dmitriy Berlizov,Дмитрий Берлизов,75,Amateur Juniors 20-23,Yes,M,B,Raw,1996-01-22,23,74.6,,,,,,125,-127.5,-127.5,,125,,,,,,125,
1,Vadim Sakharnyuk,Вадим Сахарнюк,75,Amateur Open,Yes,M,B,Raw,1981-11-07,37,71.7,,,,,,135,140,-142.5,,140,,,,,,140,
2,Andrey Kachalin,Андрей Качалин,75,Amateur Open,Yes,M,B,Raw,1997-10-14,21,73.9,,,,,,110,120,125,,125,,,,,,125,
3,Ilya Vakhrushev,Илья Вахрушев,75,Amateur Open,Yes,M,B,Raw,1989-03-26,29,74.2,,,,,,110,120,-127.5,,120,,,,,,120,
4,Dmitriy Melnikov,Дмитрий Мельников,75,Amateur Open,Yes,M,B,Raw,1991-11-13,27,74.7,,,,,,120,-127.5,-127.5,,120,,,,,,120,
5,Nikolay Pekarskiy,Николай Пекарский,75,Amateur Open,Yes,M,B,Raw,1989-12-16,29,73,,,,,,100,105,-110,,105,,,,,,105,
DQ,Dmitriy Ryvkin,Дмитрий Рывкин,75,Amateur Open,Yes,M,B,Raw,1980-04-10,38,75,,,,,,-105,-105,-105,,,,,,,,,
1,Oleg Solodov,Олег Солодов,75,Amateur Masters 45-49,Yes,M,B,Raw,1971-10-14,47,72.6,,,,,,120,125,130,,130,,,,,,130,
1,Nikolay Vetrov,Николай Ветров,75,Amateur Masters 70-74,Yes,M,B,Raw,1945-09-12,73,73.8,,,,,,80,-82.5,-82.5,,80,,,,,,80,
1,Maksim Lobanov,Максим Лобанов,82.5,Amateur Teen 15-19,Yes,M,B,Raw,2004-11-16,14,81.4,,,,,,-80,85,90,,90,,,,,,90,
1,Ilya Vlaskin,Илья Власкин,82.5,Amateur Juniors 20-23,Yes,M,B,Raw,1997-09-14,21,82.3,,,,,,140,-147.5,147.5,,147.5,,,,,,147.5,
1,Dmitriy Dobudko,Дмитрий Добудько,82.5,Amateur Open,Yes,M,B,Raw,1982-10-07,36,81.1,,,,,,145,155,160,,160,,,,,,160,
2,Yaroslav Ugolnikov,Ярослав Угольников,82.5,Amateur Open,Yes,M,B,Raw,1989-05-01,29,80.7,,,,,,150,152.5,155,,155,,,,,,155,
3,Pavel Golubotskikh,Павел Голубоцких,82.5,Amateur Open,Yes,M,B,Raw,1985-08-09,33,81.4,,,,,,147.5,152.5,-157.5,,152.5,,,,,,152.5,
4,Vitaliy Volf,Виталий Вольф,82.5,Amateur Open,Yes,M,B,Raw,1983-01-20,36,78.8,,,,,,135,-147.5,147.5,,147.5,,,,,,147.5,
5,Aleksey Chernyakov,Алексей Черняков,82.5,Amateur Open,Yes,M,B,Raw,1978-03-26,40,82.5,,,,,,-140,140,147.5,,147.5,,,,,,147.5,
6,Ilya Bogino,Илья Богино,82.5,Amateur Open,Yes,M,B,Raw,1994-02-01,25,81,,,,,,115,125,-130,,125,,,,,,125,
7,Roman Evseev,Роман Евсеев,82.5,Amateur Open,Yes,M,B,Raw,1993-08-12,25,76,,,,,,105,112.5,-120,,112.5,,,,,,112.5,
1,Aleksey Parfenkov,Алексей Парфенков,82.5,Amateur Masters 40-44,Yes,M,B,Raw,1976-12-30,42,81.2,,,,,,120,-125,130,,130,,,,,,130,
1,Andrey Muzalevskiy,Андрей Музалевский,82.5,Amateur Masters 45-49,Yes,M,B,Raw,1970-12-29,48,77.4,,,,,,130,135,-137.5,,135,,,,,,135,
2,Aleksey Meshalov,Алексей Мешалов,82.5,Amateur Masters 45-49,Yes,M,B,Raw,1973-01-02,46,80.5,,,,,,130,135,-140,,135,,,,,,135,
1,Sergey Kondrashev,Сергей Кондрашев,82.5,Amateur Masters 55-59,Yes,M,B,Raw,1963-09-16,55,79.6,,,,,,115,120,-125,,120,,,,,,120,
2,Andrey Lazutkin,Андрей Лазуткин,82.5,Amateur Masters 55-59,Yes,M,B,Raw,1962-11-27,56,80.9,,,,,,97.5,110,-115,,110,,,,,,110,
1,Vladislav Sannikov,Владислав Санников,82.5,Amateur Masters 75-79,Yes,M,B,Raw,1938-10-29,80,77.9,,,,,,85,87.5,-90,,87.5,,,,,,87.5,
1,Evgeniy Mazur,Евгений Мазур,90,Amateur Open,Yes,M,B,Raw,1990-11-30,28,88.3,,,,,,-180,180,-185,,180,,,,,,180,
2,Evgeniy Bulakhov,Евгений Булахов,90,Amateur Open,Yes,M,B,Raw,1985-06-07,33,86.9,,,,,,170,-177.5,-177.5,,170,,,,,,170,
3,Denis Dobryanskiy,Денис Добрянский,90,Amateur Open,Yes,M,B,Raw,1977-12-06,41,88.3,,,,,,152.5,160,165,,165,,,,,,165,
4,Konstantin Kozak,Константин Козак,90,Amateur Open,Yes,M,B,Raw,1993-10-08,25,88.5,,,,,,155,162.5,-167.5,,162.5,,,,,,162.5,
5,Nikita Biryukov,Никита Бирюков,90,Amateur Open,Yes,M,B,Raw,1992-08-09,26,89.2,,,,,,155,160,-165,,160,,,,,,160,
6,Ruslan Raudmes,Руслан Раудмес,90,Amateur Open,Yes,M,B,Raw,1983-01-30,36,84.6,,,,,,-150,155,-157.5,,155,,,,,,155,
7,Roman Dashkevich,Роман Дашкевич,90,Amateur Open,Yes,M,B,Raw,1983-02-12,36,87.1,,,,,,145,155,-157.5,,155,,,,,,155,
8,Konstantin Ermakov,Константин Ермаков,90,Amateur Open,Yes,M,B,Raw,1984-12-31,34,88.8,,,,,,140,155,-160,,155,,,,,,155,
9,Maksim Basarev,Максим Басарев,90,Amateur Open,Yes,M,B,Raw,1991-06-20,27,89,,,,,,140,145,150,,150,,,,,,150,
10,Roman Tovpeko,Роман Товпеко,90,Amateur Open,Yes,M,B,Raw,1981-03-13,37,90,,,,,,140,142.5,-145,,142.5,,,,,,142.5,
11,Evgeniy Trishin,Евгений Тришин,90,Amateur Open,Yes,M,B,Raw,1986-03-20,32,88,,,,,,132.5,135,137.5,,137.5,,,,,,137.5,
12,Aleksandr Shelestov,Александр Шелестов,90,Amateur Open,Yes,M,B,Raw,1993-02-03,26,89.4,,,,,,-135,135,-155,,135,,,,,,135,
13,Evgeniy Solovev,Евгений Соловьев,90,Amateur Open,Yes,M,B,Raw,1989-07-07,29,89.9,,,,,,127.5,-135,-135,,127.5,,,,,,127.5,
14,Dmitriy Motov,Дмитрий Мотов,90,Amateur Open,Yes,M,B,Raw,1983-12-06,35,82.9,,,,,,100,110,-115,,110,,,,,,110,
15,Konstantin Kovalev,Константин Ковалев,90,Amateur Open,Yes,M,B,Raw,1996-07-25,22,88.7,,,,,,95,110,-120,,110,,,,,,110,
DQ,Sergey Gonchar,Сергей Гончар,90,Amateur Open,Yes,M,B,Raw,1989-06-14,29,87.9,,,,,,-125,-125,-125,,,,,,,,,
DQ,Aleksey Serov,Алексей Серов,90,Amateur Open,Yes,M,B,Raw,1990-07-26,28,89.1,,,,,,-145,-145,,,,,,,,,,
1,Denis Dobryanskiy,Денис Добрянский,90,Amateur Masters 40-44,Yes,M,B,Raw,1977-12-06,41,88.3,,,,,,152.5,160,165,,165,,,,,,165,
2,Nazir Abdulkadirov,Назир Абдулкадиров,90,Amateur Masters 40-44,Yes,M,B,Raw,1976-10-25,42,88.6,,,,,,-160,160,-162.5,,160,,,,,,160,
3,Aleksandr Naraulov,Александр Нараулов,90,Amateur Masters 40-44,Yes,M,B,Raw,1978-09-09,40,88,,,,,,140,-150,-150,,140,,,,,,140,
1,Igor Sirotkin,Игорь Сироткин,90,Amateur Masters 45-49,Yes,M,B,Raw,1970-07-29,48,88.9,,,,,,-142.5,142.5,152.5,,152.5,,,,,,152.5,
1,Igor Khorkhordin,Игорь Хорхордин,90,Amateur Masters 50-54,Yes,M,B,Raw,1967-06-15,51,89.1,,,,,,150,155,160,,160,,,,,,160,
1,Gennadiy Sorokin,Геннадий Сорокин,90,Amateur Masters 55-59,Yes,M,B,Raw,1959-09-08,59,89.1,,,,,,145,150,155,,155,,,,,,155,
1,Pavel Matveev,Павел Матвеев,100,Amateur Open,Yes,M,B,Raw,1993-08-06,25,96.7,,,,,,160,165,170,,170,,,,,,170,
2,Aleksandr Zotov,Александр Зотов,100,Amateur Open,Yes,M,B,Raw,1986-05-13,32,96.7,,,,,,155,-165,165,,165,,,,,,165,
3,Nikita Kulakov,Никита Кулаков,100,Amateur Open,Yes,M,B,Raw,1988-10-09,30,98.8,,,,,,160,-165,165,,165,,,,,,165,
4,Andrey Naumov,Андрей Наумов,100,Amateur Open,Yes,M,B,Raw,1981-10-07,37,99.7,,,,,,160,165,-167.5,,165,,,,,,165,
5,Aleksandr Lapin,Александр Лапин,100,Amateur Open,Yes,M,B,Raw,1989-09-25,29,93.7,,,,,,145,155,-165,,155,,,,,,155,
6,Roman Vinokurov,Роман Винокуров,100,Amateur Open,Yes,M,B,Raw,1984-05-26,34,99.4,,,,,,-150,150,-155,,150,,,,,,150,
7,Roman Aristarkhov,Роман Аристархов,100,Amateur Open,Yes,M,B,Raw,1990-08-01,28,98.3,,,,,,142.5,-147.5,147.5,,147.5,,,,,,147.5,
DQ,Aleksandr Vergasov,Александр Вергасов,100,Amateur Open,Yes,M,B,Raw,1990-12-07,28,97.9,,,,,,-147.5,-147.5,-147.5,,,,,,,,,
1,Vladislav Shcherbakov,Владислав Щербаков,100,Amateur Masters 40-44,Yes,M,B,Raw,1977-08-07,41,99.7,,,,,,140,150,-157.5,,150,,,,,,150,
2,Vadim Bobyr,Вадим Бобырь,100,Amateur Masters 40-44,Yes,M,B,Raw,1976-09-06,42,98.5,,,,,,120,125,130,,130,,,,,,130,
3,Grigoriy Bannov,Григорий Баннов,100,Amateur Masters 40-44,Yes,M,B,Raw,1975-10-19,43,98.2,,,,,,115,122.5,125,,125,,,,,,125,
1,Aleksey Ladontsev,Алексей Ладонцев,100,Amateur Masters 45-49,Yes,M,B,Raw,1973-11-17,45,99.4,,,,,,150,155,-157.5,,155,,,,,,155,
2,Aleksandr Shabalin,Александр Шабалин,100,Amateur Masters 45-49,Yes,M,B,Raw,1971-09-07,47,99,,,,,,145,150,-160,,150,,,,,,150,
3,Dmitriy Lebedko,Дмитрий Лебедко,100,Amateur Masters 45-49,Yes,M,B,Raw,1973-03-26,45,100,,,,,,135,142.5,150,,150,,,,,,150,
1,Vyacheslav Trutnev,Вячеслав Трутнев,110,Amateur Open,Yes,M,B,Raw,1985-10-12,33,106.6,,,,,,180,-190,192.5,,192.5,,,,,,192.5,
2,Georgiy Khachatryan,Георгий Хачатрян,110,Amateur Open,Yes,M,B,Raw,1986-07-23,32,107.3,,,,,,170,180,190,,190,,,,,,190,
3,Ivan Leshchenko,Иван Лещенко,110,Amateur Open,Yes,M,B,Raw,1986-07-10,32,105.6,,,,,,180,-185,,,180,,,,,,180,
4,Aleksey Konovalov,Алексей Коновалов,110,Amateur Open,Yes,M,B,Raw,1992-07-06,26,104.3,,,,,,160,170,-180,,170,,,,,,170,
5,Maksim Zyukin,Максим Зюкин,110,Amateur Open,Yes,M,B,Raw,1985-09-15,33,105.9,,,,,,155,160,162.5,,162.5,,,,,,162.5,
6,Roman Popov,Роман Попов,110,Amateur Open,Yes,M,B,Raw,1992-07-27,26,106.2,,,,,,140,150,-155,,150,,,,,,150,
1,Anton Rodnikov,Антон Родников,110,Amateur Masters 40-44,Yes,M,B,Raw,1976-08-23,42,110,,,,,,157.5,162.5,167.5,,167.5,,,,,,167.5,
2,Andrey Rudetskikh,Андрей Рудецких,110,Amateur Masters 40-44,Yes,M,B,Raw,1978-11-17,40,109.1,,,,,,157.5,162.5,165,,165,,,,,,165,
3,Arkadiy Karchevskiy,Аркадий Карчевский,110,Amateur Masters 40-44,Yes,M,B,Raw,1975-04-28,43,109.4,,,,,,152.5,157.5,-162.5,,157.5,,,,,,157.5,
DQ,Kirill Remin,Кирилл Ремин,110,Amateur Masters 40-44,Yes,M,B,Raw,1975-08-13,43,101.4,,,,,,-170,-170,-170,,,,,,,,,
1,Pavel Bukhantsev,Павел Буханцев,110,Amateur Masters 45-49,Yes,M,B,Raw,1969-08-02,49,108.8,,,,,,175,-182.5,182.5,185,182.5,,,,,,182.5,
1,Dmitriy Demidov,Дмитрий Демидов,125,Amateur Juniors 20-23,Yes,M,B,Raw,1998-10-04,20,122.6,,,,,,-170,170,-180,-180,170,,,,,,170,
1,Vadim Speranskiy,Вадим Сперанский,125,Amateur Open,Yes,M,B,Raw,1992-09-03,26,120.1,,,,,,180,190,-207.5,,190,,,,,,190,
2,Vasiliy Perepichay,Василий Перепичай,125,Amateur Open,Yes,M,B,Raw,1981-02-27,37,124.1,,,,,,172.5,182.5,-185,,182.5,,,,,,182.5,
3,Vasiliy Kireyonok,Василий Киреёнок,125,Amateur Open,Yes,M,B,Raw,1978-12-14,40,122.2,,,,,,172.5,-180,180,,180,,,,,,180,
4,Aleksandr Frolov,Александр Фролов,125,Amateur Open,Yes,M,B,Raw,1988-01-17,31,124.8,,,,,,175,-180,-180,,175,,,,,,175,
5,Kirill Esin,Кирилл Есин,125,Amateur Open,Yes,M,B,Raw,1992-03-09,26,124.9,,,,,,162.5,170,-180,,170,,,,,,170,
6,Dmitriy Ladykin,Дмитрий Ладыкин,125,Amateur Open,Yes,M,B,Raw,1991-02-07,28,121.5,,,,,,150,155,-160,,155,,,,,,155,
1,Valentin Orekhov,Валентин Орехов,125,Amateur Masters 40-44,Yes,M,B,Raw,1977-01-10,42,115.6,,,,,,172.5,-175,-175,,172.5,,,,,,172.5,
1,Sergey Ivanov,Сергей Иванов,125,Amateur Masters 50-54,Yes,M,B,Raw,1967-07-10,51,111,,,,,,-200,200,210,,210,,,,,,210,
2,Vladimir Chubarov,Владимир Чубаров,125,Amateur Masters 50-54,Yes,M,B,Raw,1964-04-03,54,123.2,,,,,,170,-175,-175,,170,,,,,,170,
1,Vladimir Belyaev,Владимир Беляев,125,Amateur Masters 70-74,Yes,M,B,Raw,1946-07-14,72,115.2,,,,,,100,105,107.5,,107.5,,,,,,107.5,
1,Mikhail Filin,Михаил Филин,140,Amateur Open,Yes,M,B,Raw,1961-11-17,57,140,,,,,,175,182.5,-185,,182.5,,,,,,182.5,
1,Sergey Kanygin,Сергей Каныгин,140,Amateur Masters 50-54,Yes,M,B,Raw,1966-01-24,53,138.6,,,,,,180,187.5,192.5,,192.5,,,,,,192.5,
1,Mikhail Filin,Михаил Филин,140,Amateur Masters 55-59,Yes,M,B,Raw,1961-11-17,57,140,,,,,,175,182.5,-185,,182.5,,,,,,182.5,
1,Anastasiya Polivanova,Анастасия Поливанова,48,Amateur Open,Yes,F,B,Single-ply,1993-01-20,26,46.8,,,,,,75,-80,-80,,75,,,,,,75,
1,Natalya Levenkova,Наталья Левенкова,56,Amateur Open,Yes,F,B,Single-ply,1988-09-16,30,54.7,,,,,,-80,80,-85,,80,,,,,,80,
1,Arina Podgornova,Арина Подгорнова,67.5,Amateur Teen 15-19,Yes,F,B,Single-ply,2002-03-11,16,63.8,,,,,,67.5,75,-77.5,,75,,,,,,75,
1,Denis Dobryanskiy,Денис Добрянский,90,Amateur Open,Yes,M,B,Single-ply,1977-12-06,41,88.3,,,,,,200,-212.5,212.5,,212.5,,,,,,212.5,
2,Igor Sidorov,Игорь Сидоров,90,Amateur Open,Yes,M,B,Single-ply,1987-01-08,32,88.7,,,,,,202.5,-207.5,207.5,,207.5,,,,,,207.5,
1,Andrey Ignatov,Андрей Игнатов,100,Amateur Open,Yes,M,B,Single-ply,1992-02-22,27,97.5,,,,,,250,262.5,-267.5,,262.5,,,,,,262.5,
1,Mikhail Litovskiy,Михаил Литовский,110,Amateur Open,Yes,M,B,Single-ply,1993-01-16,26,100.9,,,,,,190,200,-210,,200,,,,,,200,
1,Mariya Lukasevich,Мария Лукасевич,48,Amateur Open,Yes,F,D,Raw,1989-04-28,29,47.9,,,,,,,,,,,115,125,,,125,125,
2,Elizaveta Smirnova,Елизавета Смирнова,48,Amateur Open,Yes,F,D,Raw,1995-01-19,24,48,,,,,,,,,,,77.5,82.5,-85,,82.5,82.5,
1,Mariya Bulkina,Мария Булкина,52,Amateur Open,Yes,F,D,Raw,1984-07-24,34,50.6,,,,,,,,,,,97.5,102.5,107.5,,107.5,107.5,
1,Larisa Demina,Лариса Демина,56,Amateur Teen 15-19,Yes,F,D,Raw,2001-07-27,17,56,,,,,,,,,,,125,132.5,-137.5,,132.5,132.5,
1,Anastasia Pavlova,Анастасия Павлова,56,Amateur Juniors 20-23,Yes,F,D,Raw,1998-05-19,20,55.4,,,,,,,,,,,105,107.5,-110,,107.5,107.5,
1,Natalya Levenkova,Наталья Левенкова,56,Amateur Open,Yes,F,D,Raw,1988-09-16,30,54.7,,,,,,,,,,,130,137.5,-142.5,,137.5,137.5,
1,Mariya Ogorodnikova,Мария Огородникова,60,Amateur Open,Yes,F,D,Raw,1982-04-28,36,59.8,,,,,,,,,,,-125,130,-132.5,,130,130,
2,Evgeniya Avramenko,Евгения Авраменко,60,Amateur Open,Yes,F,D,Raw,1982-03-05,36,59,,,,,,,,,,,90,95,100,,100,100,
1,Polina Barannik,Полина Баранник,67.5,Amateur Open,Yes,F,D,Raw,1994-01-10,25,67,,,,,,,,,,,110,120,-137.5,,120,120,
2,Kseniya Sukhorukova,Ксения Сухорукова,67.5,Amateur Open,Yes,F,D,Raw,1987-10-20,31,65.3,,,,,,,,,,,102.5,117.5,-122.5,,117.5,117.5,
3,Marina Sapronova,Марина Сапронова,67.5,Amateur Open,Yes,F,D,Raw,1986-10-15,32,65.4,,,,,,,,,,,105,110,-115,,110,110,
1,Olga Turkovskaya,Ольга Турковская,67.5,Amateur Masters 50-54,Yes,F,D,Raw,1967-06-05,51,67.5,,,,,,,,,,,110,120,130,,130,130,
1,Natalya Kaftaylova,Наталья Кафтайлова,67.5,Amateur Masters 55-59,Yes,F,D,Raw,1960-08-24,58,65.6,,,,,,,,,,,125,130,135,,135,135,
1,Inessa Danilova,Инесса Данилова,75,Amateur Masters 40-44,Yes,F,D,Raw,1975-01-24,44,72.9,,,,,,,,,,,80,85,87.5,,87.5,87.5,
DQ,Ekaterina Vasileva,Екатерина Васильева,75,Amateur Masters 40-44,Yes,F,D,Raw,1976-09-07,42,72.4,,,,,,,,,,,-152.5,-152.5,-152.5,,,,
1,Anastasiya Loginova,Анастасия Логинова,82.5,Amateur Juniors 20-23,Yes,F,D,Raw,1995-04-04,23,80.7,,,,,,,,,,,112.5,-117.5,-117.5,,112.5,112.5,
1,Maksim Popov #1,Максим Попов,60,Amateur Open,Yes,M,D,Raw,1984-09-03,34,59.7,,,,,,,,,,,235,-250,,,235,235,
1,Ivan Shuvalov,Иван Шувалов,67.5,Amateur Teen 15-19,Yes,M,D,Raw,2003-03-31,15,66,,,,,,,,,,,135,152.5,160,,160,160,
1,Nikolay Yakimchuk,Николай Якимчук,67.5,Amateur Juniors 20-23,Yes,M,D,Raw,1999-02-09,20,66.1,,,,,,,,,,,210,222.5,-225,,222.5,222.5,
2,Anton Kostyuchenko,Антон Костюченко,67.5,Amateur Juniors 20-23,Yes,M,D,Raw,1995-03-29,23,65.7,,,,,,,,,,,185,-195,-195,,185,185,
1,Rodion Tarasov,Родион Тарасов,75,Amateur Teen 15-19,Yes,M,D,Raw,1999-03-12,19,73.6,,,,,,,,,,,225,-250,-250,,225,225,
1,Evgeniy Remizevich,Евгений Ремизевич,75,Amateur Open,Yes,M,D,Raw,1992-03-03,26,72.8,,,,,,,,,,,147.5,157.5,167.5,,167.5,167.5,
2,Vladimir Zhevtunov,Владимир Жевтунов,75,Amateur Open,Yes,M,D,Raw,1988-05-11,30,73.6,,,,,,,,,,,150,155,-160,,155,155,
1,Nikolay Vetrov,Николай Ветров,75,Amateur Masters 70-74,Yes,M,D,Raw,1945-09-12,73,73.8,,,,,,,,,,,140,145,150,,150,150,
1,Aleksey Koltochikhin,Алексей Колточихин,82.5,Amateur Teen 15-19,Yes,M,D,Raw,2000-08-06,18,76.6,,,,,,,,,,,170,180,187.5,,187.5,187.5,
1,Mikhail Kirin,Михаил Кирин,82.5,Amateur Juniors 20-23,Yes,M,D,Raw,1998-12-10,20,79.4,,,,,,,,,,,190,200,,,200,200,
1,Kablan Kofi,Каблан Кофи,82.5,Amateur Open,Yes,M,D,Raw,1994-03-15,24,75.2,,,,,,,,,,,282.5,-290,-290,,282.5,282.5,
2,Sergey Evseev,Сергей Евсеев,82.5,Amateur Open,Yes,M,D,Raw,1990-10-09,28,81.8,,,,,,,,,,,235,252.5,-260,,252.5,252.5,
3,Stanislav Kholodnyy,Станислав Холодный,82.5,Amateur Open,Yes,M,D,Raw,1987-07-09,31,81.4,,,,,,,,,,,210,225,240,,240,240,
4,Pavel Timokhin,Павел Тимохин,82.5,Amateur Open,Yes,M,D,Raw,1981-03-06,37,81.7,,,,,,,,,,,-220,220,225,,225,225,
5,Dmitriy Belov,Дмитрий Белов,82.5,Amateur Open,Yes,M,D,Raw,1981-04-08,37,82,,,,,,,,,,,195,205,-210,,205,205,
6,Andrey Tsepelev,Андрей Цепелев,82.5,Amateur Open,Yes,M,D,Raw,1987-12-22,31,81.8,,,,,,,,,,,190,200,-210,,200,200,
7,Artem Goshkevich,Артем Гошкевич,82.5,Amateur Open,Yes,M,D,Raw,1994-01-24,25,80.8,,,,,,,,,,,180,187.5,-192.5,,187.5,187.5,
1,Pavel Gromov,Павел Громов,82.5,Amateur Masters 40-44,Yes,M,D,Raw,1976-03-02,42,80.9,,,,,,,,,,,180,190,200,,200,200,
1,Aleksey Gvozdev,Алексей Гвоздев,82.5,Amateur Masters 45-49,Yes,M,D,Raw,1972-03-27,46,81,,,,,,,,,,,217.5,-227.5,-227.5,,217.5,217.5,
1,Vladimir Shchemelev,Владимир Щемелев,82.5,Amateur Masters 55-59,Yes,M,D,Raw,1961-04-02,57,81.1,,,,,,,,,,,200,205,210,,210,210,
1,Viktor Skokin,Виктор Скокин,82.5,Amateur Masters 60-64,Yes,M,D,Raw,1957-06-20,61,76.3,,,,,,,,,,,205,217.5,,,217.5,217.5,
1,Vladislav Sannikov,Владислав Санников,82.5,Amateur Masters 75-79,Yes,M,D,Raw,1938-10-29,80,77.9,,,,,,,,,,,122.5,-127.5,-127.5,,122.5,122.5,
1,Andrey Bozhenov,Андрей Боженов,90,Amateur Juniors 20-23,Yes,M,D,Raw,1996-09-04,22,86.6,,,,,,,,,,,150,170,-190,,170,170,
1,Kirill Lomanov,Кирилл Ломанов,90,Amateur Open,Yes,M,D,Raw,1987-07-15,31,89.8,,,,,,,,,,,307.5,317.5,327.5,-331,327.5,327.5,
2,Ivan Kondrashin,Иван Кондрашин,90,Amateur Open,Yes,M,D,Raw,1987-09-29,31,88.3,,,,,,,,,,,250,-260,260,,260,260,
3,Konstantin Ermakov,Константин Ермаков,90,Amateur Open,Yes,M,D,Raw,1984-12-31,34,88.8,,,,,,,,,,,227.5,250,255,,255,255,
4,Aleksandr Mozzhukhin,Александр Мозжухин,90,Amateur Open,Yes,M,D,Raw,1984-04-04,34,89.7,,,,,,,,,,,245,-260,-260,,245,245,
5,Sergey Grishin,Сергей Гришин,90,Amateur Open,Yes,M,D,Raw,1978-06-27,40,89.1,,,,,,,,,,,230,240,-245,,240,240,
6,Yuriy Gribkov,Юрий Грибков,90,Amateur Open,Yes,M,D,Raw,1982-01-13,37,86.1,,,,,,,,,,,190,200,215,,215,215,
7,Vadim Skornyakov,Вадим Скорняков,90,Amateur Open,Yes,M,D,Raw,1982-10-23,36,89.7,,,,,,,,,,,195,205,-215,,205,205,
1,Evgeniy Smirnov,Евгений Смирнов,100,Amateur Open,Yes,M,D,Raw,1990-08-05,28,96,,,,,,,,,,,265,-272.5,272.5,,272.5,272.5,
2,Roman Moiseev,Роман Моисеев,100,Amateur Open,Yes,M,D,Raw,1990-11-27,28,96.8,,,,,,,,,,,245,252.5,257.5,,257.5,257.5,
3,Aleksandr Shlyakhitskiy,Александр Шляхитский,100,Amateur Open,Yes,M,D,Raw,1980-02-09,39,96.2,,,,,,,,,,,220,-240,250,,250,250,
4,Andrey Salov,Андрей Салов,100,Amateur Open,Yes,M,D,Raw,1984-08-30,34,93.5,,,,,,,,,,,220,230,237.5,,237.5,237.5,
5,Artem Losev,Артем Лосев,100,Amateur Open,Yes,M,D,Raw,1994-07-28,24,97.6,,,,,,,,,,,197.5,207.5,215,,215,215,
DQ,Maksim Kondrashov,Максим Кондрашов,100,Amateur Open,Yes,M,D,Raw,1988-11-26,30,98.3,,,,,,,,,,,-195,-197.5,-202.5,,,,
1,Dmitriy Lebedko,Дмитрий Лебедко,100,Amateur Masters 45-49,Yes,M,D,Raw,1973-03-26,45,100,,,,,,,,,,,185,195,205,,205,205,
1,Artem Ushakov,Артем Ушаков,110,Amateur Open,Yes,M,D,Raw,1986-01-21,33,100.7,,,,,,,,,,,220,240,245,,245,245,
2,Dmitriy Sviridov,Дмитрий Свиридов,110,Amateur Open,Yes,M,D,Raw,1992-03-27,26,108,,,,,,,,,,,220,245,-252.5,,245,245,
3,Andrey Kozlov,Андрей Козлов,110,Amateur Open,Yes,M,D,Raw,1969-10-24,49,104.1,,,,,,,,,,,230,237.5,-242.5,,237.5,237.5,
4,Stanislav Orlovskiy,Станислав Орловский,110,Amateur Open,Yes,M,D,Raw,1988-04-27,30,106.9,,,,,,,,,,,205,215,225,,225,225,
1,Roman Belyaev,Роман Беляев,110,Amateur Masters 40-44,Yes,M,D,Raw,1976-01-22,43,107.4,,,,,,,,,,,250,-260,-267.5,,250,250,
1,Andrey Kozlov,Андрей Козлов,110,Amateur Masters 45-49,Yes,M,D,Raw,1969-10-24,49,104.1,,,,,,,,,,,230,237.5,-242.5,,237.5,237.5,
1,Mikhail Baranov,Михаил Баранов,110,Amateur Masters 60-64,Yes,M,D,Raw,1957-03-02,61,106.1,,,,,,,,,,,200,210,-220,,210,210,
1,Artem Marchenko,Артем Марченко,125,Amateur Open,Yes,M,D,Raw,1991-11-12,27,119.9,,,,,,,,,,,230,242.5,-252.5,,242.5,242.5,
2,Kirill Popov,Кирилл Попов,125,Amateur Open,Yes,M,D,Raw,1987-11-09,31,121,,,,,,,,,,,205,220,225,,225,225,
1,Vadim Terskikh,Вадим Терских,125,Amateur Masters 40-44,Yes,M,D,Raw,1978-04-20,40,111.9,,,,,,,,,,,242.5,-250,-250,,242.5,242.5,
2,Aleksandr Prudnikov,Александр Прудников,125,Amateur Masters 40-44,Yes,M,D,Raw,1974-04-25,44,113.9,,,,,,,,,,,210,-220,-220,,210,210,
1,Pavel Shtatnov,Павел Штатнов,110,Amateur Open,Yes,M,D,Single-ply,1980-12-27,38,103.6,,,,,,,,,,,260,-275,280,,280,280,
