Sex,Name,CyrillicName,BodyweightKg,Deadlift1Kg,Deadlift2Kg,Deadlift3Kg,Best3DeadliftKg,Deadlift4Kg,TotalKg,WeightClassKg,Event,Equipment,Tested,Bench1Kg,Bench2Kg,Bench3Kg,Best3BenchKg,Bench4Kg,Division,BirthDate,Place
F,Yuliya Umerenkova,Юлия Умеренкова,67.2,177.5,190,197.5,197.5,,197.5,67.5,D,Raw,Yes,,,,,,Amateur Open,1980-12-09,1
M,Artem Boytsov,Артем Бойцов,71.9,220,-230,,220,,220,75,D,Raw,Yes,,,,,,Amateur Teen 16-17,1998-06-18,1
M,Vadim Orlov,Вадим Орлов,81.8,220,235,240,240,,240,82.5,D,Raw,Yes,,,,,,Amateur Open,1990-07-18,1
M,Igor Umerenkov,Игорь Умеренков,88.7,300,317.5,,317.5,,317.5,90,D,Raw,Yes,,,,,,Amateur Open,1980-09-13,1
M,Anton Glazachev,Антон Глазачев,95.3,-210,210,-220,210,,210,100,D,Raw,Yes,,,,,,Amateur Teen 16-17,1998-02-25,3
F,Natalya Enina,Наталья Енина,43.9,90,-97.5,-97.5,90,,90,44,D,Single-ply,Yes,,,,,,Amateur Teen 18-19,1996-04-17,1
F,Yuliya Vakhterova,Юлия Вахтерова,47.6,135,140,145,145,,145,48,D,Single-ply,Yes,,,,,,Amateur Open,1980-01-01,1
F,Anastasiya Malysheva,Анастасия Малышева,51.9,95,105,-120,105,,105,52,D,Single-ply,Yes,,,,,,Amateur Teen 16-17,1997-05-28,1
F,Irina Dudyreva,Ирина Дудырева,51.4,150,-155,-155,150,,150,52,D,Single-ply,Yes,,,,,,Amateur Open,1990-04-15,1
M,Aleksandr Belozerov,Александр Белозеров,67.4,-200,200,-210,200,,200,67.5,D,Single-ply,Yes,,,,,,Amateur Teen 16-17,1997-03-28,1
M,Sergey Volodarskiy,Сергей Володарский,63.5,210,225,-232.5,225,,225,67.5,D,Single-ply,Yes,,,,,,Amateur Open,1989-08-21,1
M,Ashot Avakyan,Ашот Авакян,74.55,200,212.5,220,220,,220,75,D,Single-ply,Yes,,,,,,Amateur Teen 18-19,1996-09-03,1
M,Anton Sevryukov,Антон Севрюков,81.1,200,215,225,225,,225,82.5,D,Single-ply,Yes,,,,,,Amateur Teen 16-17,1997-08-07,1
M,Vadim Krolovetskiy,Вадим Кроловецкий,81.5,230,-257.5,257.5,257.5,,257.5,82.5,D,Single-ply,Yes,,,,,,Amateur Juniors 20-23,1993-07-07,1
M,Vadim Krolovetskiy,Вадим Кроловецкий,81.5,230,-257.5,257.5,257.5,,257.5,82.5,D,Single-ply,Yes,,,,,,Amateur Open,1993-07-07,1
M,Igor Umerenkov,Игорь Умеренков,88.7,290,300,,300,,300,90,D,Single-ply,Yes,,,,,,Amateur Open,1980-09-13,1
M,Petr Samko,Петр Самко,90,210,230,-245,230,,230,90,D,Single-ply,Yes,,,,,,Amateur Open,1987-11-12,2
M,Evgeniy Esaulkov,Евгений Есаулков,100,-280,280,-290,280,,280,100,D,Single-ply,Yes,,,,,,Amateur Open,1989-08-06,1
M,Egor Makarov,Егор Макаров,94.9,-200,200,-240,200,,200,100,D,Single-ply,Yes,,,,,,Amateur Open,1984-12-13,2
M,Andrey Grigorev,Андрей Григорьев,105.2,215,227.5,-232.5,227.5,,227.5,110,D,Single-ply,Yes,,,,,,Amateur Masters 45-49,1965-03-25,1
F,Yuliya Vakhterova,Юлия Вахтерова,47.6,125,130,135,135,,135,48,D,Raw,Yes,,,,,,Amateur Open,1980-01-01,1
F,Mariya Mokrinskaya,Мария Мокринская,51,80,87.5,92.5,92.5,,92.5,52,D,Raw,Yes,,,,,,Amateur Teen 18-19,1995-11-19,1
F,Evgeniya Astafeva,Евгения Астафьева,47.4,90,95,100,100,,100,48,D,Raw,Yes,,,,,,Amateur Open,1982-06-19,1
F,Viktoriya Reshetnikova,Виктория Решетникова,51.6,80,90,97.5,97.5,,97.5,52,D,Raw,Yes,,,,,,Amateur Open,1990-08-29,2
F,Diana Kalinichenko,Диана Калиниченко,49.9,65,-80,-80,65,,65,52,D,Raw,Yes,,,,,,Amateur Open,1986-12-08,3
F,Mariya Serdyuchenko,Мария Сердюченко,55.2,105,115,-122.5,115,,115,56,D,Raw,Yes,,,,,,Amateur Juniors 20-23,1992-05-04,1
F,Mariya Serdyuchenko,Мария Сердюченко,55.2,105,115,-122.5,115,,115,56,D,Raw,Yes,,,,,,Amateur Open,1992-05-04,1
F,Galina Bocharova,Галина Бочарова,58.2,105,115,120,120,,120,60,D,Raw,Yes,,,,,,Amateur Juniors 20-23,1992-10-18,1
F,Galina Netrebina,Галина Нетребина,57.7,100,110,-115,110,,110,60,D,Raw,Yes,,,,,,Amateur Open,1978-07-07,1
F,Anna Khadzhi,Анна Хаджи,58.4,-105,105,110,110,,110,60,D,Raw,Yes,,,,,,Amateur Open,1987-04-16,2
F,Anna Zubkova,Анна Зубкова,62.3,-67.5,72.5,82.5,82.5,,82.5,67.5,D,Raw,Yes,,,,,,Amateur Teen 18-19,1996-08-27,1
F,Yuliya Umerenkova,Юлия Умеренкова,67.2,160,170,177.5,177.5,,177.5,67.5,D,Raw,Yes,,,,,,Amateur Open,1980-12-09,2
F,Antonina Tukacheva,Антонина Тукачева,74.2,135,-142.5,-142.5,135,,135,75,D,Raw,Yes,,,,,,Amateur Open,1982-11-14,1
F,Anna Shaykhutdinova,Анна Шайхутдинова,84.9,140,-152.5,-152.5,140,,140,90,D,Raw,Yes,,,,,,Amateur Open,1986-08-27,1
M,Petr Ushakov,Петр Ушаков,59.2,200,220,-225,220,,220,60,D,Raw,Yes,,,,,,Amateur Juniors 20-23,1992-11-17,1
M,Petr Ushakov,Петр Ушаков,59.2,200,220,-225,220,,220,60,D,Raw,Yes,,,,,,Amateur Open,1992-11-17,1
M,Nikolay Kerpatyy,Николай Керпатый,63.4,-90,105,115,115,,115,67.5,D,Raw,Yes,,,,,,Amateur Teen 13-15,2000-11-24,1
M,Aleksandr Zakharov,Александр Захаров,66.5,150,160,165,165,,165,67.5,D,Raw,Yes,,,,,,Amateur Teen 16-17,1997-08-07,1
M,Igor Romanenkov,Игорь Романенков,67.5,150,160,165,165,,165,67.5,D,Raw,Yes,,,,,,Amateur Teen 16-17,1997-06-11,2
M,Anton Konyushnyak,Антон Конюшняк,63.7,-130,130,135,135,,135,67.5,D,Raw,Yes,,,,,,Amateur Teen 16-17,1997-08-25,3
M,Roman Vasilenko,Роман Василенко,60.9,100,-110,-110,100,,100,67.5,D,Raw,Yes,,,,,,Amateur Teen 18-19,1997-03-05,1
M,Dmitriy Arkadev,Дмитрий Аркадьев,67.3,210,225,230,230,,230,67.5,D,Raw,Yes,,,,,,Amateur Open,1983-01-25,1
M,Sergey Volodarskiy,Сергей Володарский,63.5,210,217.5,225,225,,225,67.5,D,Raw,Yes,,,,,,Amateur Open,1989-08-21,2
M,Andrey Markovchin,Андрей Марковчин,66.7,175,190,-200,190,,190,67.5,D,Raw,Yes,,,,,,Amateur Open,1987-09-04,3
M,Aleksandr Sidorov,Александр Сидоров,74.9,122.5,130,135,135,,135,75,D,Raw,Yes,,,,,,Amateur Teen 13-15,1999-12-26,1
M,Evgeniy Rogovoy,Евгений Роговой,73.5,125,130,-135,130,,130,75,D,Raw,Yes,,,,,,Amateur Teen 16-17,1998-09-27,2
M,Ivan Ippolitov,Иван Ипполитов,73.6,90,95,100,100,,100,75,D,Raw,Yes,,,,,,Amateur Teen 16-17,1999-02-02,3
M,Valentin Miroshnikov,Валентин Мирошников,73.8,185,197.5,202.5,202.5,,202.5,75,D,Raw,Yes,,,,,,Amateur Teen 18-19,1997-02-04,1
M,Roman Alyabev,Роман Алябьев,71.8,190,202.5,207.5,207.5,,207.5,75,D,Raw,Yes,,,,,,Amateur Juniors 20-23,1993-12-22,1
M,Anatoliy Kita,Анатолий Кита,73.3,120,127.5,-132.5,127.5,,127.5,75,D,Raw,Yes,,,,,,Amateur Juniors 20-23,1993-10-22,2
M,Artem Chebotarev,Артем Чеботарев,75,180,200,207.5,207.5,,207.5,75,D,Raw,Yes,,,,,,Amateur Open,1990-02-10,1
M,Nikita Volobuev,Никита Волобуев,80.9,170,185,-190,185,,185,82.5,D,Raw,Yes,,,,,,Amateur Teen 13-15,1999-04-17,1
M,Stanislav Tsymbarenko,Станислав Цымбаренко,78.3,205,215,222.5,222.5,,222.5,82.5,D,Raw,Yes,,,,,,Amateur Teen 16-17,1997-12-16,1
M,Dmitriy Knyrik,Дмитрий Кнырик,81.1,165,175,185,185,,185,82.5,D,Raw,Yes,,,,,,Amateur Teen 16-17,1997-05-18,2
M,Maksim Korobeynikov,Максим Коробейников,81.7,215,225,235,235,,235,82.5,D,Raw,Yes,,,,,,Amateur Teen 18-19,1996-12-08,1
M,Edgar Nepobedimyy,Эдгар Непобедимый,81.3,200,215,-220,215,,215,82.5,D,Raw,Yes,,,,,,Amateur Open,1982-08-08,2
M,Aleksandr Skurtu,Александр Скурту,82.5,170,185,-190,185,,185,82.5,D,Raw,Yes,,,,,,Amateur Masters 40-44,1973-11-17,1
M,Vladislav Chicherin,Владислав Чичерин,85,150,162.5,172.5,172.5,,172.5,90,D,Raw,Yes,,,,,,Amateur Teen 16-17,1997-08-31,1
M,Artur Mamedyarov,Артур Мамедяров,89.2,282.5,302.5,-327.5,302.5,,302.5,90,D,Raw,Yes,,,,,,Amateur Juniors 20-23,1991-08-20,1
M,Artur Mamedyarov,Артур Мамедяров,89.2,282.5,302.5,-327.5,302.5,,302.5,90,D,Raw,Yes,,,,,,Amateur Open,1991-08-20,2
M,Petr Samko,Петр Самко,90,205,-222.5,,205,,205,90,D,Raw,Yes,,,,,,Amateur Open,1987-11-12,3
M,Andrey Tsapkov,Андрей Цапков,88.4,185,195,205,205,,205,90,D,Raw,Yes,,,,,,Amateur Masters 40-44,1973-05-10,1
M,Mikhail Kozachuk,Михаил Козачук,88.2,140,150,-155,150,,150,90,D,Raw,Yes,,,,,,Amateur Masters 50-54,1963-11-20,1
M,Evgeniy Syuzyumov,Евгений Сюзюмов,94.3,235,245,255,255,,255,100,D,Raw,Yes,,,,,,Amateur Teen 16-17,1997-09-25,1
M,Aleksandr Tutukin,Александр Тутукин,96.2,210,225,232.5,232.5,,232.5,100,D,Raw,Yes,,,,,,Amateur Teen 16-17,1997-04-21,2
M,Artem Vorotyntsev,Артем Воротынцев,98.4,260,-270,-270,260,,260,100,D,Raw,Yes,,,,,,Amateur Juniors 20-23,1993-09-21,1
M,Nikolay Khanis,Николай Ханис,100,220,232.5,240,240,,240,100,D,Raw,Yes,,,,,,Amateur Open,1991-05-22,1
M,Egor Makarov,Егор Макаров,94.9,200,220,232.5,232.5,,232.5,100,D,Raw,Yes,,,,,,Amateur Open,1984-12-13,2
M,Eduard Shumakov,Эдуард Шумаков,99.3,210,222.5,232.5,232.5,,232.5,100,D,Raw,Yes,,,,,,Amateur Open,1977-01-23,3
M,Ruslan Mamontov,Руслан Мамонтов,103.9,190,200,210,210,,210,110,D,Raw,Yes,,,,,,Amateur Open,1984-04-12,1
F,Kristina Kabetova,Кристина Кабетова,57.8,80,90,95,95,,95,60,D,Single-ply,No,,,,,,Pro Open,1990-10-10,1
F,Viktoriya Lavrishcheva,Виктория Лаврищева,66.6,160,-180,180,180,,180,67.5,D,Single-ply,No,,,,,,Pro Open,1989-05-26,1
F,Nadezhda Talikova,Надежда Таликова,69.9,170,-180,-180,170,,170,75,D,Single-ply,No,,,,,,Pro Open,1960-04-01,1
F,Nadezhda Talikova,Надежда Таликова,69.9,170,-180,-180,170,,170,75,D,Single-ply,No,,,,,,Pro Masters 50-54,1960-04-01,1
M,Egor Musienko,Егор Мусиенко,99.7,330,350,-355,350,,350,100,D,Single-ply,No,,,,,,Pro Juniors 20-23,1993-06-15,1
M,Egor Musienko,Егор Мусиенко,99.7,330,350,-355,350,,350,100,D,Single-ply,No,,,,,,Pro Open,1993-06-15,1
M,Ivan Zevyakin,Иван Зевякин,95.9,340,-350,-350,340,,340,100,D,Single-ply,No,,,,,,Pro Open,1988-06-28,2
M,Dmitriy Pershin,Дмитрий Першин,95.7,170,190,210,210,,210,100,D,Single-ply,No,,,,,,Pro Open,1990-09-25,3
M,Ilya Luchnikov,Илья Лучников,108.9,310,330,337.5,337.5,,337.5,110,D,Single-ply,No,,,,,,Pro Open,1974-03-11,1
M,Sergey Kovalchuk,Сергей Ковальчук,100.1,280,300,-310,300,,300,110,D,Single-ply,No,,,,,,Pro Open,1986-09-09,2
M,Ilya Luchnikov,Илья Лучников,108.9,310,330,337.5,337.5,,337.5,110,D,Single-ply,No,,,,,,Pro Masters 40-44,1974-03-11,1
M,Ruslan Pustovoy,Руслан Пустовой,117.8,315,-330,,315,,315,125,D,Single-ply,No,,,,,,Pro Open,1979-08-28,1
F,Elena Donskova,Елена Донскова,48,55,65,70,70,,70,48,D,Raw,No,,,,,,Pro Masters 40-44,1971-11-26,1
F,Leyla Abasova,Лейла Абасова,50.3,70,77.5,82.5,82.5,,82.5,52,D,Raw,No,,,,,,Pro Teen 18-19,1995-05-01,1
F,Viktoriya Lavrishcheva,Виктория Лаврищева,66.6,140,150,,150,,150,67.5,D,Raw,No,,,,,,Pro Open,1989-05-26,1
F,Olga Charikova,Ольга Чарикова,64.6,100,110,,110,,110,67.5,D,Raw,No,,,,,,Pro Open,1978-08-22,2
F,Elena Terekhova,Елена Терехова,74,120,130,140,140,,140,75,D,Raw,No,,,,,,Pro Open,1987-08-07,1
F,Viktoriya Parfenova,Виктория Парфенова,109.3,120,-130,-130,120,,120,90+,D,Raw,No,,,,,,Pro Open,1989-07-11,1
M,Danil Pustovoy,Данил Пустовой,60.2,65,75,-85,75,,75,67.5,D,Raw,No,,,,,,Pro Open,,1
M,Sergey Dolgushin,Сергей Долгушин,81.6,200,210,220,220,,220,82.5,D,Raw,No,,,,,,Pro Juniors 20-23,1992-07-23,1
M,Konstantin Bordey,Константин Бордей,81.6,140,160,-190,160,,160,82.5,D,Raw,No,,,,,,Pro Open,1988-05-14,1
M,Boris Garbar,Борис Гарбар,85.6,240,250,265,265,,265,90,D,Raw,No,,,,,,Pro Open,1990-03-13,1
M,Egor Musienko,Егор Мусиенко,99.7,317.5,330,-340,330,,330,100,D,Raw,No,,,,,,Pro Juniors 20-23,1993-06-15,1
M,Ivan Zevyakin,Иван Зевякин,95.9,325,335,,335,,335,100,D,Raw,No,,,,,,Pro Open,1988-06-28,1
M,Egor Musienko,Егор Мусиенко,99.7,317.5,330,-340,330,,330,100,D,Raw,No,,,,,,Pro Open,1993-06-15,2
M,Evgeniy Farafonov,Евгений Фарафонов,96.6,250,280,-300,280,,280,100,D,Raw,No,,,,,,Pro Open,1985-08-17,3
M,Dmitriy Pershin,Дмитрий Першин,95.7,170,,,170,,170,100,D,Raw,No,,,,,,Pro Open,1990-09-25,4
F,Yuliya Umerenkova,Юлия Умеренкова,67.2,,,,,,105,67.5,B,Raw,Yes,100,105,,105,,Amateur Open,1980-12-09,2
M,Vladimir Polupanov,Владимир Полупанов,67,,,,,,177.5,67.5,B,Raw,Yes,167.5,-172.5,177.5,177.5,,Amateur Open,1983-07-03,1
M,Vildan Rezyapov,Вильдан Резяпов,119.5,,,,,,195,125,B,Raw,Yes,190,195,-200,195,,Amateur Juniors 20-23,1991-04-17,1
F,Natalya Enina,Наталья Енина,43.9,,,,,,52.5,44,B,Single-ply,Yes,47.5,52.5,-55,52.5,,Amateur Teen 18-19,1996-04-17,1
F,Yuliya Vakhterova,Юлия Вахтерова,47.6,,,,,,77.5,48,B,Single-ply,Yes,72.5,75,77.5,77.5,,Amateur Open,1980-01-01,1
F,Irina Dudyreva,Ирина Дудырева,51.4,,,,,,95,52,B,Single-ply,Yes,90,95,-100,95,,Amateur Open,1990-04-15,1
F,Mariya Serdyuchenko,Мария Сердюченко,55.2,,,,,,65,56,B,Single-ply,Yes,62.5,65,-70,65,,Amateur Juniors 20-23,1992-05-04,1
F,Mariya Serdyuchenko,Мария Сердюченко,55.2,,,,,,65,56,B,Single-ply,Yes,62.5,65,-70,65,,Amateur Open,1992-05-04,1
M,Petr Ushakov,Петр Ушаков,59.2,,,,,,145,60,B,Single-ply,Yes,135,145,-150,145,,Amateur Juniors 20-23,1992-11-17,1
M,Petr Ushakov,Петр Ушаков,59.2,,,,,,145,60,B,Single-ply,Yes,135,145,-150,145,,Amateur Open,1992-11-17,1
M,Sergey Gurov,Сергей Гуров,74.3,,,,,,147.5,75,B,Single-ply,Yes,130,140,147.5,147.5,,Amateur Open,1976-06-25,1
M,Yuriy Kolesnikov,Юрий Колесников,73.1,,,,,,120,75,B,Single-ply,Yes,120,-130,-130,120,,Amateur Open,1981-04-29,2
M,Vadim Krolovetskiy,Вадим Кроловецкий,81.5,,,,,,177.5,82.5,B,Single-ply,Yes,160,172.5,177.5,177.5,,Amateur Juniors 20-23,1993-07-07,1
M,Vadim Krolovetskiy,Вадим Кроловецкий,81.5,,,,,,177.5,82.5,B,Single-ply,Yes,160,172.5,177.5,177.5,,Amateur Open,1993-07-07,1
M,Igor Umerenkov,Игорь Умеренков,88.7,,,,,,215,90,B,Single-ply,Yes,200,207.5,215,215,,Amateur Open,1980-09-13,1
M,Denis Grigorev,Денис Григорьев,98.5,,,,,,200,100,B,Single-ply,Yes,187.5,-200,200,200,,Amateur Open,1982-08-07,1
M,Andrey Grigorev,Андрей Григорьев,105.2,,,,,,172.5,110,B,Single-ply,Yes,-162.5,162.5,172.5,172.5,,Amateur Masters 45-49,1965-03-25,1
M,Oleg Vnukov,Олег Внуков,123.4,,,,,,227.5,125,B,Single-ply,Yes,210,-220,227.5,227.5,,Amateur Masters 40-44,1974-06-11,1
F,Viktoriya Ivanova,Виктория Иванова,47.2,,,,,,55,48,B,Raw,Yes,52.5,55,-57.5,55,,Amateur Juniors 20-23,1994-03-24,1
F,Yuliya Vakhterova,Юлия Вахтерова,47.6,,,,,,65,48,B,Raw,Yes,60,62.5,65,65,,Amateur Open,1980-01-01,1
F,Evgeniya Astafeva,Евгения Астафьева,47.4,,,,,,50,48,B,Raw,Yes,47.5,50,-52.5,50,,Amateur Open,1982-06-19,2
F,Kseniya Baranova,Ксения Баранова,50.3,,,,,,55,52,B,Raw,Yes,50,55,-57.5,55,,Amateur Juniors 20-23,1993-12-30,1
F,Irina Kotova,Ирина Котова,50.5,,,,,,50,52,B,Raw,Yes,45,-50,50,50,,Amateur Open,1989-11-14,1
F,Ekaterina Kashibadze,Екатерина Кашибадзе,50.8,,,,,,50,52,B,Raw,Yes,45,50,-52.5,50,,Amateur Open,1989-05-11,2
F,Oksana Vernigora,Оксана Вернигора,51.8,,,,,,50,52,B,Raw,Yes,45,50,-55,50,,Amateur Open,1987-09-27,3
F,Tatyana Nekhoroshkova,Татьяна Нехорошкова,55.7,,,,,,62.5,56,B,Raw,Yes,57.5,62.5,-65,62.5,,Amateur Open,1980-07-16,1
F,Anna Bobreshova,Анна Бобрешова,59.8,,,,,,57.5,60,B,Raw,Yes,50,57.5,-60,57.5,,Amateur Open,1990-02-03,1
F,Anna Zubkova,Анна Зубкова,62.3,,,,,,40,67.5,B,Raw,Yes,37.5,40,-42.5,40,,Amateur Teen 18-19,1996-08-27,1
F,Vita Maslennikova,Вита Масленникова,67.5,,,,,,85,67.5,B,Raw,Yes,80,85,-90,85,,Amateur Open,1983-05-30,1
F,Viktoriya Blotskaya,Виктория Блоцкая,68.9,,,,,,75,75,B,Raw,Yes,67.5,72.5,75,75,,Amateur Open,1985-10-14,1
M,Fedor Tolkachev,Федор Толкачев,58.2,,,,,,80,60,B,Raw,Yes,75,77.5,80,80,,Amateur Teen 13-15,1999-09-17,1
M,Matvey Putilin,Матвей Путилин,62.5,,,,,,70,67.5,B,Raw,Yes,70,-75,-77.5,70,,Amateur Teen 13-15,1999-08-01,1
M,Vladislav Kaznacheev,Владислав Казначеев,64.1,,,,,,100,67.5,B,Raw,Yes,100,-105,-105,100,,Amateur Teen 16-17,1998-03-28,1
M,Maksim Gridnev,Максим Гриднев,65.4,,,,,,147.5,67.5,B,Raw,Yes,142.5,147.5,-152.5,147.5,,Amateur Juniors 20-23,1992-10-31,1
M,Aleksandr Shepelev,Александр Шепелев,72.1,,,,,,140,75,B,Raw,Yes,127.5,135,140,140,,Amateur Teen 16-17,1997-05-29,1
M,Artem Fursa,Артем Фурса,74.4,,,,,,117.5,75,B,Raw,Yes,112.5,117.5,-120,117.5,,Amateur Teen 16-17,1998-03-26,2
M,Evgeniy Rogovoy,Евгений Роговой,73.5,,,,,,95,75,B,Raw,Yes,95,-100,-100,95,,Amateur Teen 16-17,1998-09-27,3
M,Pavel Bakiev,Павел Бакиев,71.6,,,,,,135,75,B,Raw,Yes,122.5,130,135,135,,Amateur Juniors 20-23,1994-02-08,1
M,Sergey Kosinov,Сергей Косинов,74.9,,,,,,110,75,B,Raw,Yes,110,-117.5,-117.5,110,,Amateur Juniors 20-23,1994-01-03,2
M,Anatoliy Kita,Анатолий Кита,73.9,,,,,,82.5,75,B,Raw,Yes,82.5,-87.5,-90,82.5,,Amateur Juniors 20-23,1993-10-22,3
M,Artem Goncharov,Артем Гончаров,72.4,,,,,,,75,B,Raw,Yes,-110,-117.5,-117.5,,,Amateur Juniors 20-23,1995-02-01,DQ
M,Artem Chebotarev,Артем Чеботарев,74.8,,,,,,147.5,75,B,Raw,Yes,140,-147.5,147.5,147.5,,Amateur Open,1990-02-10,1
M,Roman Smelyy,Роман Смелый,72.9,,,,,,105,75,B,Raw,Yes,105,-107.5,-107.5,105,,Amateur Open,1991-01-13,2
M,Aleksey Melnikov,Алексей Мельников,81.8,,,,,,120,82.5,B,Raw,Yes,112.5,120,-127.5,120,,Amateur Teen 16-17,1997-12-05,1
M,Evgeniy Gorshkov,Евгений Горшков,76.8,,,,,,95,82.5,B,Raw,Yes,90,95,-100,95,,Amateur Teen 16-17,1999-03-01,2
M,Dmitriy Korsakov,Дмитрий Корсаков,81.8,,,,,,140,82.5,B,Raw,Yes,135,140,-145,140,,Amateur Juniors 20-23,1992-04-02,1
M,Nikolay Krivoputskikh,Николай Кривопуцких,81.4,,,,,,145,82.5,B,Raw,Yes,-135,140,145,145,,Amateur Open,1984-12-27,1
M,Oleg Kosinov,Олег Косинов,82.2,,,,,,145,82.5,B,Raw,Yes,135,140,145,145,,Amateur Open,1982-01-04,2
M,Aleksandr Skurtu,Александр Скурту,81.5,,,,,,130,82.5,B,Raw,Yes,120,127.5,130,130,,Amateur Masters 40-44,1973-11-17,1
M,Bogdan Kvitko,Богдан Квитко,88.1,,,,,,150,90,B,Raw,Yes,150,-155,-155,150,,Amateur Teen 18-19,1996-03-25,1
M,Artem Bezryadin,Артем Безрядин,86.3,,,,,,152.5,90,B,Raw,Yes,-140,145,152.5,152.5,,Amateur Juniors 20-23,1993-10-12,1
M,Ilya Sobolevskiy,Илья Соболевский,87.3,,,,,,132.5,90,B,Raw,Yes,125,132.5,-137.5,132.5,,Amateur Juniors 20-23,1991-09-07,2
M,Andrey Krestinin,Андрей Крестинин,90,,,,,,180,90,B,Raw,Yes,175,180,-185,180,,Amateur Open,1987-05-01,1
M,Artem Altunin,Артем Алтунин,89.3,,,,,,147.5,90,B,Raw,Yes,147.5,-152.5,-152.5,147.5,,Amateur Open,1977-12-05,2
M,Ruslan Drozhzhin,Руслан Дрожжин,85.6,,,,,,140,90,B,Raw,Yes,132.5,135,140,140,,Amateur Open,1984-08-21,3
M,Sergey Maslov,Сергей Маслов,88,,,,,,132.5,90,B,Raw,Yes,125,-132.5,132.5,132.5,,Amateur Open,1989-12-31,4
M,Aleksey Doroshev,Алексей Дорошев,88.7,,,,,,132.5,90,B,Raw,Yes,132.5,-142.5,-142.5,132.5,,Amateur Open,1988-04-20,5
M,Aleksey Ivanov,Алексей Иванов,86,,,,,,125,90,B,Raw,Yes,125,-132.5,-132.5,125,,Amateur Open,1989-04-06,6
M,Nikolay Kochetov,Николай Кочетов,92.9,,,,,,140,100,B,Raw,Yes,140,-150,-165,140,,Amateur Teen 16-17,1998-10-13,1
M,Egor Levit,Егор Левит,98.8,,,,,,115,100,B,Raw,Yes,110,115,-120,115,,Amateur Teen 18-19,1996-09-17,1
M,Aleksandr Manaenkov,Александр Манаенков,96.2,,,,,,155,100,B,Raw,Yes,145,-150,155,155,,Amateur Juniors 20-23,1992-04-19,1
M,Yuriy Parkhomenko,Юрий Пархоменко,99,,,,,,170,100,B,Raw,Yes,162.5,-170,170,170,,Amateur Open,1981-02-22,1
M,Anton Borovlev,Антон Боровлев,97.1,,,,,,162.5,100,B,Raw,Yes,155,162.5,-170,162.5,,Amateur Open,1991-02-11,2
M,Aleksandr Kolesov,Александр Колесов,96.3,,,,,,140,100,B,Raw,Yes,140,-150,-150,140,,Amateur Open,1984-05-15,3
M,Mikhail Chepurnoy,Михаил Чепурной,92.9,,,,,,140,100,B,Raw,Yes,130,140,-150,140,,Amateur Masters 45-49,1970-02-26,1
M,Ilya Gorevalov,Илья Горевалов,102.1,,,,,,162.5,110,B,Raw,Yes,150,157.5,162.5,162.5,,Amateur Teen 18-19,1996-08-03,1
M,Mikhail Tomilin,Михаил Томилин,103.6,,,,,,185,110,B,Raw,Yes,175,180,185,185,,Amateur Open,1990-04-18,1
M,Andrey Glukhov,Андрей Глухов,104,,,,,,182.5,110,B,Raw,Yes,170,177.5,182.5,182.5,,Amateur Open,1978-04-02,2
M,Aleksandr Tishchenko,Александр Тищенко,109.8,,,,,,175,110,B,Raw,Yes,175,-180,-180,175,,Amateur Open,1982-04-22,3
M,Mikhail Kalinin,Михаил Калинин,109.8,,,,,,167.5,110,B,Raw,Yes,155,167.5,,167.5,,Amateur Open,1975-07-22,4
M,Valeriy Kovalev,Валерий Ковалев,81.5,,,,,,140,82.5,B,Raw,No,-140,-140,140,140,,Pro Open,1981-02-04,4
M,Sergey Komkov,Сергей Комков,97.4,,,,,,192.5,100,B,Raw,No,185,-192.5,192.5,192.5,,Pro Open,1987-06-12,2
M,Aleksandr Rystsov,Александр Рысцов,110,,,,,,260,110,B,Raw,No,250,260,-270,260,,Pro Open,1979-12-02,1
M,Roman Brekhov,Роман Брехов,106.5,,,,,,,110,B,Raw,No,-255,-270,-275,,,Pro Open,1990-02-24,DQ
F,Viktoriya Lavrishcheva,Виктория Лаврищева,66.6,,,,,,80,67.5,B,Single-ply,No,-70,70,80,80,,Pro Open,1989-05-26,1
F,Olga Baklykova,Ольга Баклыкова,74.2,,,,,,140,75,B,Single-ply,No,125,-130,140,140,,Pro Open,1964-05-07,1
F,Olga Baklykova,Ольга Баклыкова,74.2,,,,,,140,75,B,Single-ply,No,125,-130,140,140,,Pro Masters 50-54,1964-05-07,1
M,Dmitriy Gollandtsev,Дмитрий Голландцев,87.6,,,,,,187.5,90,B,Single-ply,No,187.5,-195,-195,187.5,,Pro Open,1978-05-29,1
M,Egor Musienko,Егор Мусиенко,99.7,,,,,,,100,B,Single-ply,No,-210,,,,,Pro Juniors 20-23,1993-06-15,DQ
M,Dmitriy Polikarpov,Дмитрий Поликарпов,96.3,,,,,,192.5,100,B,Single-ply,No,-192.5,192.5,-200,192.5,,Pro Open,1979-08-01,1
M,Egor Musienko,Егор Мусиенко,99.7,,,,,,,100,B,Single-ply,No,-210,,,,,Pro Open,1993-06-15,DQ
M,Aleksandr Olkhovskiy,Александр Ольховский,107.8,,,,,,240,110,B,Single-ply,No,235,240,-245,240,,Pro Open,1978-12-25,1
M,Sergey Zimin,Сергей Зимин,131.7,,,,,,235,140,B,Single-ply,No,215,225,235,235,,Pro Masters 40-44,1972-02-14,1
F,Natalya Yavilyak,Наталія Явіляк,50,,,,,,65,52,B,Raw,No,50,60,65,65,,Pro Open,1983-09-04,1
F,Olga Baklykova,Ольга Баклыкова,74.2,,,,,,110,75,B,Raw,No,105,110,,110,,Pro Open,1964-05-07,1
F,Olga Baklykova,Ольга Баклыкова,74.2,,,,,,110,75,B,Raw,No,105,110,,110,,Pro Masters 50-54,1964-05-07,1
M,Aleksey Shorokhov,Алексей Шорохов,53,,,,,,87.5,56,B,Raw,No,87.5,-95,-95,87.5,,Pro Teen 16-17,1998-07-15,1
M,Aleksey Shorokhov,Алексей Шорохов,53,,,,,,,56,B,Raw,No,-90,,,,,Pro Teen 16-17,1998-07-15,DQ
M,Roman Smelyy,Роман Смелый,72.9,,,,,,,75,B,Raw,No,-105,,,,,Pro Open,1991-01-13,DQ
M,Andrey Platonov,Андрей Платонов,76.6,,,,,,125,82.5,B,Raw,No,115,120,125,125,,Pro Teen 18-19,1995-12-19,1
M,Sergey Dolgushin,Сергей Долгушин,81.6,,,,,,140,82.5,B,Raw,No,130,140,-147.5,140,,Pro Juniors 20-23,1992-07-23,1
M,Andrey Kildyushev,Андрей Кильдюшев,81.2,,,,,,187.5,82.5,B,Raw,No,177.5,187.5,-197.5,187.5,,Pro Open,1988-08-04,1
M,Konstantin Bordey,Константин Бордей,81.6,,,,,,150,82.5,B,Raw,No,127.5,145,150,150,,Pro Open,1988-05-14,2
M,Dmitriy Lyutikov,Дмитрий Лютиков,79.4,,,,,,147.5,82.5,B,Raw,No,-147.5,147.5,-150,147.5,,Pro Open,1987-11-09,3
M,Denis Znamenskiy,Денис Знаменский,87.3,,,,,,157.5,90,B,Raw,No,145,157.5,-165,157.5,,Pro Juniors 20-23,1993-03-02,1
M,Aleksey Nikolaenko,Алексей Николаенко,87.6,,,,,,182.5,90,B,Raw,No,170,180,182.5,182.5,,Pro Open,1989-02-07,1
M,Andrey Agnevshchikov,Андрей Агневщиков,89.5,,,,,,170,90,B,Raw,No,170,-180,-185,170,,Pro Open,1989-04-25,2
M,Artur Khmara,Артур Хмара,84.7,,,,,,165,90,B,Raw,No,150,160,165,165,,Pro Open,1983-12-27,3
M,Vyacheslav Nechpal,Вячеслав Нечпал,89.4,,,,,,,90,B,Raw,No,-170,-170,-170,,,Pro Masters 40-44,1973-07-02,DQ
M,Mikhail Ronkin,Михаил Ронкин,88.4,,,,,,130,90,B,Raw,No,130,-140,-140,130,,Pro Masters 50-54,1961-11-13,1
M,Ivan Ivanov #13,Иван Иванов,90.9,,,,,,145,100,B,Raw,No,140,145,-150,145,,Pro Teen 16-17,1997-06-17,1
M,Arman Grigoryan,Арман Григорян,99.9,,,,,,230,100,B,Raw,No,220,230,-235,230,,Pro Juniors 20-23,1994-06-03,1
M,Sergey Ilyashchuk,Сергей Ильящук,93.1,,,,,,150,100,B,Raw,No,-140,140,150,150,,Pro Juniors 20-23,1991-10-15,2
M,Arman Grigoryan,Арман Григорян,99.9,,,,,,230,100,B,Raw,No,220,230,-235,230,,Pro Open,1994-06-03,1
M,Evgeniy Farafonov,Евгений Фарафонов,96.6,,,,,,190,100,B,Raw,No,190,-200,-200,190,,Pro Open,1985-08-17,3
M,Andrey Gorbunov,Андрей Горбунов,96.7,,,,,,140,100,B,Raw,No,120,130,140,140,,Pro Masters 45-49,1968-04-04,1
M,Anatoliy Klyuev,Анатолий Клюев,106.1,,,,,,195,110,B,Raw,No,185,-195,195,195,,Pro Juniors 20-23,1992-05-20,1
M,Ruslan Kachanov,Руслан Качанов,106.3,,,,,,220,110,B,Raw,No,210,220,-230,220,,Pro Open,1970-10-19,2
M,Yuriy Dannikov,Юрий Данников,109.8,,,,,,197.5,110,B,Raw,No,180,197.5,-200,197.5,,Pro Open,1974-12-04,3
M,Leonid Khlabynin,Леонид Хлабынин,103.6,,,,,,190,110,B,Raw,No,180,190,-197.5,190,,Pro Open,1986-06-18,4
M,Andrey Evdokimov,Андрей Евдокимов,107.8,,,,,,172.5,110,B,Raw,No,-172.5,172.5,-175,172.5,,Pro Open,1978-04-16,5
M,Ruslan Kachanov,Руслан Качанов,106.3,,,,,,220,110,B,Raw,No,210,220,-230,220,,Pro Masters 40-44,1970-10-19,1
M,Yuriy Dannikov,Юрий Данников,109.8,,,,,,197.5,110,B,Raw,No,180,197.5,-200,197.5,,Pro Masters 40-44,1974-12-04,2
M,Ruslan Pustovoy,Руслан Пустовой,117.8,,,,,,225,125,B,Raw,No,215,225,-232.5,225,,Pro Open,1979-08-28,1
M,Aleksandr Kuzmin,Александр Кузьмин,124.7,,,,,,215,125,B,Raw,No,-210,-215,215,215,,Pro Open,1988-05-31,2
M,Roman Bulatnikov,Роман Булатников,111.3,,,,,,190,125,B,Raw,No,180,190,-195,190,,Pro Masters 40-44,1970-04-24,1
M,Oleg Mordvintsev,Олег Мордвинцев,115.5,,,,,,162.5,125,B,Raw,No,152.5,157.5,162.5,162.5,,Pro Masters 40-44,1973-03-21,2
M,Bogdan Kozak,Богдан Козак,133.5,,,,,,260,140,B,Raw,No,255,260,,260,,Pro Open,1984-04-05,1
M,Sergey Zimin,Сергей Зимин,131.7,,,,,,235,140,B,Raw,No,215,225,235,235,,Pro Open,1972-02-14,2
