Place,Division,Name,CyrillicName,BirthDate,BodyweightKg,WeightClassKg,Sex,Squat1Kg,Squat2Kg,Squat3Kg,Best3SquatKg,Bench1Kg,Bench2Kg,Bench3Kg,Best3BenchKg,Deadlift1Kg,Deadlift2Kg,Deadlift3Kg,Best3DeadliftKg,TotalKg,Event,Equipment,Tested
1,Amateur Teen 18-19,Valeriya Sufiyanova,Валерия Суфиянова,1999-02-01,47.3,48,F,,,,,,,,,87.5,92.5,95,95,95,D,Raw,Yes
1,Amateur Teen 18-19,Anastasiya Gryaznykh,Анастасия Грязных,1998-12-30,51.1,52,F,,,,,,,,,107.5,115,120,120,120,D,Raw,Yes
1,Amateur Open,Olesya Markovskaya,Олеся Марковская,1981-11-10,55.6,56,F,,,,,,,,,95,105,107.5,107.5,107.5,D,Raw,Yes
1,Amateur Teen 18-19,Igor Potapov,Игорь Потапов,1999-11-01,55.4,56,M,,,,,,,,,155,162.5,167.5,167.5,167.5,D,Raw,Yes
1,Amateur Teen 18-19,Ivan Bashatov,Иван Башатов,1998-07-16,79.5,82.5,M,,,,,,,,,185,192.5,-197.5,192.5,192.5,D,Raw,Yes
2,Amateur Teen 18-19,Mikhail Galimon,Михаил Галимон,1999-07-21,77.1,82.5,M,,,,,,,,,175,-192.5,-197.5,175,175,D,Raw,Yes
1,Amateur Open,Aleksey Vinyukov,Алексей Винюков,1973-10-19,82,82.5,M,,,,,,,,,230,240,250,250,250,D,Raw,Yes
2,Amateur Open,Artem Altukhov,Артем Алтухов,1993-12-28,80.9,82.5,M,,,,,,,,,170,185,200,200,200,D,Raw,Yes
1,Amateur Masters 40-44,Aleksey Vinyukov,Алексей Винюков,1973-10-19,82,82.5,M,,,,,,,,,230,240,250,250,250,D,Raw,Yes
1,Amateur Teen 18-19,Dmitriy Sinelnikov,Дмитрий Синельников,1999-08-05,88.3,90,M,,,,,,,,,195,212.5,222.5,222.5,222.5,D,Raw,Yes
2,Amateur Teen 18-19,Roman Avdeev,Роман Авдеев,1998-05-18,88.3,90,M,,,,,,,,,195,212.5,222.5,222.5,222.5,D,Raw,Yes
1,Amateur Juniors 20-23,Dmitriy Sidorov,Дмитрий Сидоров,1994-06-25,84.3,90,M,,,,,,,,,160,170,175,175,175,D,Raw,Yes
1,Amateur Open,Dmitriy Sidorov,Дмитрий Сидоров,1994-06-25,84.3,90,M,,,,,,,,,160,170,175,175,175,D,Raw,Yes
1,Amateur Open,Pavel Gensitskiy,Павел Генсицкий,1991-06-18,124.7,125,M,,,,,,,,,255,275,285,285,285,D,Raw,Yes
1,Amateur Teen 18-19,Aleksey Ryzhikh,Алексей Рыжих,1998-04-28,75,75,M,,,,,,,,,200,-212.5,-212.5,200,200,D,Single-ply,Yes
1,Amateur Juniors 20-23,Dmitriy Chakilev,Дмитрий Чакилев,1995-01-16,77,82.5,M,,,,,,,,,-160,165,175,175,175,D,Single-ply,Yes
1,Pro Juniors 20-23,Aleksey Khristov,Алексей Христов,1994-05-24,60,60,M,,,,,,,,,180,-205,-205,180,180,D,Raw,No
1,Pro Teen 16-17,Eduard Vorobev,Эдуард Воробьев,2001-04-20,87.6,90,M,,,,,,,,,170,187.5,-192.5,187.5,187.5,D,Raw,No
1,Pro Open,Aleksey Kleymanov,Алексей Клейманов,1993-09-19,87,90,M,,,,,,,,,200,210,-230,210,210,D,Raw,No
1,Pro Masters 50-54,Vadim Raskin,Вадим Раскин,1968-02-05,98.6,100,M,,,,,,,,,230,235,-240,235,235,D,Raw,No
1,Pro Open,Aleksey Slepokurov,Алексей Слепокуров,1980-12-03,103.7,110,M,,,,,,,,,260,285,300,300,300,D,Raw,No
2,Pro Open,Anton Vulfert,Антон Вульферт,1990-02-25,103.1,110,M,,,,,,,,,230,250,-260,250,250,D,Raw,No
1,Pro Open,Aleksandr Shestunov,Александр Шестунов,1981-04-03,119.5,125,M,,,,,,,,,280,-300,-300,280,280,D,Raw,No
1,Pro Open,Bair Varnakov,Баир Варнаков,1988-02-28,97.4,100,M,,,,,,,,,265,275,-285,275,275,D,Single-ply,No
1,Amateur Open,Anastasiya Volkova,Анастасия Волкова,1990-04-20,46.7,48,F,,,,,-80,-85,85,85,,,,,85,B,Unlimited,Yes
1,Amateur Open,Mariya Savina,Мария Савина,1988-09-01,51.1,52,F,,,,,-85,85,-92.5,85,,,,,85,B,Unlimited,Yes
1,Amateur Open,Nadezhda Ponomareva,Надежда Пономарева,1987-02-07,56,56,F,,,,,-100,100,-105,100,,,,,100,B,Unlimited,Yes
DQ,Amateur Juniors 20-23,Evgeniy Zakharov,Евгений Захаров,1996-08-08,73.2,75,M,,,,,-150,-150,-160,,,,,,,B,Unlimited,Yes
1,Amateur Juniors 20-23,Sino Rakhimov,Сино Рахимов,1995-06-26,79.3,82.5,M,,,,,160,-172.5,-172.5,160,,,,,160,B,Unlimited,Yes
DQ,Amateur Open,Aleksandr Savin,Александр Савин,1986-06-01,89.7,90,M,,,,,-230,-230,-230,,,,,,,B,Unlimited,Yes
1,Amateur Open,Aleksey Borets,Алексей Борец,1984-08-14,97.1,100,M,,,,,190,200,210,210,,,,,210,B,Unlimited,Yes
2,Amateur Open,Erik Genze,Эрик Гензе,1992-05-30,97,100,M,,,,,175,182.5,190,190,,,,,190,B,Unlimited,Yes
DQ,Amateur Open,Sergey Belyaev,Сергей Беляев,1983-08-23,95.4,100,M,,,,,-190,-190,-200,,,,,,,B,Unlimited,Yes
1,Amateur Masters 55-59,Igor Karapuzov,Игорь Карапузов,1962-07-29,100.8,110,M,,,,,190,-200,-210,190,,,,,190,B,Unlimited,Yes
1,Amateur Open,Sergey Chesnykh,Сергей Чесных,1990-05-22,117,125,M,,,,,200,215,225,225,,,,,225,B,Unlimited,Yes
1,Amateur Juniors 20-23,Valeriya Manucharyan,Валерия Манучарян,1995-03-05,49.4,52,F,,,,,42.5,45,-50,45,,,,,45,B,Raw,Yes
1,Amateur Open,Darya Bgavina,Дарья Бгавина,1995-04-27,52,52,F,,,,,70,75,-77.5,75,,,,,75,B,Raw,Yes
1,Amateur Masters 40-44,Irina Kisileva,Ирина Кисилева,1974-08-18,55.5,56,F,,,,,67.5,-72.5,-72.5,67.5,,,,,67.5,B,Raw,Yes
1,Amateur Masters 45-49,Nina Sannikova,Нина Санникова,1971-05-16,66.6,67.5,F,,,,,55,57.5,-60,57.5,,,,,57.5,B,Raw,Yes
1,Amateur Open,Anton Budko,Антон Будко,1993-06-22,58.8,60,M,,,,,90,-97.5,-97.5,90,,,,,90,B,Raw,Yes
1,Amateur Teen 18-19,Evgeniy Babanin,Евгений Бабанин,1999-07-24,67.5,67.5,M,,,,,100,110,115,115,,,,,115,B,Raw,Yes
1,Amateur Open,Andrey Agishev,Андрей Агишев,1990-10-25,67.1,67.5,M,,,,,110,117.5,-125,117.5,,,,,117.5,B,Raw,Yes
2,Amateur Open,Evgeniy Kuklin,Евгений Куклин,1981-12-16,67.5,67.5,M,,,,,110,115,-125,115,,,,,115,B,Raw,Yes
1,Amateur Teen 16-17,Sergey Gavrilov,Сергей Гаврилов,2000-04-22,73,75,M,,,,,110,117.5,-120,117.5,,,,,117.5,B,Raw,Yes
2,Amateur Teen 16-17,Vladislav Chesnokov,Владислав Чесноков,2001-07-28,71.7,75,M,,,,,-95,100,105,105,,,,,105,B,Raw,Yes
3,Amateur Teen 16-17,Artem Bobrov,Артем Бобров,2002-01-03,74.3,75,M,,,,,75,82.5,87.5,87.5,,,,,87.5,B,Raw,Yes
4,Amateur Teen 16-17,Yaroslav Tyukin,Ярослав Тюкин,2001-04-05,73.9,75,M,,,,,77.5,-80,-80,77.5,,,,,77.5,B,Raw,Yes
1,Amateur Open,Viktor Kolomiets,Виктор Коломиец,1991-07-28,73.5,75,M,,,,,-145,145,-155,145,,,,,145,B,Raw,Yes
2,Amateur Open,Vitaliy Kopotienko,Виталий Копотиенко,1985-10-26,72.1,75,M,,,,,125,130,137.5,137.5,,,,,137.5,B,Raw,Yes
3,Amateur Open,Denis Kuklin,Денис Куклин,1989-09-06,74.2,75,M,,,,,130,137.5,-140,137.5,,,,,137.5,B,Raw,Yes
4,Amateur Open,Khusein Karakotov,Хусеин Каракотов,1991-02-28,75,75,M,,,,,-115,-120,120,120,,,,,120,B,Raw,Yes
5,Amateur Open,Aleksandr Sholokhov,Александр Шолохов,1991-10-06,69,75,M,,,,,115,117.5,-120,117.5,,,,,117.5,B,Raw,Yes
DQ,Amateur Open,Roman Nagibin,Роман Нагибин,1982-08-10,74.6,75,M,,,,,-125,-125,-125,,,,,,,B,Raw,Yes
1,Amateur Juniors 20-23,Maksim Azyomkin,Максим Азёмкин,1995-10-27,79.5,82.5,M,,,,,145,-150,150,150,,,,,150,B,Raw,Yes
DQ,Amateur Open,Dmitriy Komarov,Дмитрий Комаров,1996-11-08,81.5,82.5,M,,,,,-160,-160,-160,,,,,,,B,Raw,Yes
1,Amateur Open,Mikhail Rets,Михаил Рец,1981-06-13,82,82.5,M,,,,,-150,150,-155,150,,,,,150,B,Raw,Yes
2,Amateur Open,Artem Altukhov,Артем Алтухов,1993-12-08,80.9,82.5,M,,,,,127.5,135,-137.5,135,,,,,135,B,Raw,Yes
DQ,Amateur Open,Aleksandr Papin,Александр Папин,1988-06-27,81,82.5,M,,,,,-130,-130,-135,,,,,,,B,Raw,Yes
1,Amateur Masters 40-44,Maksim Yarkov,Максим Ярков,1976-08-03,80.8,82.5,M,,,,,130,140,-145,140,,,,,140,B,Raw,Yes
1,Amateur Masters 60-64,Aleksandr Cherkasov,Александр Черкасов,1956-09-21,80.3,82.5,M,,,,,130,135,-140,135,,,,,135,B,Raw,Yes
1,Amateur Juniors 20-23,Ibrokhimzhon Atakhonov,Иброхимжон Атахонов,1994-07-18,88.2,90,M,,,,,130,140,-145,140,,,,,140,B,Raw,Yes
1,Amateur Open,Mikhail Shpagin,Михаил Шпагин,1988-10-25,88.6,90,M,,,,,150,160,165,165,,,,,165,B,Raw,Yes
2,Amateur Open,Aleksey Limarev,Алексей Лимарев,1986-09-05,86.7,90,M,,,,,140,152.5,-160,152.5,,,,,152.5,B,Raw,Yes
3,Amateur Open,Artem Derevyanchenko,Артем Деревянченко,1986-03-05,82.6,90,M,,,,,130,135,-140,135,,,,,135,B,Raw,Yes
4,Amateur Open,Dmitriy Radchenko,Дмитрий Радченко,1979-05-04,89.1,90,M,,,,,130,-140,-145,130,,,,,130,B,Raw,Yes
5,Amateur Open,Maksim Korostin,Максим Коростин,1985-12-31,89.9,90,M,,,,,125,-135,-135,125,,,,,125,B,Raw,Yes
1,Amateur Masters 45-49,Stanislav Korobeynikov,Станислав Коробейников,1971-03-17,89.5,90,M,,,,,160,170,-175,170,,,,,170,B,Raw,Yes
1,Amateur Teen 13-15,Yuriy Balaban,Юрий Балабан,2003-02-15,97.6,100,M,,,,,90,-97.5,-97.5,90,,,,,90,B,Raw,Yes
1,Amateur Open,Pavel Kuks,Павел Кукс,1985-10-05,97.4,100,M,,,,,-157.5,162.5,170,170,,,,,170,B,Raw,Yes
2,Amateur Open,Andrey Vtorushin,Андрей Вторушин,1979-11-21,97.8,100,M,,,,,150,-160,-160,150,,,,,150,B,Raw,Yes
1,Amateur Masters 45-49,Sergey Voronets,Сергей Воронец,1971-10-16,94.1,100,M,,,,,165,-175,-175,165,,,,,165,B,Raw,Yes
1,Amateur Teen 18-19,Nikita Kurochkin,Никита Курочкин,1998-05-19,107.6,110,M,,,,,-170,170,175,175,,,,,175,B,Raw,Yes
1,Amateur Open,Ikromzhon Atakhonov,Икромжон Атахонов,1989-06-18,108.8,110,M,,,,,190,200,210,210,,,,,210,B,Raw,Yes
2,Amateur Open,Aleksey Isakov,Алексей Исаков,1972-02-16,105.7,110,M,,,,,180,-190,-190,180,,,,,180,B,Raw,Yes
3,Amateur Open,Aleksandr Skorospelov,Александр Скороспелов,1990-10-05,102.3,110,M,,,,,140,147.5,-150,147.5,,,,,147.5,B,Raw,Yes
4,Amateur Open,Aleksandr Avgustinovich,Александр Августинович,1991-05-04,107.6,110,M,,,,,145,-155,-155,145,,,,,145,B,Raw,Yes
DQ,Amateur Open,Grigoriy Bogoslovtsev,Григорий Богословцев,1984-06-20,107.6,110,M,,,,,-140,-145,-147.5,,,,,,,B,Raw,Yes
1,Amateur Masters 40-44,Pavel Timofeev,Павел Тимофеев,1977-03-08,106.2,110,M,,,,,165,172.5,-175,172.5,,,,,172.5,B,Raw,Yes
1,Amateur Masters 50-54,Andrey Mazepa,Андрей Мазепа,1964-04-09,110,110,M,,,,,125,130,135,135,,,,,135,B,Raw,Yes
1,Amateur Masters 40-44,Mikhail Kagala,Михаил Кагала,1973-11-25,137,140,M,,,,,160,-170,-170,160,,,,,160,B,Raw,Yes
1,Pro Masters 40-44,Elena Strukova,Елена Струкова,1973-07-11,66.2,67.5,F,,,,,62.5,65,67.5,67.5,,,,,67.5,B,Raw,No
1,Pro Open,Nikolay Troshin,Николай Трошин,1990-10-11,59,60,M,,,,,45,-55,55,55,,,,,55,B,Raw,No
1,Pro Open,Rustam Baytulov,Рустам Байтулов,1983-08-20,64.9,67.5,M,,,,,90,95,-100,95,,,,,95,B,Raw,No
1,Pro Open,Andrey Solodkin,Андрей Солодкин,1989-05-28,71.8,75,M,,,,,100,105,107.5,107.5,,,,,107.5,B,Raw,No
1,Pro Masters 55-59,Viktor Kushov,Виктор Кушов,1962-11-21,75,75,M,,,,,70,75,77.5,77.5,,,,,77.5,B,Raw,No
1,Pro Teen 18-19,Egor Kazakov,Егор Казаков,1999-02-19,80.5,82.5,M,,,,,47.5,57.5,62.5,62.5,,,,,62.5,B,Raw,No
1,Pro Open,Andrey Tolkachov,Андрей Толкачов,1993-05-08,77,82.5,M,,,,,110,120,127.5,127.5,,,,,127.5,B,Raw,No
2,Pro Open,Mikhail Nalivanskiy,Михаил Наливанский,1990-04-04,78.8,82.5,M,,,,,100,110,-115,110,,,,,110,B,Raw,No
1,Pro Open,Dmitriy Ivanushkin,Дмитрий Иванушкин,1990-05-23,85.7,90,M,,,,,80,85,90,90,,,,,90,B,Raw,No
1,Pro Open,Mariya Bardakova,Мария Бардакова,1993-07-16,52,52,F,,,,,55,60,-65,60,,,,,60,B,Raw,No
1,Pro Masters 50-54,Elena Belova,Елена Белова,1966-03-12,52,52,F,,,,,45,50,-52.5,50,,,,,50,B,Raw,No
1,Pro Open,Larisa Nizhnikova,Лариса Нижникова,1983-05-31,55.2,56,F,,,,,50,-57.5,57.5,57.5,,,,,57.5,B,Raw,No
1,Pro Open,Alina Kufeld,Алина Куфельд,1991-04-10,59.9,60,F,,,,,72.5,-75,-75,72.5,,,,,72.5,B,Raw,No
1,Pro Teen 16-17,Fedor Blynskiy,Федор Блынский,2000-06-02,55,56,M,,,,,40,-50,-50,40,,,,,40,B,Raw,No
1,Pro Teen 16-17,Roman Kaygorodtsev,Роман Кайгородцев,2000-05-24,71,75,M,,,,,80,90,-95,90,,,,,90,B,Raw,No
1,Pro Teen 16-17,Eduard Vorobev,Эдуард Воробьев,2001-04-20,87.6,90,M,,,,,100,105,110,110,,,,,110,B,Raw,No
1,Pro Open,Denis Romanov,Денис Романов,1994-04-24,100,100,M,,,,,210,-220,-220,210,,,,,210,B,Raw,No
2,Pro Open,Ivan Zhuravlev,Иван Журавлев,1990-05-17,100,100,M,,,,,182.5,190,195,195,,,,,195,B,Raw,No
3,Pro Open,Oleg Prytkov,Олег Прытков,1984-04-19,98.1,100,M,,,,,170,175,-180,175,,,,,175,B,Raw,No
4,Pro Open,Artem Kulichenko,Артем Куличенко,1987-08-21,97.1,100,M,,,,,155,160,165,165,,,,,165,B,Raw,No
DQ,Pro Open,Mikhail Yablonskiy,Михаил Яблонский,1981-12-22,100,100,M,,,,,-180,,,,,,,,,B,Raw,No
1,Pro Open,Anton Kosolapov,Антон Косолапов,1990-07-08,105.7,110,M,,,,,190,-200,210,210,,,,,210,B,Raw,No
2,Pro Open,Aleksandr Mikhaylov,Александр Михайлов,1990-12-19,102.7,110,M,,,,,170,180,-190,180,,,,,180,B,Raw,No
3,Pro Open,Sergey Panteleev,Сергей Пантелеев,1982-10-28,105.1,110,M,,,,,160,170,180,180,,,,,180,B,Raw,No
4,Pro Open,Gennadiy Serkin,Геннадий Серкин,1988-10-31,108.9,110,M,,,,,-165,170,172.5,172.5,,,,,172.5,B,Raw,No
1,Pro Masters 40-44,Aleksandr Gryaznov,Александр Грязнов,1975-06-08,102.6,110,M,,,,,140,145,147.5,147.5,,,,,147.5,B,Raw,No
1,Pro Open,Stanislav Kolachev,Станислав Колачев,1987-03-20,120,125,M,,,,,210,-222.5,225,225,,,,,225,B,Raw,No
1,Pro Open,Anna Isakova,Анна Исакова,1988-11-08,56,56,F,,,,,70,-80,-80,70,,,,,70,B,Unlimited,No
1,Pro Juniors 20-23,Aleksey Petrov,Алексей Петров,1994-08-25,71.2,75,M,,,,,-187.5,187.5,-200,187.5,,,,,187.5,B,Unlimited,No
1,Pro Open,Ivan Semenov,Иван Семенов,1992-06-21,74,75,M,,,,,180,-200,200,200,,,,,200,B,Unlimited,No
2,Pro Open,Sergey Filippov,Сергей Филиппов,1978-09-27,74.4,75,M,,,,,140,-150,150,150,,,,,150,B,Unlimited,No
1,Pro Open,Dmitriy Savchenko,Дмитрий Савченко,1981-08-03,88,90,M,,,,,190,210,-220,210,,,,,210,B,Unlimited,No
1,Pro Juniors 20-23,Daniil Kulagin,Даниил Кулагин,1995-09-11,109,110,M,,,,,-250,250,-282.5,250,,,,,250,B,Unlimited,No
1,Pro Open,Maksim Chapaev,Максим Чапаев,1991-06-26,105.3,110,M,,,,,280,290,-300,290,,,,,290,B,Unlimited,No
2,Pro Open,Maksim Chuvichkin,Максим Чувичкин,1983-11-12,108,110,M,,,,,250,-275,-275,250,,,,,250,B,Unlimited,No
3,Pro Open,Vladimir Kovalenko,Владимир Коваленко,1987-07-16,105.9,110,M,,,,,180,-200,200,200,,,,,200,B,Unlimited,No
4,Pro Open,Nikita Mezentsev,Никита Мезенцев,1991-03-22,104,110,M,,,,,180,-190,-190,180,,,,,180,B,Unlimited,No
1,Pro Open,Vladimir Samoylov,Владимир Самойлов,1991-05-09,122.4,125,M,,,,,320,352.5,,352.5,,,,,352.5,B,Unlimited,No
DQ,Pro Open,Andrey Cherepanov,Андрей Черепанов,1980-04-16,87.8,90,M,,,,,-220,-220,-220,,,,,,,B,Multi-ply,No
1,Amateur Teen 18-19,Valeriya Sufiyanova,Валерия Суфиянова,1999-02-01,47.3,48,F,70,72.5,75,75,40,-45,-45,40,90,-95,,90,205,SBD,Raw,Yes
1,Amateur Masters 50-54,Natalya Yarotskaya,Наталья Яроцкая,1963-09-18,51.8,52,F,80,-85,85,85,-50,50,52.5,52.5,95,100,105,105,242.5,SBD,Raw,Yes
1,Amateur Open,Svetlana Kufeld,Светлана Куфельд,1968-05-06,55.8,56,F,90,95,-97.5,95,62.5,65,67.5,67.5,110,120,-130,120,282.5,SBD,Raw,Yes
1,Amateur Open,Olga Yumasheva,Ольга Юмашева,1990-07-17,58.6,60,F,85,90,95,95,50,52.5,55,55,90,100,110,110,260,SBD,Raw,Yes
1,Amateur Masters 45-49,Elena Gryaznova,Елена Грязнова,1971-01-13,82,82.5,F,-90,90,105,105,-42.5,42.5,-50,42.5,110,120,-130,120,267.5,SBD,Raw,Yes
1,Amateur Teen 18-19,Igor Potapov,Игорь Потапов,1999-11-01,55.4,56,M,107.5,112.5,117.5,117.5,90,-92.5,-92.5,90,150,160,,160,367.5,SBD,Raw,Yes
1,Amateur Open,Artem Adov,Артем Адов,1987-09-02,67,67.5,M,135,145,150,150,-95,-95,95,95,170,180,-185,180,425,SBD,Raw,Yes
1,Amateur Teen 16-17,Timur Alimov,Тимур Алимов,2000-05-13,70.4,75,M,150,-160,-160,150,-110,110,-120,110,160,180,-200,180,440,SBD,Raw,Yes
1,Amateur Juniors 20-23,Aleksey Sukachev,Алексей Сукачев,1998-01-25,73.2,75,M,160,165,170,170,105,110,112.5,112.5,190,200,210,210,492.5,SBD,Raw,Yes
1,Amateur Open,Gennadiy Akulov,Геннадий Акулов,1989-04-24,79,82.5,M,145,155,160,160,110,117.5,-122.5,117.5,160,170,177.5,177.5,455,SBD,Raw,Yes
1,Amateur Masters 45-49,Viktor Shinkarev,Виктор Шинкарев,1971-04-24,82.5,82.5,M,135,145,150,150,100,105,107.5,107.5,185,195,200,200,457.5,SBD,Raw,Yes
1,Amateur Teen 18-19,Roman Avdeev,Роман Авдеев,1998-05-18,88.3,90,M,150,160,170,170,100,102.5,105,105,185,195,202.5,202.5,477.5,SBD,Raw,Yes
2,Amateur Teen 18-19,Dmitriy Sinelnikov,Дмитрий Синельников,1999-08-05,88.3,90,M,160,-165,-165,160,105,112.5,115,115,185,195,202.5,202.5,477.5,SBD,Raw,Yes
1,Amateur Masters 40-44,Aleksey Karnaukhov,Алексей Карнаухов,1977-05-25,87.9,90,M,125,132.5,-137.5,132.5,115,120,-122.5,120,175,182.5,190,190,442.5,SBD,Raw,Yes
1,Amateur Open,Svyatoslav Brusentsov,Святослав Брусенцов,1994-01-24,99,100,M,160,170,-175,170,150,-155,-155,150,160,175,182.5,182.5,502.5,SBD,Raw,Yes
1,Amateur Open,Andrey Sochenko,Андрей Соченко,1988-04-27,104,110,M,180,200,-215,200,150,160,-165,160,215,230,250,250,610,SBD,Raw,Yes
DQ,Amateur Open,Nadezhda Ponomareva,Надежда Пономарева,1987-02-07,56,56,F,-140,-140,-140,,,,,,,,,,,SBD,Unlimited,Yes
1,Amateur Open,Mariya Zhuravleva,Мария Журавлева,1993-09-01,67.1,67.5,F,135,147.5,-152.5,147.5,-107.5,107.5,110,110,130,140,-155,140,397.5,SBD,Unlimited,Yes
1,Pro Juniors 20-23,Vladislav Medvedev,Владислав Медведев,1996-04-05,74.8,75,M,200,-210,-210,200,125,130,-140,130,200,-210,-210,200,530,SBD,Wraps,No
1,Pro Teen 18-19,Artem Kozulin,Артем Козулин,1999-04-16,82.5,82.5,M,180,-195,-195,180,115,120,125,125,170,190,-200,190,495,SBD,Wraps,No
1,Pro Open,Vladimir Pasternak,Владимир Пастернак,1990-11-28,82,82.5,M,240,255,260,260,135,147.5,-152.5,147.5,210,230,-240,230,637.5,SBD,Wraps,No
1,Pro Open,Aleksey Ermachenkov,Алексей Ермаченков,1993-09-24,87,90,M,200,220,240,240,-130,130,-135,130,200,220,-230,220,590,SBD,Wraps,No
1,Pro Teen 18-19,Olga Petrukhina,Ольга Петрухина,1998-08-21,51.9,52,F,50,60,70,70,30,40,-45,40,60,70,80,80,190,SBD,Raw,No
1,Pro Open,Ekaterina Naletova,Екатерина Налетова,1980-03-04,52,52,F,40,50,57.5,57.5,35,40,-42.5,40,60,75,-80,75,172.5,SBD,Raw,No
1,Pro Juniors 20-23,Ekaterina Bogoslavskaya,Екатерина Богославская,1997-05-28,56,56,F,60,-70,-70,60,35,-45,-45,35,60,70,-80,70,165,SBD,Raw,No
1,Pro Open,Anna Mikhalina,Анна Михалина,1990-12-28,55.9,56,F,75,85,-95,85,50,-55,55,55,85,92.5,-100,92.5,232.5,SBD,Raw,No
2,Pro Open,Kseniya Druzhinina,Ксения Дружинина,1987-08-18,56,56,F,30,-40,-40,30,30,-35,-35,30,50,70,-85,70,130,SBD,Raw,No
1,Pro Teen 16-17,Polina Kryuchkova,Полина Крючкова,2001-04-09,60,60,F,45,50,-57.5,50,35,42.5,-45,42.5,65,70,75,75,167.5,SBD,Raw,No
1,Pro Masters 45-49,Irina Vysotskaya,Ирина Высоцкая,1970-11-07,60,60,F,55,67.5,77.5,77.5,50,57.5,60,60,70,85,92.5,92.5,230,SBD,Raw,No
2,Pro Masters 45-49,Tatyana Garkunova,Татьяна Гаркунова,1970-09-24,60,60,F,60,-70,70,70,50,57.5,-60,57.5,70,80,90,90,217.5,SBD,Raw,No
1,Pro Teen 18-19,German Klyayn,Герман Кляйн,1998-07-15,67,67.5,M,120,130,145,145,80,90,-92.5,90,160,180,-190,180,415,SBD,Raw,No
1,Pro Juniors 20-23,Roman Rogozhkin,Роман Рогожкин,1997-01-09,81,82.5,M,170,182.5,190,190,120,130,-135,130,200,215,235,235,555,SBD,Raw,No
2,Pro Juniors 20-23,Nikita Savelev,Никита Савельев,1997-04-22,81,82.5,M,-175,175,-182.5,175,100,-110,-110,100,-170,170,-190,170,445,SBD,Raw,No
1,Pro Teen 16-17,Mark Garkunov,Марк Гаркунов,2002-02-07,86,90,M,60,90,100,100,70,-85,-85,70,80,100,115,115,285,SBD,Raw,No
1,Pro Open,Egor Ivantsov,Егор Иванцов,1988-07-22,87,90,M,130,145,-155,145,-115,120,130,130,150,170,180,180,455,SBD,Raw,No
1,Pro Open,Maksim Ivanov,Максим Иванов,1989-06-16,96.2,100,M,210,225,240,240,140,150,-160,150,230,245,255,255,645,SBD,Raw,No
2,Pro Open,Evgeniy Panin,Евгений Панин,1990-09-08,94.4,100,M,195,205,210,210,145,-155,155,155,230,250,260,260,625,SBD,Raw,No
1,Pro Open,Anatoliy Eskin,Анатолий Еськин,1981-07-16,109.9,110,M,230,240,250,250,180,190,200,200,250,260,280,280,730,SBD,Raw,No
2,Pro Open,Yuriy Astapov,Юрий Астапов,1988-06-12,104,110,M,150,170,175,175,120,130,-132.5,130,160,180,200,200,505,SBD,Raw,No
1,Pro Open,Vitaliy Gubkin,Виталий Губкин,1980-08-09,116,125,M,240,250,260,260,182.5,-192.5,-202.5,182.5,255,-280,,255,697.5,SBD,Raw,No
1,Pro Open,Vladimir Sviridov,Владимир Свиридов,1979-08-09,154.1,140+,M,-300,300,315,315,195,205,-215,205,310,340,-355,340,860,SBD,Raw,No
1,Pro Open,Dmitriy Sklyarov,Дмитрий Скляров,1981-10-01,80.1,82.5,M,250,260,270,270,170,-180,-180,170,220,-240,-255,220,660,SBD,Multi-ply,No
1,Pro Open,Aleksandr Ryabovolov,Александр Рябоволов,1989-01-25,88,90,M,-270,270,290,290,160,-170,-170,160,-260,-260,260,260,710,SBD,Multi-ply,No
